digraph {
	graph [fontname=Arial, nodesep=0.125, ranksep=0.25];
	node [fontcolor=white, fontname=Arial, height=0, shape=box, style=filled, width=0];
	edge [fontname=Arial];
	1 [color="#ff0100", fontcolor="#ffffff", fontsize="10.00", label="main\n99.91%\n(0.31%)"];
	1 -> 2 [arrowsize="0.98", color="#f92a01", fontcolor="#f92a01", fontsize="10.00", label="95.85%\n32000000×", labeldistance="3.83", penwidth="3.83"];
	1 -> 17 [arrowsize="0.35", color="#0d1976", fontcolor="#0d1976", fontsize="10.00", label="2.80%\n32000000×", labeldistance="0.50", penwidth="0.50"];
	1 -> 23 [arrowsize="0.35", color="#0d1074", fontcolor="#0d1074", fontsize="10.00", label="0.82%\n1×", labeldistance="0.50", penwidth="0.50"];
	2 [color="#f92a01", fontcolor="#ffffff", fontsize="10.00", label="color(ray const&, hitable*, int)\n95.85%\n(0.95%)\n71953849×"];
	2 -> 2 [arrowsize="0.98", color="#f92a01", fontcolor="#f92a01", fontsize="10.00", label="39953849×", labeldistance="3.83", penwidth="3.83"];
	2 -> 3 [arrowsize="0.90", color="#e2b004", fontcolor="#e2b004", fontsize="10.00", label="80.64%\n39953849×", labeldistance="3.23", penwidth="3.23"];
	2 -> 8 [arrowsize="0.35", color="#0d3e81", fontcolor="#0d3e81", fontsize="10.00", label="10.73%\n71953849×", labeldistance="0.50", penwidth="0.50"];
	2 -> 10 [arrowsize="0.35", color="#0d0d73", fontcolor="#0d0d73", fontsize="10.00", label="0.13%\n63986574×", labeldistance="0.50", penwidth="0.50"];
	2 -> 14 [arrowsize="0.35", color="#0d1074", fontcolor="#0d1074", fontsize="10.00", label="0.90%\n63973148×", labeldistance="0.50", penwidth="0.50"];
	2 -> 16 [arrowsize="0.35", color="#0d0f73", fontcolor="#0d0f73", fontsize="10.00", label="0.46%\n31986574×", labeldistance="0.50", penwidth="0.50"];
	2 -> 27 [arrowsize="0.35", color="#0d1074", fontcolor="#0d1074", fontsize="10.00", label="0.79%\n31986574×", labeldistance="0.50", penwidth="0.50"];
	2 -> 29 [arrowsize="0.35", color="#0d1074", fontcolor="#0d1074", fontsize="10.00", label="0.77%\n39953849×", labeldistance="0.50", penwidth="0.50"];
	3 [color="#e2b004", fontcolor="#ffffff", fontsize="10.00", label="lambertian::scatter(ray const&, hit_record const&, vec3&, ray&) const\n80.64%\n(0.56%)\n39953849×"];
	3 -> 4 [arrowsize="0.86", color="#d7d906", fontcolor="#d7d906", fontsize="10.00", label="74.73%\n39953849×", labeldistance="2.99", penwidth="2.99"];
	3 -> 13 [arrowsize="0.35", color="#0d0f73", fontcolor="#0d0f73", fontsize="10.00", label="0.57%\n39953849×", labeldistance="0.50", penwidth="0.50"];
	3 -> 15 [arrowsize="0.35", color="#0d1b77", fontcolor="#0d1b77", fontsize="10.00", label="3.46%\n39953849×", labeldistance="0.50", penwidth="0.50"];
	3 -> 16 [arrowsize="0.35", color="#0d1174", fontcolor="#0d1174", fontsize="10.00", label="1.14%\n79907698×", labeldistance="0.50", penwidth="0.50"];
	4 [color="#d7d906", fontcolor="#ffffff", fontsize="10.00", label="perlin_texture::value(float, float, vec3 const&) const\n74.73%\n(0.36%)\n39953849×"];
	4 -> 5 [arrowsize="0.85", color="#c0d606", fontcolor="#c0d606", fontsize="10.00", label="72.37%\n39953849×", labeldistance="2.89", penwidth="2.89"];
	4 -> 19 [arrowsize="0.35", color="#0d1475", fontcolor="#0d1475", fontsize="10.00", label="1.84%\n79907698×", labeldistance="0.50", penwidth="0.50"];
	5 [color="#c0d606", fontcolor="#ffffff", fontsize="10.00", label="perlin::turb(vec3 const&, int) const\n72.37%\n(0.73%)\n39953849×"];
	5 -> 6 [arrowsize="0.84", color="#aed306", fontcolor="#aed306", fontsize="10.00", label="70.47%\n279676943×", labeldistance="2.82", penwidth="2.82"];
	5 -> 30 [arrowsize="0.35", color="#0d0f74", fontcolor="#0d0f74", fontsize="10.00", label="0.65%\n39953849×", labeldistance="0.50", penwidth="0.50"];
	5 -> 31 [arrowsize="0.35", color="#0d0f73", fontcolor="#0d0f73", fontsize="10.00", label="0.53%\n279676943×", labeldistance="0.50", penwidth="0.50"];
	6 [color="#aed306", fontcolor="#ffffff", fontsize="10.00", label="perlin::noise(vec3 const&) const\n70.47%\n(23.21%)\n279676943×"];
	6 -> 7 [arrowsize="0.62", color="#0ba554", fontcolor="#0ba554", fontsize="10.00", label="38.10%\n279676943×", labeldistance="1.52", penwidth="1.52"];
	6 -> 12 [arrowsize="0.35", color="#0d2379", fontcolor="#0d2379", fontsize="10.00", label="5.13%\n1678061658×", labeldistance="0.50", penwidth="0.50"];
	6 -> 18 [arrowsize="0.35", color="#0d1475", fontcolor="#0d1475", fontsize="10.00", label="1.70%\n2237415544×", labeldistance="0.50", penwidth="0.50"];
	6 -> 24 [arrowsize="0.35", color="#0d1074", fontcolor="#0d1074", fontsize="10.00", label="0.79%\n839030829×", labeldistance="0.50", penwidth="0.50"];
	6 -> 26 [arrowsize="0.35", color="#0d1074", fontcolor="#0d1074", fontsize="10.00", label="0.79%\n839030829×", labeldistance="0.50", penwidth="0.50"];
	6 -> 28 [arrowsize="0.35", color="#0d1074", fontcolor="#0d1074", fontsize="10.00", label="0.75%\n839030829×", labeldistance="0.50", penwidth="0.50"];
	7 [color="#0ba554", fontcolor="#ffffff", fontsize="10.00", label="trilinear_interp(vec3 (*) [2][2], float, float, float)\n38.10%\n(28.34%)\n279676943×"];
	7 -> 10 [arrowsize="0.35", color="#0d2078", fontcolor="#0d2078", fontsize="10.00", label="4.43%\n2237415544×", labeldistance="0.50", penwidth="0.50"];
	7 -> 11 [arrowsize="0.35", color="#0d247a", fontcolor="#0d247a", fontsize="10.00", label="5.32%\n2237415544×", labeldistance="0.50", penwidth="0.50"];
	8 [color="#0d3e81", fontcolor="#ffffff", fontsize="10.00", label="hitable_list::hit(ray const&, float, float, hit_record&) const\n10.73%\n(0.70%)\n71953849×"];
	8 -> 9 [arrowsize="0.35", color="#0d3a7f", fontcolor="#0d3a7f", fontsize="10.00", label="9.83%\n143907698×", labeldistance="0.50", penwidth="0.50"];
	9 [color="#0d3a7f", fontcolor="#ffffff", fontsize="10.00", label="sphere::hit(ray const&, float, float, hit_record&) const\n9.83%\n(2.52%)\n143907698×"];
	9 -> 11 [arrowsize="0.35", color="#0d1174", fontcolor="#0d1174", fontsize="10.00", label="1.03%\n431723094×", labeldistance="0.50", penwidth="0.50"];
	9 -> 13 [arrowsize="0.35", color="#0d1876", fontcolor="#0d1876", fontsize="10.00", label="2.66%\n186528322×", labeldistance="0.50", penwidth="0.50"];
	9 -> 20 [arrowsize="0.35", color="#0d1375", fontcolor="#0d1375", fontsize="10.00", label="1.53%\n42620624×", labeldistance="0.50", penwidth="0.50"];
	9 -> 21 [arrowsize="0.35", color="#0d0f74", fontcolor="#0d0f74", fontsize="10.00", label="0.63%\n42620624×", labeldistance="0.50", penwidth="0.50"];
	9 -> 22 [arrowsize="0.35", color="#0d1174", fontcolor="#0d1174", fontsize="10.00", label="0.96%\n431723094×", labeldistance="0.50", penwidth="0.50"];
	10 [color="#0d2b7c", fontcolor="#ffffff", fontsize="10.00", label="vec3::vec3(float, float, float)\n6.91%\n(6.91%)\n3489328310×"];
	11 [color="#0d2a7b", fontcolor="#ffffff", fontsize="10.00", label="dot(vec3 const&, vec3 const&)\n6.53%\n(6.53%)\n2745456695×"];
	12 [color="#0d2379", fontcolor="#ffffff", fontsize="10.00", label="std::floor(float)\n5.13%\n(5.13%)\n1678061658×"];
	13 [color="#0d2179", fontcolor="#ffffff", fontsize="10.00", label="operator-(vec3 const&, vec3 const&)\n4.77%\n(4.11%)\n334800232×"];
	13 -> 10 [arrowsize="0.35", color="#0d0f74", fontcolor="#0d0f74", fontsize="10.00", label="0.66%\n334800232×", labeldistance="0.50", penwidth="0.50"];
	14 [color="#0d1c77", fontcolor="#ffffff", fontsize="10.00", label="operator*(float, vec3 const&)\n3.47%\n(2.99%)\n246911833×"];
	14 -> 10 [arrowsize="0.35", color="#0d0f73", fontcolor="#0d0f73", fontsize="10.00", label="0.49%\n246911833×", labeldistance="0.50", penwidth="0.50"];
	15 [color="#0d1b77", fontcolor="#ffffff", fontsize="10.00", label="random_in_unit_sphere()\n3.46%\n(0.78%)\n39953849×"];
	15 -> 10 [arrowsize="0.35", color="#0d0e73", fontcolor="#0d0e73", fontsize="10.00", label="0.30%\n152636114×", labeldistance="0.50", penwidth="0.50"];
	15 -> 11 [arrowsize="0.35", color="#0d0d73", fontcolor="#0d0d73", fontsize="10.00", label="0.18%\n76318057×", labeldistance="0.50", penwidth="0.50"];
	15 -> 13 [arrowsize="0.35", color="#0d1174", fontcolor="#0d1174", fontsize="10.00", label="1.09%\n76318057×", labeldistance="0.50", penwidth="0.50"];
	15 -> 14 [arrowsize="0.35", color="#0d1174", fontcolor="#0d1174", fontsize="10.00", label="1.07%\n76318057×", labeldistance="0.50", penwidth="0.50"];
	16 [color="#0d1a77", fontcolor="#ffffff", fontsize="10.00", label="operator+(vec3 const&, vec3 const&)\n3.13%\n(2.70%)\n218514896×"];
	16 -> 10 [arrowsize="0.35", color="#0d0f73", fontcolor="#0d0f73", fontsize="10.00", label="0.43%\n218514896×", labeldistance="0.50", penwidth="0.50"];
	17 [color="#0d1976", fontcolor="#ffffff", fontsize="10.00", label="camera::get_ray(float, float)\n2.80%\n(0.39%)\n32000000×"];
	17 -> 13 [arrowsize="0.35", color="#0d0f73", fontcolor="#0d0f73", fontsize="10.00", label="0.46%\n32000000×", labeldistance="0.50", penwidth="0.50"];
	17 -> 14 [arrowsize="0.35", color="#0d1074", fontcolor="#0d1074", fontsize="10.00", label="0.90%\n64000000×", labeldistance="0.50", penwidth="0.50"];
	17 -> 16 [arrowsize="0.35", color="#0d1174", fontcolor="#0d1174", fontsize="10.00", label="0.92%\n64000000×", labeldistance="0.50", penwidth="0.50"];
	18 [color="#0d1675", fontcolor="#ffffff", fontsize="10.00", label="vec3::vec3()\n2.15%\n(2.15%)\n2828994575×"];
	19 [color="#0d1475", fontcolor="#ffffff", fontsize="10.00", label="operator*(vec3 const&, float)\n1.84%\n(1.68%)\n79907698×"];
	19 -> 10 [arrowsize="0.35", color="#0d0d73", fontcolor="#0d0d73", fontsize="10.00", label="0.16%\n79907698×", labeldistance="0.50", penwidth="0.50"];
	20 [color="#0d1375", fontcolor="#ffffff", fontsize="10.00", label="ray::point_at_parameter(float) const\n1.53%\n(0.31%)\n42620624×"];
	20 -> 14 [arrowsize="0.35", color="#0d0f74", fontcolor="#0d0f74", fontsize="10.00", label="0.60%\n42620624×", labeldistance="0.50", penwidth="0.50"];
	20 -> 16 [arrowsize="0.35", color="#0d0f74", fontcolor="#0d0f74", fontsize="10.00", label="0.61%\n42620624×", labeldistance="0.50", penwidth="0.50"];
	21 [color="#0d1174", fontcolor="#ffffff", fontsize="10.00", label="operator/(vec3, float)\n1.10%\n(0.95%)\n74607457×"];
	21 -> 10 [arrowsize="0.35", color="#0d0d73", fontcolor="#0d0d73", fontsize="10.00", label="0.15%\n74607457×", labeldistance="0.50", penwidth="0.50"];
	22 [color="#0d1174", fontcolor="#ffffff", fontsize="10.00", label="ray::direction() const\n1.03%\n(1.03%)\n463709668×"];
	23 [color="#0d1074", fontcolor="#ffffff", fontsize="10.00", label="camera::camera(vec3, vec3, vec3, float, float)\n0.82%\n(0.00%)\n1×"];
	23 -> 25 [arrowsize="0.35", color="#0d1074", fontcolor="#0d1074", fontsize="10.00", label="0.82%\n1×", labeldistance="0.50", penwidth="0.50"];
	24 [color="#0d1074", fontcolor="#ffffff", fontsize="10.00", label="vec3::y() const\n0.82%\n(0.82%)\n871017403×"];
	25 [color="#0d1074", fontcolor="#ffffff", fontsize="10.00", label="std::tan(float)\n0.82%\n(0.82%)\n1×"];
	26 [color="#0d1074", fontcolor="#ffffff", fontsize="10.00", label="vec3::x() const\n0.79%\n(0.79%)\n839030829×"];
	27 [color="#0d1074", fontcolor="#ffffff", fontsize="10.00", label="unit_vector(vec3)\n0.79%\n(0.20%)\n31986833×"];
	27 -> 21 [arrowsize="0.35", color="#0d0f73", fontcolor="#0d0f73", fontsize="10.00", label="0.47%\n31986833×", labeldistance="0.50", penwidth="0.50"];
	28 [color="#0d1074", fontcolor="#ffffff", fontsize="10.00", label="vec3::z() const\n0.78%\n(0.78%)\n878984678×"];
	29 [color="#0d1074", fontcolor="#ffffff", fontsize="10.00", label="operator*(vec3 const&, vec3 const&)\n0.77%\n(0.69%)\n39953849×"];
	30 [color="#0d0f74", fontcolor="#ffffff", fontsize="10.00", label="std::fabs(float)\n0.65%\n(0.65%)\n39953849×"];
	31 [color="#0d0f73", fontcolor="#ffffff", fontsize="10.00", label="vec3::operator*=(float)\n0.53%\n(0.53%)\n279676943×"];
}
