Flat profile:

Each sample counts as 0.01 seconds.
  %   cumulative   self              self     total           
 time   seconds   seconds    calls   s/call   s/call  name    
 10.20     43.06    43.06 3334027782     0.00     0.00  operator+(vec3 const&, vec3 const&)
  8.66     79.61    36.55 8884099976     0.00     0.00  ray::origin() const
  7.94    113.10    33.49 2645543933     0.00     0.00  operator*(float, vec3 const&)
  7.37    144.22    31.12 2478253710     0.00     0.00  operator-(vec3 const&, vec3 const&)
  7.25    174.82    30.61 2495053170     0.00     0.00  xz_rect::hit(ray const&, float, float, hit_record&) const
  7.19    205.17    30.35 8884099976     0.00     0.00  ray::direction() const
  7.08    235.04    29.87 14328077282     0.00     0.00  vec3::vec3(float, float, float)
  6.96    264.42    29.39 831684390     0.00     0.00  hitable_list::hit(ray const&, float, float, hit_record&) const
  5.92    289.39    24.97 1663368780     0.00     0.00  yz_rect::hit(ray const&, float, float, hit_record&) const
  2.81    301.25    11.86 160000000     0.00     0.00  color(ray const&, hitable*, int)
  2.42    311.46    10.21 831684390     0.00     0.00  xy_rect::hit(ray const&, float, float, hit_record&) const
  2.35    321.37     9.91 671684390     0.00     0.00  lambertian::scatter(ray const&, hit_record const&, vec3&, ray&) const
  2.32    331.18     9.81 671684390     0.00     0.00  random_in_unit_sphere()
  2.27    340.74     9.56 671684390     0.00     0.00  operator*(vec3 const&, vec3 const&)
  2.13    349.73     8.99 2495053170     0.00     0.00  flip_normal::hit(ray const&, float, float, hit_record&) const
  1.99    358.13     8.40 671686395     0.00     0.00  material::emitted(float, float, vec3 const&) const
  1.89    366.11     7.98 7858567535     0.00     0.00  vec3::vec3()
  1.68    373.21     7.10 7115467836     0.00     0.00  vec3::y() const
  1.36    378.94     5.73 401688428     0.00     0.00  vec3::operator-() const
  1.26    384.27     5.33 678974612     0.00     0.00  ray::point_at_parameter(float) const
  1.18    389.24     4.97 5717376944     0.00     0.00  vec3::x() const
  1.00    393.47     4.22 5255355172     0.00     0.00  vec3::z() const
  0.95    397.47     4.00 1486569316     0.00     0.00  dot(vec3 const&, vec3 const&)
  0.93    401.38     3.92 320000000     0.00     0.00  operator*(vec3 const&, float)
  0.80    404.75     3.37 831684390     0.00     0.00  ray::ray(vec3 const&, vec3 const&)
  0.64    407.45     2.70        1     2.70     2.70  std::tan(float)
  0.62    410.06     2.61 160000000     0.00     0.00  camera::get_ray(float, float)
  0.56    412.41     2.35 1663368780     0.00     0.00  hit_record::hit_record()
  0.38    414.03     1.62 678925514     0.00     0.00  ray::ray()
  0.37    415.59     1.56 678923509     0.00     0.00  constant_texture::value(float, float, vec3 const&) const
  0.35    417.08     1.49 160000000     0.00     0.00  random_in_unit_disk()
  0.33    418.46     1.38                             main
  0.20    419.29     0.83        3     0.28     0.28  flip_normal::flip_normal(hitable*)
  0.14    419.89     0.60        1     0.60     0.60  hitable_list::hitable_list(hitable**, int)
  0.12    420.38     0.49 160000000     0.00     0.00  vec3::operator+=(vec3 const&)
  0.10    420.81     0.43                             frame_dummy
  0.06    421.06     0.25                             refract(vec3 const&, vec3 const&, float, vec3&)
  0.05    421.28     0.22        3     0.07     0.07  perlin_generate_perm()
  0.05    421.48     0.20        3     0.07     0.07  lambertian::lambertian(texture*)
  0.04    421.64     0.16      259     0.00     0.00  vec3::length() const
  0.03    421.77     0.13      259     0.00     0.00  unit_vector(vec3)
  0.03    421.89     0.12        1     0.12     1.75  cornell_box()
  0.02    421.96     0.08      259     0.00     0.00  operator/(vec3, float)
  0.01    422.01     0.05  7239119     0.00     0.00  diffuse_light::emitted(float, float, vec3 const&) const
  0.01    422.05     0.04        1     0.04     2.74  camera::camera(vec3, vec3, vec3, float, float, float, float)
  0.00    422.06     0.01        1     0.01     0.01  std::common_type<std::chrono::duration<long, std::ratio<1l, 1000000000l> >, std::chrono::duration<long, std::ratio<1l, 1000000000l> > >::type std::chrono::operator-<long, std::ratio<1l, 1000000000l>, long, std::ratio<1l, 1000000000l> >(std::chrono::duration<long, std::ratio<1l, 1000000000l> > const&, std::chrono::duration<long, std::ratio<1l, 1000000000l> > const&)
  0.00    422.06     0.01                             reflect(vec3 const&, vec3 const&)
  0.00    422.06     0.00  7239097     0.00     0.00  diffuse_light::scatter(ray const&, hit_record const&, vec3&, ray&) const
  0.00    422.06     0.00   960000     0.00     0.00  vec3::operator[](int)
  0.00    422.06     0.00   480259     0.00     0.00  std::sqrt(float)
  0.00    422.06     0.00   160000     0.00     0.00  vec3::operator/=(float)
  0.00    422.06     0.00       10     0.00     0.00  hitable::hitable()
  0.00    422.06     0.00        4     0.00     0.00  constant_texture::constant_texture(vec3)
  0.00    422.06     0.00        4     0.00     0.00  texture::texture()
  0.00    422.06     0.00        4     0.00     0.00  material::material()
  0.00    422.06     0.00        3     0.00     0.00  permute(int*, int)
  0.00    422.06     0.00        3     0.00     0.00  xz_rect::xz_rect(float, float, float, float, float, material*)
  0.00    422.06     0.00        3     0.00     0.00  std::chrono::duration<long, std::ratio<1l, 1000000000l> >::count() const
  0.00    422.06     0.00        2     0.00     0.00  cross(vec3 const&, vec3 const&)
  0.00    422.06     0.00        2     0.00     0.00  yz_rect::yz_rect(float, float, float, float, float, material*)
  0.00    422.06     0.00        2     0.00     0.00  std::chrono::time_point<std::chrono::_V2::system_clock, std::chrono::duration<long, std::ratio<1l, 1000000000l> > >::time_since_epoch() const
  0.00    422.06     0.00        2     0.00     0.00  std::chrono::duration<double, std::ratio<1l, 1000l> >::count() const
  0.00    422.06     0.00        1     0.00     0.58  _GLOBAL__sub_I__ZNK12hitable_list3hitERK3rayffR10hit_record
  0.00    422.06     0.00        1     0.00     0.58  __static_initialization_and_destruction_0(int, int)
  0.00    422.06     0.00        1     0.00     0.36  perlin_generate()
  0.00    422.06     0.00        1     0.00     0.00  diffuse_light::diffuse_light(texture*)
  0.00    422.06     0.00        1     0.00     0.00  xy_rect::xy_rect(float, float, float, float, float, material*)
  0.00    422.06     0.00        1     0.00     0.00  std::enable_if<std::chrono::__is_duration<std::chrono::duration<double, std::ratio<1l, 1000l> > >::value, std::chrono::duration<double, std::ratio<1l, 1000l> > >::type std::chrono::duration_cast<std::chrono::duration<double, std::ratio<1l, 1000l> >, long, std::ratio<1l, 1000000000l> >(std::chrono::duration<long, std::ratio<1l, 1000000000l> > const&)
  0.00    422.06     0.00        1     0.00     0.00  std::chrono::duration<double, std::ratio<1l, 1000l> > std::chrono::__duration_cast_impl<std::chrono::duration<double, std::ratio<1l, 1000l> >, std::ratio<1l, 1000000l>, double, true, false>::__cast<long, std::ratio<1l, 1000000000l> >(std::chrono::duration<long, std::ratio<1l, 1000000000l> > const&)
  0.00    422.06     0.00        1     0.00     0.00  std::chrono::duration<double, std::ratio<1l, 1000l> >::duration<double, void>(double const&)
  0.00    422.06     0.00        1     0.00     0.00  std::chrono::duration<double, std::ratio<1l, 1000l> >::duration<long, std::ratio<1l, 1000000000l>, void>(std::chrono::duration<long, std::ratio<1l, 1000000000l> > const&)
  0.00    422.06     0.00        1     0.00     0.00  std::chrono::duration<long, std::ratio<1l, 1000000000l> >::duration<long, void>(long const&)
  0.00    422.06     0.00        1     0.00     0.01  std::common_type<std::chrono::duration<long, std::ratio<1l, 1000000000l> >, std::chrono::duration<long, std::ratio<1l, 1000000000l> > >::type std::chrono::operator-<std::chrono::_V2::system_clock, std::chrono::duration<long, std::ratio<1l, 1000000000l> >, std::chrono::duration<long, std::ratio<1l, 1000000000l> > >(std::chrono::time_point<std::chrono::_V2::system_clock, std::chrono::duration<long, std::ratio<1l, 1000000000l> > > const&, std::chrono::time_point<std::chrono::_V2::system_clock, std::chrono::duration<long, std::ratio<1l, 1000000000l> > > const&)

 %         the percentage of the total running time of the
time       program used by this function.

cumulative a running sum of the number of seconds accounted
 seconds   for by this function and those listed above it.

 self      the number of seconds accounted for by this
seconds    function alone.  This is the major sort for this
           listing.

calls      the number of times this function was invoked, if
           this function is profiled, else blank.

 self      the average number of milliseconds spent in this
ms/call    function per call, if this function is profiled,
	   else blank.

 total     the average number of milliseconds spent in this
ms/call    function and its descendents per call, if this
	   function is profiled, else blank.

name       the name of the function.  This is the minor sort
           for this listing. The index shows the location of
	   the function in the gprof listing. If the index is
	   in parenthesis it shows where it would appear in
	   the gprof listing if it were to be printed.

Copyright (C) 2012-2018 Free Software Foundation, Inc.

Copying and distribution of this file, with or without modification,
are permitted in any medium without royalty provided the copyright
notice and this notice are preserved.

		     Call graph (explanation follows)


granularity: each sample hit covers 2 byte(s) for 0.00% of 422.06 seconds

index % time    self  children    called     name
                                                 <spontaneous>
[1]     99.7    1.38  419.42                 main [1]
               11.86  363.71 160000000/160000000     color(ray const&, hitable*, int) [2]
                2.61   36.25 160000000/160000000     camera::get_ray(float, float) [11]
                0.04    2.70       1/1           camera::camera(vec3, vec3, vec3, float, float, float, float) [31]
                0.12    1.63       1/1           cornell_box() [33]
                0.49    0.00 160000000/160000000     vec3::operator+=(vec3 const&) [40]
                0.00    0.01       1/1           std::common_type<std::chrono::duration<long, std::ratio<1l, 1000000000l> >, std::chrono::duration<long, std::ratio<1l, 1000000000l> > >::type std::chrono::operator-<std::chrono::_V2::system_clock, std::chrono::duration<long, std::ratio<1l, 1000000000l> >, std::chrono::duration<long, std::ratio<1l, 1000000000l> > >(std::chrono::time_point<std::chrono::_V2::system_clock, std::chrono::duration<long, std::ratio<1l, 1000000000l> > > const&, std::chrono::time_point<std::chrono::_V2::system_clock, std::chrono::duration<long, std::ratio<1l, 1000000000l> > > const&) [50]
                0.00    0.00  320003/14328077282     vec3::vec3(float, float, float) [15]
                0.00    0.00  960000/960000      vec3::operator[](int) [60]
                0.00    0.00  480000/480259      std::sqrt(float) [61]
                0.00    0.00  160000/160000      vec3::operator/=(float) [62]
                0.00    0.00       1/1           std::chrono::duration<double, std::ratio<1l, 1000l> >::duration<long, std::ratio<1l, 1000000000l>, void>(std::chrono::duration<long, std::ratio<1l, 1000000000l> > const&) [78]
                0.00    0.00       1/2           std::chrono::duration<double, std::ratio<1l, 1000l> >::count() const [72]
-----------------------------------------------
                             671684390             color(ray const&, hitable*, int) [2]
               11.86  363.71 160000000/160000000     main [1]
[2]     89.0   11.86  363.71 160000000+671684390 color(ray const&, hitable*, int) [2]
               29.39  194.04 831684390/831684390     hitable_list::hit(ray const&, float, float, hit_record&) const [3]
                9.91   92.59 671684390/671684390     lambertian::scatter(ray const&, hit_record const&, vec3&, ray&) const [5]
                9.56    1.40 671684390/671684390     operator*(vec3 const&, vec3 const&) [18]
                8.67    1.40 671684390/3334027782     operator+(vec3 const&, vec3 const&) [9]
                8.40    1.40 671686395/671686395     material::emitted(float, float, vec3 const&) const [19]
                1.62    1.38 678925514/678925514     ray::ray() [30]
                1.18    1.69 831684390/1663368780     hit_record::hit_record() [24]
                0.69    0.00 678925514/7858567535     vec3::vec3() [21]
                0.32    0.00 152758876/14328077282     vec3::vec3(float, float, float) [15]
                0.05    0.02 7239119/7239119     diffuse_light::emitted(float, float, vec3 const&) const [49]
                0.00    0.00 7239097/7239097     diffuse_light::scatter(ray const&, hit_record const&, vec3&, ray&) const [59]
                             671684390             color(ray const&, hitable*, int) [2]
-----------------------------------------------
               29.39  194.04 831684390/831684390     color(ray const&, hitable*, int) [2]
[3]     52.9   29.39  194.04 831684390         hitable_list::hit(ray const&, float, float, hit_record&) const [3]
                8.99   93.59 2495053170/2495053170     flip_normal::hit(ray const&, float, float, hit_record&) const [4]
               20.40   34.85 1663368780/2495053170     xz_rect::hit(ray const&, float, float, hit_record&) const [6]
               12.48   20.86 831684390/1663368780     yz_rect::hit(ray const&, float, float, hit_record&) const [7]
                1.18    1.69 831684390/1663368780     hit_record::hit_record() [24]
-----------------------------------------------
                8.99   93.59 2495053170/2495053170     hitable_list::hit(ray const&, float, float, hit_record&) const [3]
[4]     24.3    8.99   93.59 2495053170         flip_normal::hit(ray const&, float, float, hit_record&) const [4]
               12.48   20.86 831684390/1663368780     yz_rect::hit(ray const&, float, float, hit_record&) const [7]
               10.20   17.42 831684390/2495053170     xz_rect::hit(ray const&, float, float, hit_record&) const [6]
               10.21   15.85 831684390/831684390     xy_rect::hit(ray const&, float, float, hit_record&) const [16]
                5.73    0.84 401688428/401688428     vec3::operator-() const [23]
-----------------------------------------------
                9.91   92.59 671684390/671684390     color(ray const&, hitable*, int) [2]
[5]     24.3    9.91   92.59 671684390         lambertian::scatter(ray const&, hit_record const&, vec3&, ray&) const [5]
                9.81   47.18 671684390/671684390     random_in_unit_sphere() [8]
               17.35    2.80 1343368780/3334027782     operator+(vec3 const&, vec3 const&) [9]
                8.43    1.40 671684390/2478253710     operator-(vec3 const&, vec3 const&) [13]
                2.72    1.36 671684390/831684390     ray::ray(vec3 const&, vec3 const&) [25]
                1.54    0.00 671684390/678923509     constant_texture::value(float, float, vec3 const&) const [34]
-----------------------------------------------
               10.20   17.42 831684390/2495053170     flip_normal::hit(ray const&, float, float, hit_record&) const [4]
               20.40   34.85 1663368780/2495053170     hitable_list::hit(ray const&, float, float, hit_record&) const [3]
[6]     19.6   30.61   52.27 2495053170         xz_rect::hit(ray const&, float, float, hit_record&) const [6]
               18.20    0.00 4423685310/8884099976     ray::origin() const [12]
               15.11    0.00 4423685310/8884099976     ray::direction() const [14]
                2.13    8.06 270929988/678974612     ray::point_at_parameter(float) const [17]
                4.98    0.00 4990106340/7115467836     vec3::y() const [22]
                1.68    0.00 1928632140/5717376944     vec3::x() const [26]
                1.55    0.00 1928632140/5255355172     vec3::z() const [28]
                0.56    0.00 270929988/14328077282     vec3::vec3(float, float, float) [15]
-----------------------------------------------
               12.48   20.86 831684390/1663368780     hitable_list::hit(ray const&, float, float, hit_record&) const [3]
               12.48   20.86 831684390/1663368780     flip_normal::hit(ray const&, float, float, hit_record&) const [4]
[7]     15.8   24.97   41.72 1663368780         yz_rect::hit(ray const&, float, float, hit_record&) const [7]
               13.69    0.00 3326723032/8884099976     ray::origin() const [12]
               11.36    0.00 3326723032/8884099976     ray::direction() const [14]
                2.13    8.08 271718614/678974612     ray::point_at_parameter(float) const [17]
                2.89    0.00 3326737560/5717376944     vec3::x() const [26]
                1.66    0.00 1663354252/7115467836     vec3::y() const [22]
                1.34    0.00 1663354252/5255355172     vec3::z() const [28]
                0.57    0.00 271718614/14328077282     vec3::vec3(float, float, float) [15]
-----------------------------------------------
                9.81   47.18 671684390/671684390     lambertian::scatter(ray const&, hit_record const&, vec3&, ray&) const [5]
[8]     13.5    9.81   47.18 671684390         random_in_unit_sphere() [8]
               16.24    2.67 1282849096/2645543933     operator*(float, vec3 const&) [10]
               16.11    2.67 1282849096/2478253710     operator-(vec3 const&, vec3 const&) [13]
                5.35    0.00 2565698192/14328077282     vec3::vec3(float, float, float) [15]
                3.45    0.00 1282849096/1486569316     dot(vec3 const&, vec3 const&) [29]
                0.68    0.00 671684390/7858567535     vec3::vec3() [21]
-----------------------------------------------
                8.27    1.33 640000000/3334027782     camera::get_ray(float, float) [11]
                8.67    1.40 671684390/3334027782     color(ray const&, hitable*, int) [2]
                8.77    1.42 678974612/3334027782     ray::point_at_parameter(float) const [17]
               17.35    2.80 1343368780/3334027782     lambertian::scatter(ray const&, hit_record const&, vec3&, ray&) const [5]
[9]     11.8   43.06    6.95 3334027782         operator+(vec3 const&, vec3 const&) [9]
                6.95    0.00 3334027782/14328077282     vec3::vec3(float, float, float) [15]
-----------------------------------------------
                0.00    0.00       5/2645543933     camera::camera(vec3, vec3, vec3, float, float, float, float) [31]
                2.58    0.42 203720220/2645543933     random_in_unit_disk() [20]
                6.08    1.00 480000000/2645543933     camera::get_ray(float, float) [11]
                8.59    1.42 678974612/2645543933     ray::point_at_parameter(float) const [17]
               16.24    2.67 1282849096/2645543933     random_in_unit_sphere() [8]
[10]     9.2   33.49    5.51 2645543933         operator*(float, vec3 const&) [10]
                5.51    0.00 2645543933/14328077282     vec3::vec3(float, float, float) [15]
-----------------------------------------------
                2.61   36.25 160000000/160000000     main [1]
[11]     9.2    2.61   36.25 160000000         camera::get_ray(float, float) [11]
                8.27    1.33 640000000/3334027782     operator+(vec3 const&, vec3 const&) [9]
                1.49    7.55 160000000/160000000     random_in_unit_disk() [20]
                6.08    1.00 480000000/2645543933     operator*(float, vec3 const&) [10]
                4.02    0.67 320000000/2478253710     operator-(vec3 const&, vec3 const&) [13]
                3.92    0.67 320000000/320000000     operator*(vec3 const&, float) [27]
                0.65    0.33 160000000/831684390     ray::ray(vec3 const&, vec3 const&) [25]
                0.16    0.00 160000000/7115467836     vec3::y() const [22]
                0.14    0.00 160000000/5717376944     vec3::x() const [26]
-----------------------------------------------
                4.66    0.00 1133691634/8884099976     xy_rect::hit(ray const&, float, float, hit_record&) const [16]
               13.69    0.00 3326723032/8884099976     yz_rect::hit(ray const&, float, float, hit_record&) const [7]
               18.20    0.00 4423685310/8884099976     xz_rect::hit(ray const&, float, float, hit_record&) const [6]
[12]     8.7   36.55    0.00 8884099976         ray::origin() const [12]
-----------------------------------------------
                0.00    0.00       4/2478253710     camera::camera(vec3, vec3, vec3, float, float, float, float) [31]
                2.56    0.42 203720220/2478253710     random_in_unit_disk() [20]
                4.02    0.67 320000000/2478253710     camera::get_ray(float, float) [11]
                8.43    1.40 671684390/2478253710     lambertian::scatter(ray const&, hit_record const&, vec3&, ray&) const [5]
               16.11    2.67 1282849096/2478253710     random_in_unit_sphere() [8]
[13]     8.6   31.12    5.17 2478253710         operator-(vec3 const&, vec3 const&) [13]
                5.17    0.00 2478253710/14328077282     vec3::vec3(float, float, float) [15]
-----------------------------------------------
                3.87    0.00 1133691634/8884099976     xy_rect::hit(ray const&, float, float, hit_record&) const [16]
               11.36    0.00 3326723032/8884099976     yz_rect::hit(ray const&, float, float, hit_record&) const [7]
               15.11    0.00 4423685310/8884099976     xz_rect::hit(ray const&, float, float, hit_record&) const [6]
[14]     7.2   30.35    0.00 8884099976         ray::direction() const [14]
-----------------------------------------------
                0.00    0.00       2/14328077282     cross(vec3 const&, vec3 const&) [53]
                0.00    0.00       4/14328077282     cornell_box() [33]
                0.00    0.00     256/14328077282     perlin_generate() [43]
                0.00    0.00     259/14328077282     operator/(vec3, float) [48]
                0.00    0.00  320003/14328077282     main [1]
                0.28    0.00 136326010/14328077282     xy_rect::hit(ray const&, float, float, hit_record&) const [16]
                0.32    0.00 152758876/14328077282     color(ray const&, hitable*, int) [2]
                0.56    0.00 270929988/14328077282     xz_rect::hit(ray const&, float, float, hit_record&) const [6]
                0.57    0.00 271718614/14328077282     yz_rect::hit(ray const&, float, float, hit_record&) const [7]
                0.67    0.00 320000000/14328077282     operator*(vec3 const&, float) [27]
                0.84    0.00 401688428/14328077282     vec3::operator-() const [23]
                0.85    0.00 407440440/14328077282     random_in_unit_disk() [20]
                1.40    0.00 671684390/14328077282     operator*(vec3 const&, vec3 const&) [18]
                1.40    0.00 671686395/14328077282     material::emitted(float, float, vec3 const&) const [19]
                5.17    0.00 2478253710/14328077282     operator-(vec3 const&, vec3 const&) [13]
                5.35    0.00 2565698192/14328077282     random_in_unit_sphere() [8]
                5.51    0.00 2645543933/14328077282     operator*(float, vec3 const&) [10]
                6.95    0.00 3334027782/14328077282     operator+(vec3 const&, vec3 const&) [9]
[15]     7.1   29.87    0.00 14328077282         vec3::vec3(float, float, float) [15]
-----------------------------------------------
               10.21   15.85 831684390/831684390     flip_normal::hit(ray const&, float, float, hit_record&) const [4]
[16]     6.2   10.21   15.85 831684390         xy_rect::hit(ray const&, float, float, hit_record&) const [16]
                1.07    4.05 136326010/678974612     ray::point_at_parameter(float) const [17]
                4.66    0.00 1133691634/8884099976     ray::origin() const [12]
                3.87    0.00 1133691634/8884099976     ray::direction() const [14]
                1.34    0.00 1663368780/5255355172     vec3::z() const [28]
                0.30    0.00 302007244/7115467836     vec3::y() const [22]
                0.28    0.00 136326010/14328077282     vec3::vec3(float, float, float) [15]
                0.26    0.00 302007244/5717376944     vec3::x() const [26]
-----------------------------------------------
                1.07    4.05 136326010/678974612     xy_rect::hit(ray const&, float, float, hit_record&) const [16]
                2.13    8.06 270929988/678974612     xz_rect::hit(ray const&, float, float, hit_record&) const [6]
                2.13    8.08 271718614/678974612     yz_rect::hit(ray const&, float, float, hit_record&) const [7]
[17]     6.0    5.33   20.19 678974612         ray::point_at_parameter(float) const [17]
                8.77    1.42 678974612/3334027782     operator+(vec3 const&, vec3 const&) [9]
                8.59    1.42 678974612/2645543933     operator*(float, vec3 const&) [10]
-----------------------------------------------
                9.56    1.40 671684390/671684390     color(ray const&, hitable*, int) [2]
[18]     2.6    9.56    1.40 671684390         operator*(vec3 const&, vec3 const&) [18]
                1.40    0.00 671684390/14328077282     vec3::vec3(float, float, float) [15]
-----------------------------------------------
                8.40    1.40 671686395/671686395     color(ray const&, hitable*, int) [2]
[19]     2.3    8.40    1.40 671686395         material::emitted(float, float, vec3 const&) const [19]
                1.40    0.00 671686395/14328077282     vec3::vec3(float, float, float) [15]
-----------------------------------------------
                1.49    7.55 160000000/160000000     camera::get_ray(float, float) [11]
[20]     2.1    1.49    7.55 160000000         random_in_unit_disk() [20]
                2.58    0.42 203720220/2645543933     operator*(float, vec3 const&) [10]
                2.56    0.42 203720220/2478253710     operator-(vec3 const&, vec3 const&) [13]
                0.85    0.00 407440440/14328077282     vec3::vec3(float, float, float) [15]
                0.55    0.00 203720220/1486569316     dot(vec3 const&, vec3 const&) [29]
                0.16    0.00 160000000/7858567535     vec3::vec3() [21]
-----------------------------------------------
                0.00    0.00       7/7858567535     camera::camera(vec3, vec3, vec3, float, float, float, float) [31]
                0.00    0.00     256/7858567535     perlin_generate() [43]
                0.16    0.00 160000000/7858567535     random_in_unit_disk() [20]
                0.68    0.00 671684390/7858567535     random_in_unit_sphere() [8]
                0.69    0.00 678925514/7858567535     color(ray const&, hitable*, int) [2]
                1.38    0.00 1357851028/7858567535     ray::ray() [30]
                1.69    0.00 1663368780/7858567535     ray::ray(vec3 const&, vec3 const&) [25]
                3.38    0.00 3326737560/7858567535     hit_record::hit_record() [24]
[21]     1.9    7.98    0.00 7858567535         vec3::vec3() [21]
-----------------------------------------------
                0.16    0.00 160000000/7115467836     camera::get_ray(float, float) [11]
                0.30    0.00 302007244/7115467836     xy_rect::hit(ray const&, float, float, hit_record&) const [16]
                1.66    0.00 1663354252/7115467836     yz_rect::hit(ray const&, float, float, hit_record&) const [7]
                4.98    0.00 4990106340/7115467836     xz_rect::hit(ray const&, float, float, hit_record&) const [6]
[22]     1.7    7.10    0.00 7115467836         vec3::y() const [22]
-----------------------------------------------
                5.73    0.84 401688428/401688428     flip_normal::hit(ray const&, float, float, hit_record&) const [4]
[23]     1.6    5.73    0.84 401688428         vec3::operator-() const [23]
                0.84    0.00 401688428/14328077282     vec3::vec3(float, float, float) [15]
-----------------------------------------------
                1.18    1.69 831684390/1663368780     hitable_list::hit(ray const&, float, float, hit_record&) const [3]
                1.18    1.69 831684390/1663368780     color(ray const&, hitable*, int) [2]
[24]     1.4    2.35    3.38 1663368780         hit_record::hit_record() [24]
                3.38    0.00 3326737560/7858567535     vec3::vec3() [21]
-----------------------------------------------
                0.65    0.33 160000000/831684390     camera::get_ray(float, float) [11]
                2.72    1.36 671684390/831684390     lambertian::scatter(ray const&, hit_record const&, vec3&, ray&) const [5]
[25]     1.2    3.37    1.69 831684390         ray::ray(vec3 const&, vec3 const&) [25]
                1.69    0.00 1663368780/7858567535     vec3::vec3() [21]
-----------------------------------------------
                0.14    0.00 160000000/5717376944     camera::get_ray(float, float) [11]
                0.26    0.00 302007244/5717376944     xy_rect::hit(ray const&, float, float, hit_record&) const [16]
                1.68    0.00 1928632140/5717376944     xz_rect::hit(ray const&, float, float, hit_record&) const [6]
                2.89    0.00 3326737560/5717376944     yz_rect::hit(ray const&, float, float, hit_record&) const [7]
[26]     1.2    4.97    0.00 5717376944         vec3::x() const [26]
-----------------------------------------------
                3.92    0.67 320000000/320000000     camera::get_ray(float, float) [11]
[27]     1.1    3.92    0.67 320000000         operator*(vec3 const&, float) [27]
                0.67    0.00 320000000/14328077282     vec3::vec3(float, float, float) [15]
-----------------------------------------------
                1.34    0.00 1663354252/5255355172     yz_rect::hit(ray const&, float, float, hit_record&) const [7]
                1.34    0.00 1663368780/5255355172     xy_rect::hit(ray const&, float, float, hit_record&) const [16]
                1.55    0.00 1928632140/5255355172     xz_rect::hit(ray const&, float, float, hit_record&) const [6]
[28]     1.0    4.22    0.00 5255355172         vec3::z() const [28]
-----------------------------------------------
                0.55    0.00 203720220/1486569316     random_in_unit_disk() [20]
                3.45    0.00 1282849096/1486569316     random_in_unit_sphere() [8]
[29]     0.9    4.00    0.00 1486569316         dot(vec3 const&, vec3 const&) [29]
-----------------------------------------------
                1.62    1.38 678925514/678925514     color(ray const&, hitable*, int) [2]
[30]     0.7    1.62    1.38 678925514         ray::ray() [30]
                1.38    0.00 1357851028/7858567535     vec3::vec3() [21]
-----------------------------------------------
                0.04    2.70       1/1           main [1]
[31]     0.7    0.04    2.70       1         camera::camera(vec3, vec3, vec3, float, float, float, float) [31]
                2.70    0.00       1/1           std::tan(float) [32]
                0.00    0.00       3/259         unit_vector(vec3) [42]
                0.00    0.00       5/2645543933     operator*(float, vec3 const&) [10]
                0.00    0.00       4/2478253710     operator-(vec3 const&, vec3 const&) [13]
                0.00    0.00       7/7858567535     vec3::vec3() [21]
                0.00    0.00       2/2           cross(vec3 const&, vec3 const&) [53]
-----------------------------------------------
                2.70    0.00       1/1           camera::camera(vec3, vec3, vec3, float, float, float, float) [31]
[32]     0.6    2.70    0.00       1         std::tan(float) [32]
-----------------------------------------------
                0.12    1.63       1/1           main [1]
[33]     0.4    0.12    1.63       1         cornell_box() [33]
                0.83    0.00       3/3           flip_normal::flip_normal(hitable*) [35]
                0.60    0.00       1/1           hitable_list::hitable_list(hitable**, int) [36]
                0.20    0.00       3/3           lambertian::lambertian(texture*) [46]
                0.00    0.00       4/14328077282     vec3::vec3(float, float, float) [15]
                0.00    0.00       4/4           constant_texture::constant_texture(vec3) [64]
                0.00    0.00       3/3           xz_rect::xz_rect(float, float, float, float, float, material*) [68]
                0.00    0.00       2/2           yz_rect::yz_rect(float, float, float, float, float, material*) [70]
                0.00    0.00       1/1           diffuse_light::diffuse_light(texture*) [73]
                0.00    0.00       1/1           xy_rect::xy_rect(float, float, float, float, float, material*) [74]
-----------------------------------------------
                0.02    0.00 7239119/678923509     diffuse_light::emitted(float, float, vec3 const&) const [49]
                1.54    0.00 671684390/678923509     lambertian::scatter(ray const&, hit_record const&, vec3&, ray&) const [5]
[34]     0.4    1.56    0.00 678923509         constant_texture::value(float, float, vec3 const&) const [34]
-----------------------------------------------
                0.83    0.00       3/3           cornell_box() [33]
[35]     0.2    0.83    0.00       3         flip_normal::flip_normal(hitable*) [35]
                0.00    0.00       3/10          hitable::hitable() [63]
-----------------------------------------------
                0.60    0.00       1/1           cornell_box() [33]
[36]     0.1    0.60    0.00       1         hitable_list::hitable_list(hitable**, int) [36]
                0.00    0.00       1/10          hitable::hitable() [63]
-----------------------------------------------
                0.00    0.58       1/1           __libc_csu_init [39]
[37]     0.1    0.00    0.58       1         _GLOBAL__sub_I__ZNK12hitable_list3hitERK3rayffR10hit_record [37]
                0.00    0.58       1/1           __static_initialization_and_destruction_0(int, int) [38]
-----------------------------------------------
                0.00    0.58       1/1           _GLOBAL__sub_I__ZNK12hitable_list3hitERK3rayffR10hit_record [37]
[38]     0.1    0.00    0.58       1         __static_initialization_and_destruction_0(int, int) [38]
                0.00    0.36       1/1           perlin_generate() [43]
                0.22    0.00       3/3           perlin_generate_perm() [45]
-----------------------------------------------
                                                 <spontaneous>
[39]     0.1    0.00    0.58                 __libc_csu_init [39]
                0.00    0.58       1/1           _GLOBAL__sub_I__ZNK12hitable_list3hitERK3rayffR10hit_record [37]
-----------------------------------------------
                0.49    0.00 160000000/160000000     main [1]
[40]     0.1    0.49    0.00 160000000         vec3::operator+=(vec3 const&) [40]
-----------------------------------------------
                                                 <spontaneous>
[41]     0.1    0.43    0.00                 frame_dummy [41]
-----------------------------------------------
                0.00    0.00       3/259         camera::camera(vec3, vec3, vec3, float, float, float, float) [31]
                0.13    0.23     256/259         perlin_generate() [43]
[42]     0.1    0.13    0.24     259         unit_vector(vec3) [42]
                0.16    0.00     259/259         vec3::length() const [47]
                0.08    0.00     259/259         operator/(vec3, float) [48]
-----------------------------------------------
                0.00    0.36       1/1           __static_initialization_and_destruction_0(int, int) [38]
[43]     0.1    0.00    0.36       1         perlin_generate() [43]
                0.13    0.23     256/259         unit_vector(vec3) [42]
                0.00    0.00     256/14328077282     vec3::vec3(float, float, float) [15]
                0.00    0.00     256/7858567535     vec3::vec3() [21]
-----------------------------------------------
                                                 <spontaneous>
[44]     0.1    0.25    0.00                 refract(vec3 const&, vec3 const&, float, vec3&) [44]
-----------------------------------------------
                0.22    0.00       3/3           __static_initialization_and_destruction_0(int, int) [38]
[45]     0.1    0.22    0.00       3         perlin_generate_perm() [45]
                0.00    0.00       3/3           permute(int*, int) [67]
-----------------------------------------------
                0.20    0.00       3/3           cornell_box() [33]
[46]     0.0    0.20    0.00       3         lambertian::lambertian(texture*) [46]
                0.00    0.00       3/4           material::material() [66]
-----------------------------------------------
                0.16    0.00     259/259         unit_vector(vec3) [42]
[47]     0.0    0.16    0.00     259         vec3::length() const [47]
                0.00    0.00     259/480259      std::sqrt(float) [61]
-----------------------------------------------
                0.08    0.00     259/259         unit_vector(vec3) [42]
[48]     0.0    0.08    0.00     259         operator/(vec3, float) [48]
                0.00    0.00     259/14328077282     vec3::vec3(float, float, float) [15]
-----------------------------------------------
                0.05    0.02 7239119/7239119     color(ray const&, hitable*, int) [2]
[49]     0.0    0.05    0.02 7239119         diffuse_light::emitted(float, float, vec3 const&) const [49]
                0.02    0.00 7239119/678923509     constant_texture::value(float, float, vec3 const&) const [34]
-----------------------------------------------
                0.00    0.01       1/1           main [1]
[50]     0.0    0.00    0.01       1         std::common_type<std::chrono::duration<long, std::ratio<1l, 1000000000l> >, std::chrono::duration<long, std::ratio<1l, 1000000000l> > >::type std::chrono::operator-<std::chrono::_V2::system_clock, std::chrono::duration<long, std::ratio<1l, 1000000000l> >, std::chrono::duration<long, std::ratio<1l, 1000000000l> > >(std::chrono::time_point<std::chrono::_V2::system_clock, std::chrono::duration<long, std::ratio<1l, 1000000000l> > > const&, std::chrono::time_point<std::chrono::_V2::system_clock, std::chrono::duration<long, std::ratio<1l, 1000000000l> > > const&) [50]
                0.01    0.00       1/1           std::common_type<std::chrono::duration<long, std::ratio<1l, 1000000000l> >, std::chrono::duration<long, std::ratio<1l, 1000000000l> > >::type std::chrono::operator-<long, std::ratio<1l, 1000000000l>, long, std::ratio<1l, 1000000000l> >(std::chrono::duration<long, std::ratio<1l, 1000000000l> > const&, std::chrono::duration<long, std::ratio<1l, 1000000000l> > const&) [51]
                0.00    0.00       2/2           std::chrono::time_point<std::chrono::_V2::system_clock, std::chrono::duration<long, std::ratio<1l, 1000000000l> > >::time_since_epoch() const [71]
-----------------------------------------------
                0.01    0.00       1/1           std::common_type<std::chrono::duration<long, std::ratio<1l, 1000000000l> >, std::chrono::duration<long, std::ratio<1l, 1000000000l> > >::type std::chrono::operator-<std::chrono::_V2::system_clock, std::chrono::duration<long, std::ratio<1l, 1000000000l> >, std::chrono::duration<long, std::ratio<1l, 1000000000l> > >(std::chrono::time_point<std::chrono::_V2::system_clock, std::chrono::duration<long, std::ratio<1l, 1000000000l> > > const&, std::chrono::time_point<std::chrono::_V2::system_clock, std::chrono::duration<long, std::ratio<1l, 1000000000l> > > const&) [50]
[51]     0.0    0.01    0.00       1         std::common_type<std::chrono::duration<long, std::ratio<1l, 1000000000l> >, std::chrono::duration<long, std::ratio<1l, 1000000000l> > >::type std::chrono::operator-<long, std::ratio<1l, 1000000000l>, long, std::ratio<1l, 1000000000l> >(std::chrono::duration<long, std::ratio<1l, 1000000000l> > const&, std::chrono::duration<long, std::ratio<1l, 1000000000l> > const&) [51]
                0.00    0.00       2/3           std::chrono::duration<long, std::ratio<1l, 1000000000l> >::count() const [69]
                0.00    0.00       1/1           std::chrono::duration<long, std::ratio<1l, 1000000000l> >::duration<long, void>(long const&) [79]
-----------------------------------------------
                                                 <spontaneous>
[52]     0.0    0.01    0.00                 reflect(vec3 const&, vec3 const&) [52]
-----------------------------------------------
                0.00    0.00       2/2           camera::camera(vec3, vec3, vec3, float, float, float, float) [31]
[53]     0.0    0.00    0.00       2         cross(vec3 const&, vec3 const&) [53]
                0.00    0.00       2/14328077282     vec3::vec3(float, float, float) [15]
-----------------------------------------------
                0.00    0.00 7239097/7239097     color(ray const&, hitable*, int) [2]
[59]     0.0    0.00    0.00 7239097         diffuse_light::scatter(ray const&, hit_record const&, vec3&, ray&) const [59]
-----------------------------------------------
                0.00    0.00  960000/960000      main [1]
[60]     0.0    0.00    0.00  960000         vec3::operator[](int) [60]
-----------------------------------------------
                0.00    0.00     259/480259      vec3::length() const [47]
                0.00    0.00  480000/480259      main [1]
[61]     0.0    0.00    0.00  480259         std::sqrt(float) [61]
-----------------------------------------------
                0.00    0.00  160000/160000      main [1]
[62]     0.0    0.00    0.00  160000         vec3::operator/=(float) [62]
-----------------------------------------------
                0.00    0.00       1/10          hitable_list::hitable_list(hitable**, int) [36]
                0.00    0.00       1/10          xy_rect::xy_rect(float, float, float, float, float, material*) [74]
                0.00    0.00       2/10          yz_rect::yz_rect(float, float, float, float, float, material*) [70]
                0.00    0.00       3/10          xz_rect::xz_rect(float, float, float, float, float, material*) [68]
                0.00    0.00       3/10          flip_normal::flip_normal(hitable*) [35]
[63]     0.0    0.00    0.00      10         hitable::hitable() [63]
-----------------------------------------------
                0.00    0.00       4/4           cornell_box() [33]
[64]     0.0    0.00    0.00       4         constant_texture::constant_texture(vec3) [64]
                0.00    0.00       4/4           texture::texture() [65]
-----------------------------------------------
                0.00    0.00       4/4           constant_texture::constant_texture(vec3) [64]
[65]     0.0    0.00    0.00       4         texture::texture() [65]
-----------------------------------------------
                0.00    0.00       1/4           diffuse_light::diffuse_light(texture*) [73]
                0.00    0.00       3/4           lambertian::lambertian(texture*) [46]
[66]     0.0    0.00    0.00       4         material::material() [66]
-----------------------------------------------
                0.00    0.00       3/3           perlin_generate_perm() [45]
[67]     0.0    0.00    0.00       3         permute(int*, int) [67]
-----------------------------------------------
                0.00    0.00       3/3           cornell_box() [33]
[68]     0.0    0.00    0.00       3         xz_rect::xz_rect(float, float, float, float, float, material*) [68]
                0.00    0.00       3/10          hitable::hitable() [63]
-----------------------------------------------
                0.00    0.00       1/3           std::chrono::duration<double, std::ratio<1l, 1000l> > std::chrono::__duration_cast_impl<std::chrono::duration<double, std::ratio<1l, 1000l> >, std::ratio<1l, 1000000l>, double, true, false>::__cast<long, std::ratio<1l, 1000000000l> >(std::chrono::duration<long, std::ratio<1l, 1000000000l> > const&) [76]
                0.00    0.00       2/3           std::common_type<std::chrono::duration<long, std::ratio<1l, 1000000000l> >, std::chrono::duration<long, std::ratio<1l, 1000000000l> > >::type std::chrono::operator-<long, std::ratio<1l, 1000000000l>, long, std::ratio<1l, 1000000000l> >(std::chrono::duration<long, std::ratio<1l, 1000000000l> > const&, std::chrono::duration<long, std::ratio<1l, 1000000000l> > const&) [51]
[69]     0.0    0.00    0.00       3         std::chrono::duration<long, std::ratio<1l, 1000000000l> >::count() const [69]
-----------------------------------------------
                0.00    0.00       2/2           cornell_box() [33]
[70]     0.0    0.00    0.00       2         yz_rect::yz_rect(float, float, float, float, float, material*) [70]
                0.00    0.00       2/10          hitable::hitable() [63]
-----------------------------------------------
                0.00    0.00       2/2           std::common_type<std::chrono::duration<long, std::ratio<1l, 1000000000l> >, std::chrono::duration<long, std::ratio<1l, 1000000000l> > >::type std::chrono::operator-<std::chrono::_V2::system_clock, std::chrono::duration<long, std::ratio<1l, 1000000000l> >, std::chrono::duration<long, std::ratio<1l, 1000000000l> > >(std::chrono::time_point<std::chrono::_V2::system_clock, std::chrono::duration<long, std::ratio<1l, 1000000000l> > > const&, std::chrono::time_point<std::chrono::_V2::system_clock, std::chrono::duration<long, std::ratio<1l, 1000000000l> > > const&) [50]
[71]     0.0    0.00    0.00       2         std::chrono::time_point<std::chrono::_V2::system_clock, std::chrono::duration<long, std::ratio<1l, 1000000000l> > >::time_since_epoch() const [71]
-----------------------------------------------
                0.00    0.00       1/2           main [1]
                0.00    0.00       1/2           std::chrono::duration<double, std::ratio<1l, 1000l> >::duration<long, std::ratio<1l, 1000000000l>, void>(std::chrono::duration<long, std::ratio<1l, 1000000000l> > const&) [78]
[72]     0.0    0.00    0.00       2         std::chrono::duration<double, std::ratio<1l, 1000l> >::count() const [72]
-----------------------------------------------
                0.00    0.00       1/1           cornell_box() [33]
[73]     0.0    0.00    0.00       1         diffuse_light::diffuse_light(texture*) [73]
                0.00    0.00       1/4           material::material() [66]
-----------------------------------------------
                0.00    0.00       1/1           cornell_box() [33]
[74]     0.0    0.00    0.00       1         xy_rect::xy_rect(float, float, float, float, float, material*) [74]
                0.00    0.00       1/10          hitable::hitable() [63]
-----------------------------------------------
                0.00    0.00       1/1           std::chrono::duration<double, std::ratio<1l, 1000l> >::duration<long, std::ratio<1l, 1000000000l>, void>(std::chrono::duration<long, std::ratio<1l, 1000000000l> > const&) [78]
[75]     0.0    0.00    0.00       1         std::enable_if<std::chrono::__is_duration<std::chrono::duration<double, std::ratio<1l, 1000l> > >::value, std::chrono::duration<double, std::ratio<1l, 1000l> > >::type std::chrono::duration_cast<std::chrono::duration<double, std::ratio<1l, 1000l> >, long, std::ratio<1l, 1000000000l> >(std::chrono::duration<long, std::ratio<1l, 1000000000l> > const&) [75]
                0.00    0.00       1/1           std::chrono::duration<double, std::ratio<1l, 1000l> > std::chrono::__duration_cast_impl<std::chrono::duration<double, std::ratio<1l, 1000l> >, std::ratio<1l, 1000000l>, double, true, false>::__cast<long, std::ratio<1l, 1000000000l> >(std::chrono::duration<long, std::ratio<1l, 1000000000l> > const&) [76]
-----------------------------------------------
                0.00    0.00       1/1           std::enable_if<std::chrono::__is_duration<std::chrono::duration<double, std::ratio<1l, 1000l> > >::value, std::chrono::duration<double, std::ratio<1l, 1000l> > >::type std::chrono::duration_cast<std::chrono::duration<double, std::ratio<1l, 1000l> >, long, std::ratio<1l, 1000000000l> >(std::chrono::duration<long, std::ratio<1l, 1000000000l> > const&) [75]
[76]     0.0    0.00    0.00       1         std::chrono::duration<double, std::ratio<1l, 1000l> > std::chrono::__duration_cast_impl<std::chrono::duration<double, std::ratio<1l, 1000l> >, std::ratio<1l, 1000000l>, double, true, false>::__cast<long, std::ratio<1l, 1000000000l> >(std::chrono::duration<long, std::ratio<1l, 1000000000l> > const&) [76]
                0.00    0.00       1/3           std::chrono::duration<long, std::ratio<1l, 1000000000l> >::count() const [69]
                0.00    0.00       1/1           std::chrono::duration<double, std::ratio<1l, 1000l> >::duration<double, void>(double const&) [77]
-----------------------------------------------
                0.00    0.00       1/1           std::chrono::duration<double, std::ratio<1l, 1000l> > std::chrono::__duration_cast_impl<std::chrono::duration<double, std::ratio<1l, 1000l> >, std::ratio<1l, 1000000l>, double, true, false>::__cast<long, std::ratio<1l, 1000000000l> >(std::chrono::duration<long, std::ratio<1l, 1000000000l> > const&) [76]
[77]     0.0    0.00    0.00       1         std::chrono::duration<double, std::ratio<1l, 1000l> >::duration<double, void>(double const&) [77]
-----------------------------------------------
                0.00    0.00       1/1           main [1]
[78]     0.0    0.00    0.00       1         std::chrono::duration<double, std::ratio<1l, 1000l> >::duration<long, std::ratio<1l, 1000000000l>, void>(std::chrono::duration<long, std::ratio<1l, 1000000000l> > const&) [78]
                0.00    0.00       1/1           std::enable_if<std::chrono::__is_duration<std::chrono::duration<double, std::ratio<1l, 1000l> > >::value, std::chrono::duration<double, std::ratio<1l, 1000l> > >::type std::chrono::duration_cast<std::chrono::duration<double, std::ratio<1l, 1000l> >, long, std::ratio<1l, 1000000000l> >(std::chrono::duration<long, std::ratio<1l, 1000000000l> > const&) [75]
                0.00    0.00       1/2           std::chrono::duration<double, std::ratio<1l, 1000l> >::count() const [72]
-----------------------------------------------
                0.00    0.00       1/1           std::common_type<std::chrono::duration<long, std::ratio<1l, 1000000000l> >, std::chrono::duration<long, std::ratio<1l, 1000000000l> > >::type std::chrono::operator-<long, std::ratio<1l, 1000000000l>, long, std::ratio<1l, 1000000000l> >(std::chrono::duration<long, std::ratio<1l, 1000000000l> > const&, std::chrono::duration<long, std::ratio<1l, 1000000000l> > const&) [51]
[79]     0.0    0.00    0.00       1         std::chrono::duration<long, std::ratio<1l, 1000000000l> >::duration<long, void>(long const&) [79]
-----------------------------------------------

 This table describes the call tree of the program, and was sorted by
 the total amount of time spent in each function and its children.

 Each entry in this table consists of several lines.  The line with the
 index number at the left hand margin lists the current function.
 The lines above it list the functions that called this function,
 and the lines below it list the functions this one called.
 This line lists:
     index	A unique number given to each element of the table.
		Index numbers are sorted numerically.
		The index number is printed next to every function name so
		it is easier to look up where the function is in the table.

     % time	This is the percentage of the `total' time that was spent
		in this function and its children.  Note that due to
		different viewpoints, functions excluded by options, etc,
		these numbers will NOT add up to 100%.

     self	This is the total amount of time spent in this function.

     children	This is the total amount of time propagated into this
		function by its children.

     called	This is the number of times the function was called.
		If the function called itself recursively, the number
		only includes non-recursive calls, and is followed by
		a `+' and the number of recursive calls.

     name	The name of the current function.  The index number is
		printed after it.  If the function is a member of a
		cycle, the cycle number is printed between the
		function's name and the index number.


 For the function's parents, the fields have the following meanings:

     self	This is the amount of time that was propagated directly
		from the function into this parent.

     children	This is the amount of time that was propagated from
		the function's children into this parent.

     called	This is the number of times this parent called the
		function `/' the total number of times the function
		was called.  Recursive calls to the function are not
		included in the number after the `/'.

     name	This is the name of the parent.  The parent's index
		number is printed after it.  If the parent is a
		member of a cycle, the cycle number is printed between
		the name and the index number.

 If the parents of the function cannot be determined, the word
 `<spontaneous>' is printed in the `name' field, and all the other
 fields are blank.

 For the function's children, the fields have the following meanings:

     self	This is the amount of time that was propagated directly
		from the child into the function.

     children	This is the amount of time that was propagated from the
		child's children to the function.

     called	This is the number of times the function called
		this child `/' the total number of times the child
		was called.  Recursive calls by the child are not
		listed in the number after the `/'.

     name	This is the name of the child.  The child's index
		number is printed after it.  If the child is a
		member of a cycle, the cycle number is printed
		between the name and the index number.

 If there are any cycles (circles) in the call graph, there is an
 entry for the cycle-as-a-whole.  This entry shows who called the
 cycle (as parents) and the members of the cycle (as children.)
 The `+' recursive calls entry shows the number of function calls that
 were internal to the cycle, and the calls entry for each member shows,
 for that member, how many times it was called from other members of
 the cycle.

Copyright (C) 2012-2018 Free Software Foundation, Inc.

Copying and distribution of this file, with or without modification,
are permitted in any medium without royalty provided the copyright
notice and this notice are preserved.

Index by function name

  [37] _GLOBAL__sub_I__ZNK12hitable_list3hitERK3rayffR10hit_record (main.cpp) [60] vec3::operator[](int) [6] xz_rect::hit(ray const&, float, float, hit_record&) const
  [33] cornell_box()          [40] vec3::operator+=(vec3 const&) [7] yz_rect::hit(ray const&, float, float, hit_record&) const
  [42] unit_vector(vec3)      [11] camera::get_ray(float, float) [19] material::emitted(float, float, vec3 const&) const
  [20] random_in_unit_disk()  [31] camera::camera(vec3, vec3, vec3, float, float, float, float) [71] std::chrono::time_point<std::chrono::_V2::system_clock, std::chrono::duration<long, std::ratio<1l, 1000000000l> > >::time_since_epoch() const
   [8] random_in_unit_sphere() [63] hitable::hitable()    [72] std::chrono::duration<double, std::ratio<1l, 1000l> >::count() const
  [29] dot(vec3 const&, vec3 const&) [65] texture::texture() [69] std::chrono::duration<long, std::ratio<1l, 1000000000l> >::count() const
  [38] __static_initialization_and_destruction_0(int, int) (main.cpp) [74] xy_rect::xy_rect(float, float, float, float, float, material*) [75] std::enable_if<std::chrono::__is_duration<std::chrono::duration<double, std::ratio<1l, 1000l> > >::value, std::chrono::duration<double, std::ratio<1l, 1000l> > >::type std::chrono::duration_cast<std::chrono::duration<double, std::ratio<1l, 1000l> >, long, std::ratio<1l, 1000000000l> >(std::chrono::duration<long, std::ratio<1l, 1000000000l> > const&)
   [2] color(ray const&, hitable*, int) [68] xz_rect::xz_rect(float, float, float, float, float, material*) [76] std::chrono::duration<double, std::ratio<1l, 1000l> > std::chrono::__duration_cast_impl<std::chrono::duration<double, std::ratio<1l, 1000l> >, std::ratio<1l, 1000000l>, double, true, false>::__cast<long, std::ratio<1l, 1000000000l> >(std::chrono::duration<long, std::ratio<1l, 1000000000l> > const&)
  [53] cross(vec3 const&, vec3 const&) [70] yz_rect::yz_rect(float, float, float, float, float, material*) [77] std::chrono::duration<double, std::ratio<1l, 1000l> >::duration<double, void>(double const&)
  [67] permute(int*, int)     [66] material::material()   [78] std::chrono::duration<double, std::ratio<1l, 1000l> >::duration<long, std::ratio<1l, 1000000000l>, void>(std::chrono::duration<long, std::ratio<1l, 1000000000l> > const&)
  [52] reflect(vec3 const&, vec3 const&) [5] lambertian::scatter(ray const&, hit_record const&, vec3&, ray&) const [79] std::chrono::duration<long, std::ratio<1l, 1000000000l> >::duration<long, void>(long const&)
  [44] refract(vec3 const&, vec3 const&, float, vec3&) [4] flip_normal::hit(ray const&, float, float, hit_record&) const [50] std::common_type<std::chrono::duration<long, std::ratio<1l, 1000000000l> >, std::chrono::duration<long, std::ratio<1l, 1000000000l> > >::type std::chrono::operator-<std::chrono::_V2::system_clock, std::chrono::duration<long, std::ratio<1l, 1000000000l> >, std::chrono::duration<long, std::ratio<1l, 1000000000l> > >(std::chrono::time_point<std::chrono::_V2::system_clock, std::chrono::duration<long, std::ratio<1l, 1000000000l> > > const&, std::chrono::time_point<std::chrono::_V2::system_clock, std::chrono::duration<long, std::ratio<1l, 1000000000l> > > const&)
  [43] perlin_generate() (perlin.h) [3] hitable_list::hit(ray const&, float, float, hit_record&) const [51] std::common_type<std::chrono::duration<long, std::ratio<1l, 1000000000l> >, std::chrono::duration<long, std::ratio<1l, 1000000000l> > >::type std::chrono::operator-<long, std::ratio<1l, 1000000000l>, long, std::ratio<1l, 1000000000l> >(std::chrono::duration<long, std::ratio<1l, 1000000000l> > const&, std::chrono::duration<long, std::ratio<1l, 1000000000l> > const&)
  [45] perlin_generate_perm() (perlin.h) [49] diffuse_light::emitted(float, float, vec3 const&) const [32] std::tan(float)
  [24] hit_record::hit_record() [59] diffuse_light::scatter(ray const&, hit_record const&, vec3&, ray&) const [61] std::sqrt(float)
  [46] lambertian::lambertian(texture*) [34] constant_texture::value(float, float, vec3 const&) const [48] operator/(vec3, float)
  [35] flip_normal::flip_normal(hitable*) [17] ray::point_at_parameter(float) const [13] operator-(vec3 const&, vec3 const&)
  [36] hitable_list::hitable_list(hitable**, int) [12] ray::origin() const [18] operator*(vec3 const&, vec3 const&)
  [73] diffuse_light::diffuse_light(texture*) [14] ray::direction() const [27] operator*(vec3 const&, float)
  [64] constant_texture::constant_texture(vec3) [26] vec3::x() const [10] operator*(float, vec3 const&)
  [25] ray::ray(vec3 const&, vec3 const&) [22] vec3::y() const [9] operator+(vec3 const&, vec3 const&)
  [30] ray::ray()             [28] vec3::z() const        [41] frame_dummy
  [15] vec3::vec3(float, float, float) [47] vec3::length() const [1] main
  [21] vec3::vec3()           [23] vec3::operator-() const
  [62] vec3::operator/=(float) [16] xy_rect::hit(ray const&, float, float, hit_record&) const
