digraph "main.cpp.224t.ehcleanup2" {
overlap=false;
subgraph "cluster_vec3 operator+(const vec3&, const vec3&)" {
	style="dashed";
	color="black";
	label="vec3 operator+(const vec3&, const vec3&) ()";
	fn_2050_basic_block_0 [shape=Mdiamond,style=filled,fillcolor=white,label="ENTRY"];

	fn_2050_basic_block_1 [shape=Mdiamond,style=filled,fillcolor=white,label="EXIT"];

	fn_2050_basic_block_2 [shape=record,style=filled,fillcolor=lightgrey,label="{ FREQ:0 |\<bb\ 2\>:\l\
|_1\ =\ v1_11(D)-\>e[2];\l\
|_2\ =\ v2_12(D)-\>e[2];\l\
|_3\ =\ _1\ +\ _2;\l\
|_4\ =\ v1_11(D)-\>e[1];\l\
|_5\ =\ v2_12(D)-\>e[1];\l\
|_6\ =\ _4\ +\ _5;\l\
|_7\ =\ v1_11(D)-\>e[0];\l\
|_8\ =\ v2_12(D)-\>e[0];\l\
|_9\ =\ _7\ +\ _8;\l\
|vec3::vec3\ (&D.47273,\ _9,\ _6,\ _3);\l\
|D.52638\ =\ D.47273;\l\
|D.47273\ =\{v\}\ \{CLOBBER\};\l\
}"];

	fn_2050_basic_block_3 [shape=record,style=filled,fillcolor=lightgrey,label="{ FREQ:0 |\<bb\ 3\>:\l\
|\<L1\>\ [0.00%]:\l\
|return\ D.52638;\l\
}"];

	fn_2050_basic_block_0:s -> fn_2050_basic_block_2:n [style="solid,bold",color=blue,weight=100,constraint=true, label="[0%]"];
	fn_2050_basic_block_2:s -> fn_2050_basic_block_3:n [style="solid,bold",color=blue,weight=100,constraint=true, label="[0%]"];
	fn_2050_basic_block_3:s -> fn_2050_basic_block_1:n [style="solid,bold",color=black,weight=10,constraint=true, label="[0%]"];
	fn_2050_basic_block_0:s -> fn_2050_basic_block_1:n [style="invis",constraint=true];
}
subgraph "cluster_vec3 operator-(const vec3&, const vec3&)" {
	style="dashed";
	color="black";
	label="vec3 operator-(const vec3&, const vec3&) ()";
	fn_2051_basic_block_0 [shape=Mdiamond,style=filled,fillcolor=white,label="ENTRY"];

	fn_2051_basic_block_1 [shape=Mdiamond,style=filled,fillcolor=white,label="EXIT"];

	fn_2051_basic_block_2 [shape=record,style=filled,fillcolor=lightgrey,label="{ FREQ:0 |\<bb\ 2\>:\l\
|_1\ =\ v1_11(D)-\>e[2];\l\
|_2\ =\ v2_12(D)-\>e[2];\l\
|_3\ =\ _1\ -\ _2;\l\
|_4\ =\ v1_11(D)-\>e[1];\l\
|_5\ =\ v2_12(D)-\>e[1];\l\
|_6\ =\ _4\ -\ _5;\l\
|_7\ =\ v1_11(D)-\>e[0];\l\
|_8\ =\ v2_12(D)-\>e[0];\l\
|_9\ =\ _7\ -\ _8;\l\
|vec3::vec3\ (&D.47278,\ _9,\ _6,\ _3);\l\
|D.52641\ =\ D.47278;\l\
|D.47278\ =\{v\}\ \{CLOBBER\};\l\
}"];

	fn_2051_basic_block_3 [shape=record,style=filled,fillcolor=lightgrey,label="{ FREQ:0 |\<bb\ 3\>:\l\
|\<L1\>\ [0.00%]:\l\
|return\ D.52641;\l\
}"];

	fn_2051_basic_block_0:s -> fn_2051_basic_block_2:n [style="solid,bold",color=blue,weight=100,constraint=true, label="[0%]"];
	fn_2051_basic_block_2:s -> fn_2051_basic_block_3:n [style="solid,bold",color=blue,weight=100,constraint=true, label="[0%]"];
	fn_2051_basic_block_3:s -> fn_2051_basic_block_1:n [style="solid,bold",color=black,weight=10,constraint=true, label="[0%]"];
	fn_2051_basic_block_0:s -> fn_2051_basic_block_1:n [style="invis",constraint=true];
}
subgraph "cluster_vec3 operator*(const vec3&, const vec3&)" {
	style="dashed";
	color="black";
	label="vec3 operator*(const vec3&, const vec3&) ()";
	fn_2052_basic_block_0 [shape=Mdiamond,style=filled,fillcolor=white,label="ENTRY"];

	fn_2052_basic_block_1 [shape=Mdiamond,style=filled,fillcolor=white,label="EXIT"];

	fn_2052_basic_block_2 [shape=record,style=filled,fillcolor=lightgrey,label="{ FREQ:0 |\<bb\ 2\>:\l\
|_1\ =\ v1_11(D)-\>e[2];\l\
|_2\ =\ v2_12(D)-\>e[2];\l\
|_3\ =\ _1\ *\ _2;\l\
|_4\ =\ v1_11(D)-\>e[1];\l\
|_5\ =\ v2_12(D)-\>e[1];\l\
|_6\ =\ _4\ *\ _5;\l\
|_7\ =\ v1_11(D)-\>e[0];\l\
|_8\ =\ v2_12(D)-\>e[0];\l\
|_9\ =\ _7\ *\ _8;\l\
|vec3::vec3\ (&D.47283,\ _9,\ _6,\ _3);\l\
|D.52699\ =\ D.47283;\l\
|D.47283\ =\{v\}\ \{CLOBBER\};\l\
}"];

	fn_2052_basic_block_3 [shape=record,style=filled,fillcolor=lightgrey,label="{ FREQ:0 |\<bb\ 3\>:\l\
|\<L1\>\ [0.00%]:\l\
|return\ D.52699;\l\
}"];

	fn_2052_basic_block_0:s -> fn_2052_basic_block_2:n [style="solid,bold",color=blue,weight=100,constraint=true, label="[0%]"];
	fn_2052_basic_block_2:s -> fn_2052_basic_block_3:n [style="solid,bold",color=blue,weight=100,constraint=true, label="[0%]"];
	fn_2052_basic_block_3:s -> fn_2052_basic_block_1:n [style="solid,bold",color=black,weight=10,constraint=true, label="[0%]"];
	fn_2052_basic_block_0:s -> fn_2052_basic_block_1:n [style="invis",constraint=true];
}
subgraph "cluster_vec3 operator*(float, const vec3&)" {
	style="dashed";
	color="black";
	label="vec3 operator*(float, const vec3&) ()";
	fn_2054_basic_block_0 [shape=Mdiamond,style=filled,fillcolor=white,label="ENTRY"];

	fn_2054_basic_block_1 [shape=Mdiamond,style=filled,fillcolor=white,label="EXIT"];

	fn_2054_basic_block_2 [shape=record,style=filled,fillcolor=lightgrey,label="{ FREQ:0 |\<bb\ 2\>:\l\
|_1\ =\ v_8(D)-\>e[2];\l\
|_2\ =\ t_9(D)\ *\ _1;\l\
|_3\ =\ v_8(D)-\>e[1];\l\
|_4\ =\ t_9(D)\ *\ _3;\l\
|_5\ =\ v_8(D)-\>e[0];\l\
|_6\ =\ t_9(D)\ *\ _5;\l\
|vec3::vec3\ (&D.47293,\ _6,\ _4,\ _2);\l\
|D.52635\ =\ D.47293;\l\
|D.47293\ =\{v\}\ \{CLOBBER\};\l\
}"];

	fn_2054_basic_block_3 [shape=record,style=filled,fillcolor=lightgrey,label="{ FREQ:0 |\<bb\ 3\>:\l\
|\<L1\>\ [0.00%]:\l\
|return\ D.52635;\l\
}"];

	fn_2054_basic_block_0:s -> fn_2054_basic_block_2:n [style="solid,bold",color=blue,weight=100,constraint=true, label="[0%]"];
	fn_2054_basic_block_2:s -> fn_2054_basic_block_3:n [style="solid,bold",color=blue,weight=100,constraint=true, label="[0%]"];
	fn_2054_basic_block_3:s -> fn_2054_basic_block_1:n [style="solid,bold",color=black,weight=10,constraint=true, label="[0%]"];
	fn_2054_basic_block_0:s -> fn_2054_basic_block_1:n [style="invis",constraint=true];
}
subgraph "cluster_vec3 operator/(vec3, float)" {
	style="dashed";
	color="black";
	label="vec3 operator/(vec3, float) ()";
	fn_2055_basic_block_0 [shape=Mdiamond,style=filled,fillcolor=white,label="ENTRY"];

	fn_2055_basic_block_1 [shape=Mdiamond,style=filled,fillcolor=white,label="EXIT"];

	fn_2055_basic_block_2 [shape=record,style=filled,fillcolor=lightgrey,label="{ FREQ:0 |\<bb\ 2\>:\l\
|_1\ =\ v.e[2];\l\
|_2\ =\ _1\ /\ t_8(D);\l\
|_3\ =\ v.e[1];\l\
|_4\ =\ _3\ /\ t_8(D);\l\
|_5\ =\ v.e[0];\l\
|_6\ =\ _5\ /\ t_8(D);\l\
|vec3::vec3\ (&D.47298,\ _6,\ _4,\ _2);\l\
|D.52644\ =\ D.47298;\l\
|D.47298\ =\{v\}\ \{CLOBBER\};\l\
}"];

	fn_2055_basic_block_3 [shape=record,style=filled,fillcolor=lightgrey,label="{ FREQ:0 |\<bb\ 3\>:\l\
|\<L1\>\ [0.00%]:\l\
|return\ D.52644;\l\
}"];

	fn_2055_basic_block_0:s -> fn_2055_basic_block_2:n [style="solid,bold",color=blue,weight=100,constraint=true, label="[0%]"];
	fn_2055_basic_block_2:s -> fn_2055_basic_block_3:n [style="solid,bold",color=blue,weight=100,constraint=true, label="[0%]"];
	fn_2055_basic_block_3:s -> fn_2055_basic_block_1:n [style="solid,bold",color=black,weight=10,constraint=true, label="[0%]"];
	fn_2055_basic_block_0:s -> fn_2055_basic_block_1:n [style="invis",constraint=true];
}
subgraph "cluster_vec3 operator*(const vec3&, float)" {
	style="dashed";
	color="black";
	label="vec3 operator*(const vec3&, float) ()";
	fn_2056_basic_block_0 [shape=Mdiamond,style=filled,fillcolor=white,label="ENTRY"];

	fn_2056_basic_block_1 [shape=Mdiamond,style=filled,fillcolor=white,label="EXIT"];

	fn_2056_basic_block_2 [shape=record,style=filled,fillcolor=lightgrey,label="{ FREQ:0 |\<bb\ 2\>:\l\
|_1\ =\ v_8(D)-\>e[2];\l\
|_2\ =\ t_9(D)\ *\ _1;\l\
|_3\ =\ v_8(D)-\>e[1];\l\
|_4\ =\ t_9(D)\ *\ _3;\l\
|_5\ =\ v_8(D)-\>e[0];\l\
|_6\ =\ t_9(D)\ *\ _5;\l\
|vec3::vec3\ (&D.47303,\ _6,\ _4,\ _2);\l\
|D.52669\ =\ D.47303;\l\
|D.47303\ =\{v\}\ \{CLOBBER\};\l\
}"];

	fn_2056_basic_block_3 [shape=record,style=filled,fillcolor=lightgrey,label="{ FREQ:0 |\<bb\ 3\>:\l\
|\<L1\>\ [0.00%]:\l\
|return\ D.52669;\l\
}"];

	fn_2056_basic_block_0:s -> fn_2056_basic_block_2:n [style="solid,bold",color=blue,weight=100,constraint=true, label="[0%]"];
	fn_2056_basic_block_2:s -> fn_2056_basic_block_3:n [style="solid,bold",color=blue,weight=100,constraint=true, label="[0%]"];
	fn_2056_basic_block_3:s -> fn_2056_basic_block_1:n [style="solid,bold",color=black,weight=10,constraint=true, label="[0%]"];
	fn_2056_basic_block_0:s -> fn_2056_basic_block_1:n [style="invis",constraint=true];
}
subgraph "cluster_vec3 cross(const vec3&, const vec3&)" {
	style="dashed";
	color="black";
	label="vec3 cross(const vec3&, const vec3&) ()";
	fn_2058_basic_block_0 [shape=Mdiamond,style=filled,fillcolor=white,label="ENTRY"];

	fn_2058_basic_block_1 [shape=Mdiamond,style=filled,fillcolor=white,label="EXIT"];

	fn_2058_basic_block_2 [shape=record,style=filled,fillcolor=lightgrey,label="{ FREQ:0 |\<bb\ 2\>:\l\
|_1\ =\ v1_24(D)-\>e[0];\l\
|_2\ =\ v2_25(D)-\>e[1];\l\
|_3\ =\ _1\ *\ _2;\l\
|_4\ =\ v1_24(D)-\>e[1];\l\
|_5\ =\ v2_25(D)-\>e[0];\l\
|_6\ =\ _4\ *\ _5;\l\
|_7\ =\ _3\ -\ _6;\l\
|_8\ =\ v1_24(D)-\>e[0];\l\
|_9\ =\ v2_25(D)-\>e[2];\l\
|_10\ =\ _8\ *\ _9;\l\
|_11\ =\ v1_24(D)-\>e[2];\l\
|_12\ =\ v2_25(D)-\>e[0];\l\
|_13\ =\ _11\ *\ _12;\l\
|_14\ =\ _10\ -\ _13;\l\
|_15\ =\ -_14;\l\
|_16\ =\ v1_24(D)-\>e[1];\l\
|_17\ =\ v2_25(D)-\>e[2];\l\
|_18\ =\ _16\ *\ _17;\l\
|_19\ =\ v1_24(D)-\>e[2];\l\
|_20\ =\ v2_25(D)-\>e[1];\l\
|_21\ =\ _19\ *\ _20;\l\
|_22\ =\ _18\ -\ _21;\l\
|vec3::vec3\ (&D.47312,\ _22,\ _15,\ _7);\l\
|D.52762\ =\ D.47312;\l\
|D.47312\ =\{v\}\ \{CLOBBER\};\l\
}"];

	fn_2058_basic_block_3 [shape=record,style=filled,fillcolor=lightgrey,label="{ FREQ:0 |\<bb\ 3\>:\l\
|\<L1\>\ [0.00%]:\l\
|return\ D.52762;\l\
}"];

	fn_2058_basic_block_0:s -> fn_2058_basic_block_2:n [style="solid,bold",color=blue,weight=100,constraint=true, label="[0%]"];
	fn_2058_basic_block_2:s -> fn_2058_basic_block_3:n [style="solid,bold",color=blue,weight=100,constraint=true, label="[0%]"];
	fn_2058_basic_block_3:s -> fn_2058_basic_block_1:n [style="solid,bold",color=black,weight=10,constraint=true, label="[0%]"];
	fn_2058_basic_block_0:s -> fn_2058_basic_block_1:n [style="invis",constraint=true];
}
subgraph "cluster_vec3 ray::point_at_parameter(float) const" {
	style="dashed";
	color="black";
	label="vec3 ray::point_at_parameter(float) const ()";
	fn_2074_basic_block_0 [shape=Mdiamond,style=filled,fillcolor=white,label="ENTRY"];

	fn_2074_basic_block_1 [shape=Mdiamond,style=filled,fillcolor=white,label="EXIT"];

	fn_2074_basic_block_2 [shape=record,style=filled,fillcolor=lightgrey,label="{ FREQ:0 |\<bb\ 2\>:\l\
|_1\ =\ &this_3(D)-\>B;\l\
|D.47391\ =\ operator*\ (t_5(D),\ _1);\l\
|_2\ =\ &this_3(D)-\>A;\l\
|D.52632\ =\ operator+\ (_2,\ &D.47391);\l\
|D.47391\ =\{v\}\ \{CLOBBER\};\l\
}"];

	fn_2074_basic_block_3 [shape=record,style=filled,fillcolor=lightgrey,label="{ FREQ:0 |\<bb\ 3\>:\l\
|\<L1\>\ [0.00%]:\l\
|return\ D.52632;\l\
}"];

	fn_2074_basic_block_0:s -> fn_2074_basic_block_2:n [style="solid,bold",color=blue,weight=100,constraint=true, label="[0%]"];
	fn_2074_basic_block_2:s -> fn_2074_basic_block_3:n [style="solid,bold",color=blue,weight=100,constraint=true, label="[0%]"];
	fn_2074_basic_block_3:s -> fn_2074_basic_block_1:n [style="solid,bold",color=black,weight=10,constraint=true, label="[0%]"];
	fn_2074_basic_block_0:s -> fn_2074_basic_block_1:n [style="invis",constraint=true];
}
subgraph "cluster_virtual bool hitable_list::hit(const ray&, float, float, hit_record&) const" {
	style="dashed";
	color="black";
	label="virtual bool hitable_list::hit(const ray&, float, float, hit_record&) const ()";
	subgraph cluster_2084_1 {
	style="filled";
	color="darkgreen";
	fillcolor="grey88";
	label="loop 1";
	labeljust=l;
	penwidth=2;
	fn_2084_basic_block_3 [shape=record,style=filled,fillcolor=lightgrey,label="{ FREQ:0 |\<bb\ 3\>:\l\
|#\ hit_anything_19\ =\ PHI\ \<hit_anything_28(2),\ hit_anything_20(6)\>\l\
|#\ closest_so_far_21\ =\ PHI\ \<closest_so_far_30(2),\ closest_so_far_22(6)\>\l\
|#\ i_23\ =\ PHI\ \<i_31(2),\ i_42(6)\>\l\
|_1\ =\ this_32(D)-\>list_size;\l\
|if\ (i_23\ \>=\ _1)\l\
\ \ goto\ \<bb\ 7\>;\ [0.00%]\l\
else\l\
\ \ goto\ \<bb\ 4\>;\ [0.00%]\l\
}"];

	fn_2084_basic_block_4 [shape=record,style=filled,fillcolor=lightgrey,label="{ FREQ:0 |\<bb\ 4\>:\l\
|_2\ =\ this_32(D)-\>list;\l\
|_3\ =\ (long\ unsigned\ int)\ i_23;\l\
|_4\ =\ _3\ *\ 8;\l\
|_5\ =\ _2\ +\ _4;\l\
|_6\ =\ *_5;\l\
|_7\ =\ this_32(D)-\>list;\l\
|_8\ =\ (long\ unsigned\ int)\ i_23;\l\
|_9\ =\ _8\ *\ 8;\l\
|_10\ =\ _7\ +\ _9;\l\
|_11\ =\ *_10;\l\
|_12\ =\ this_32(D)-\>list;\l\
|_13\ =\ (long\ unsigned\ int)\ i_23;\l\
|_14\ =\ _13\ *\ 8;\l\
|_15\ =\ _12\ +\ _14;\l\
|_16\ =\ *_15;\l\
|_17\ =\ _16-\>_vptr.hitable;\l\
|_18\ =\ *_17;\l\
|_36\ =\ OBJ_TYPE_REF(_18;(const\ struct\ hitable)_11-\>0)\ (_6,\ r_33(D),\ t_min_34(D),\ closest_so_far_21,\ &temp_rec);\l\
|retval.0_37\ =\ _36;\l\
|if\ (retval.0_37\ !=\ 0)\l\
\ \ goto\ \<bb\ 5\>;\ [0.00%]\l\
else\l\
\ \ goto\ \<bb\ 6\>;\ [0.00%]\l\
}"];

	fn_2084_basic_block_5 [shape=record,style=filled,fillcolor=lightgrey,label="{ FREQ:0 |\<bb\ 5\>:\l\
|hit_anything_38\ =\ 1;\l\
|closest_so_far_39\ =\ temp_rec.t;\l\
|*rec_40(D)\ =\ temp_rec;\l\
}"];

	fn_2084_basic_block_6 [shape=record,style=filled,fillcolor=lightgrey,label="{ FREQ:0 |\<bb\ 6\>:\l\
|#\ hit_anything_20\ =\ PHI\ \<hit_anything_19(4),\ hit_anything_38(5)\>\l\
|#\ closest_so_far_22\ =\ PHI\ \<closest_so_far_21(4),\ closest_so_far_39(5)\>\l\
|i_42\ =\ i_23\ +\ 1;\l\
goto\ \<bb\ 3\>;\ [0.00%]\l\
}"];

	}
	fn_2084_basic_block_0 [shape=Mdiamond,style=filled,fillcolor=white,label="ENTRY"];

	fn_2084_basic_block_1 [shape=Mdiamond,style=filled,fillcolor=white,label="EXIT"];

	fn_2084_basic_block_2 [shape=record,style=filled,fillcolor=lightgrey,label="{ FREQ:0 |\<bb\ 2\>:\l\
|hit_record::hit_record\ (&temp_rec);\l\
|hit_anything_28\ =\ 0;\l\
|closest_so_far_30\ =\ t_max_29(D);\l\
|i_31\ =\ 0;\l\
}"];

	fn_2084_basic_block_7 [shape=record,style=filled,fillcolor=lightgrey,label="{ FREQ:0 |\<bb\ 7\>:\l\
|_44\ =\ hit_anything_19;\l\
|temp_rec\ =\{v\}\ \{CLOBBER\};\l\
}"];

	fn_2084_basic_block_8 [shape=record,style=filled,fillcolor=lightgrey,label="{ FREQ:0 |\<bb\ 8\>:\l\
|\<L7\>\ [0.00%]:\l\
|return\ _44;\l\
}"];

	fn_2084_basic_block_0:s -> fn_2084_basic_block_2:n [style="solid,bold",color=blue,weight=100,constraint=true, label="[0%]"];
	fn_2084_basic_block_2:s -> fn_2084_basic_block_3:n [style="solid,bold",color=blue,weight=100,constraint=true, label="[0%]"];
	fn_2084_basic_block_3:s -> fn_2084_basic_block_7:n [style="solid,bold",color=black,weight=10,constraint=true, label="[0%]"];
	fn_2084_basic_block_3:s -> fn_2084_basic_block_4:n [style="solid,bold",color=black,weight=10,constraint=true, label="[0%]"];
	fn_2084_basic_block_4:s -> fn_2084_basic_block_5:n [style="solid,bold",color=black,weight=10,constraint=true, label="[0%]"];
	fn_2084_basic_block_4:s -> fn_2084_basic_block_6:n [style="solid,bold",color=black,weight=10,constraint=true, label="[0%]"];
	fn_2084_basic_block_5:s -> fn_2084_basic_block_6:n [style="solid,bold",color=blue,weight=100,constraint=true, label="[0%]"];
	fn_2084_basic_block_6:s -> fn_2084_basic_block_3:n [style="dotted,bold",color=blue,weight=10,constraint=false, label="[0%]"];
	fn_2084_basic_block_7:s -> fn_2084_basic_block_8:n [style="solid,bold",color=blue,weight=100,constraint=true, label="[0%]"];
	fn_2084_basic_block_8:s -> fn_2084_basic_block_1:n [style="solid,bold",color=black,weight=10,constraint=true, label="[0%]"];
	fn_2084_basic_block_0:s -> fn_2084_basic_block_1:n [style="invis",constraint=true];
}
subgraph "cluster_virtual bool sphere::hit(const ray&, float, float, hit_record&) const" {
	style="dashed";
	color="black";
	label="virtual bool sphere::hit(const ray&, float, float, hit_record&) const ()";
	fn_2094_basic_block_0 [shape=Mdiamond,style=filled,fillcolor=white,label="ENTRY"];

	fn_2094_basic_block_1 [shape=Mdiamond,style=filled,fillcolor=white,label="EXIT"];

	fn_2094_basic_block_2 [shape=record,style=filled,fillcolor=lightgrey,label="{ FREQ:0 |\<bb\ 2\>:\l\
|_1\ =\ &this_36(D)-\>center;\l\
|D.47600\ =\ ray::origin\ (r_38(D));\l\
|oc\ =\ operator-\ (&D.47600,\ _1);\l\
|D.47600\ =\{v\}\ \{CLOBBER\};\l\
|D.47604\ =\ ray::direction\ (r_38(D));\l\
|D.47603\ =\ ray::direction\ (r_38(D));\l\
|a_45\ =\ dot\ (&D.47603,\ &D.47604);\l\
|D.47603\ =\{v\}\ \{CLOBBER\};\l\
|D.47604\ =\{v\}\ \{CLOBBER\};\l\
|D.47606\ =\ ray::direction\ (r_38(D));\l\
|_2\ =\ dot\ (&oc,\ &D.47606);\l\
|b_50\ =\ _2\ *\ 2.0e+0;\l\
|D.47606\ =\{v\}\ \{CLOBBER\};\l\
|_3\ =\ dot\ (&oc,\ &oc);\l\
|_4\ =\ this_36(D)-\>radius;\l\
|_5\ =\ this_36(D)-\>radius;\l\
|_6\ =\ _4\ *\ _5;\l\
|c_53\ =\ _3\ -\ _6;\l\
|_7\ =\ b_50\ *\ b_50;\l\
|_8\ =\ a_45\ *\ 4.0e+0;\l\
|_9\ =\ c_53\ *\ _8;\l\
|discriminant_54\ =\ _7\ -\ _9;\l\
|if\ (discriminant_54\ \>\ 0.0)\l\
\ \ goto\ \<bb\ 3\>;\ [0.00%]\l\
else\l\
\ \ goto\ \<bb\ 10\>;\ [0.00%]\l\
}"];

	fn_2094_basic_block_3 [shape=record,style=filled,fillcolor=lightgrey,label="{ FREQ:0 |\<bb\ 3\>:\l\
|_10\ =\ -b_50;\l\
|_11\ =\ std::sqrt\ (discriminant_54);\l\
|_12\ =\ _10\ -\ _11;\l\
|_13\ =\ (double)\ _12;\l\
|_14\ =\ (double)\ a_45;\l\
|_15\ =\ _14\ *\ 2.0e+0;\l\
|_16\ =\ _13\ /\ _15;\l\
|temp_56\ =\ (float)\ _16;\l\
|if\ (temp_56\ \<\ t_max_57(D))\l\
\ \ goto\ \<bb\ 4\>;\ [0.00%]\l\
else\l\
\ \ goto\ \<bb\ 6\>;\ [0.00%]\l\
}"];

	fn_2094_basic_block_4 [shape=record,style=filled,fillcolor=lightgrey,label="{ FREQ:0 |\<bb\ 4\>:\l\
|if\ (temp_56\ \>\ t_min_58(D))\l\
\ \ goto\ \<bb\ 5\>;\ [0.00%]\l\
else\l\
\ \ goto\ \<bb\ 6\>;\ [0.00%]\l\
}"];

	fn_2094_basic_block_5 [shape=record,style=filled,fillcolor=lightgrey,label="{ FREQ:0 |\<bb\ 5\>:\l\
|rec_59(D)-\>t\ =\ temp_56;\l\
|_17\ =\ rec_59(D)-\>t;\l\
|rec_59(D)-\>p\ =\ ray::point_at_parameter\ (r_38(D),\ _17);\l\
|_18\ =\ this_36(D)-\>radius;\l\
|_19\ =\ &this_36(D)-\>center;\l\
|_20\ =\ &rec_59(D)-\>p;\l\
|D.52614\ =\ operator-\ (_20,\ _19);\l\
|rec_59(D)-\>normal\ =\ operator/\ (D.52614,\ _18);\l\
|_21\ =\ this_36(D)-\>mat_ptr;\l\
|rec_59(D)-\>mat_ptr\ =\ _21;\l\
|_65\ =\ 1;\l\
goto\ \<bb\ 11\>;\ [0.00%]\l\
}"];

	fn_2094_basic_block_6 [shape=record,style=filled,fillcolor=lightgrey,label="{ FREQ:0 |\<bb\ 6\>:\l\
|_22\ =\ std::sqrt\ (discriminant_54);\l\
|_23\ =\ _22\ -\ b_50;\l\
|_24\ =\ (double)\ _23;\l\
|_25\ =\ (double)\ a_45;\l\
|_26\ =\ _25\ *\ 2.0e+0;\l\
|_27\ =\ _24\ /\ _26;\l\
|temp_67\ =\ (float)\ _27;\l\
|if\ (temp_67\ \<\ t_max_57(D))\l\
\ \ goto\ \<bb\ 7\>;\ [0.00%]\l\
else\l\
\ \ goto\ \<bb\ 9\>;\ [0.00%]\l\
}"];

	fn_2094_basic_block_7 [shape=record,style=filled,fillcolor=lightgrey,label="{ FREQ:0 |\<bb\ 7\>:\l\
|if\ (temp_67\ \>\ t_min_58(D))\l\
\ \ goto\ \<bb\ 8\>;\ [0.00%]\l\
else\l\
\ \ goto\ \<bb\ 9\>;\ [0.00%]\l\
}"];

	fn_2094_basic_block_8 [shape=record,style=filled,fillcolor=lightgrey,label="{ FREQ:0 |\<bb\ 8\>:\l\
|rec_59(D)-\>t\ =\ temp_67;\l\
|_28\ =\ rec_59(D)-\>t;\l\
|rec_59(D)-\>p\ =\ ray::point_at_parameter\ (r_38(D),\ _28);\l\
|_29\ =\ this_36(D)-\>radius;\l\
|_30\ =\ &this_36(D)-\>center;\l\
|_31\ =\ &rec_59(D)-\>p;\l\
|D.52620\ =\ operator-\ (_31,\ _30);\l\
|rec_59(D)-\>normal\ =\ operator/\ (D.52620,\ _29);\l\
|_32\ =\ this_36(D)-\>mat_ptr;\l\
|rec_59(D)-\>mat_ptr\ =\ _32;\l\
|_73\ =\ 1;\l\
goto\ \<bb\ 11\>;\ [0.00%]\l\
}"];

	fn_2094_basic_block_9 [shape=record,style=filled,fillcolor=lightgrey,label="{ FREQ:0 |\<bb\ 9\>:\l\
}"];

	fn_2094_basic_block_10 [shape=record,style=filled,fillcolor=lightgrey,label="{ FREQ:0 |\<bb\ 10\>:\l\
|_74\ =\ 0;\l\
}"];

	fn_2094_basic_block_11 [shape=record,style=filled,fillcolor=lightgrey,label="{ FREQ:0 |\<bb\ 11\>:\l\
|#\ _33\ =\ PHI\ \<_65(5),\ _73(8),\ _74(10)\>\l\
|oc\ =\{v\}\ \{CLOBBER\};\l\
}"];

	fn_2094_basic_block_12 [shape=record,style=filled,fillcolor=lightgrey,label="{ FREQ:0 |\<bb\ 12\>:\l\
|\<L12\>\ [0.00%]:\l\
|return\ _33;\l\
}"];

	fn_2094_basic_block_0:s -> fn_2094_basic_block_2:n [style="solid,bold",color=blue,weight=100,constraint=true, label="[0%]"];
	fn_2094_basic_block_2:s -> fn_2094_basic_block_3:n [style="solid,bold",color=black,weight=10,constraint=true, label="[0%]"];
	fn_2094_basic_block_2:s -> fn_2094_basic_block_10:n [style="solid,bold",color=black,weight=10,constraint=true, label="[0%]"];
	fn_2094_basic_block_3:s -> fn_2094_basic_block_4:n [style="solid,bold",color=black,weight=10,constraint=true, label="[0%]"];
	fn_2094_basic_block_3:s -> fn_2094_basic_block_6:n [style="solid,bold",color=black,weight=10,constraint=true, label="[0%]"];
	fn_2094_basic_block_4:s -> fn_2094_basic_block_5:n [style="solid,bold",color=black,weight=10,constraint=true, label="[0%]"];
	fn_2094_basic_block_4:s -> fn_2094_basic_block_6:n [style="solid,bold",color=black,weight=10,constraint=true, label="[0%]"];
	fn_2094_basic_block_5:s -> fn_2094_basic_block_11:n [style="solid,bold",color=blue,weight=100,constraint=true, label="[0%]"];
	fn_2094_basic_block_6:s -> fn_2094_basic_block_7:n [style="solid,bold",color=black,weight=10,constraint=true, label="[0%]"];
	fn_2094_basic_block_6:s -> fn_2094_basic_block_9:n [style="solid,bold",color=black,weight=10,constraint=true, label="[0%]"];
	fn_2094_basic_block_7:s -> fn_2094_basic_block_8:n [style="solid,bold",color=black,weight=10,constraint=true, label="[0%]"];
	fn_2094_basic_block_7:s -> fn_2094_basic_block_9:n [style="solid,bold",color=black,weight=10,constraint=true, label="[0%]"];
	fn_2094_basic_block_8:s -> fn_2094_basic_block_11:n [style="solid,bold",color=blue,weight=100,constraint=true, label="[0%]"];
	fn_2094_basic_block_9:s -> fn_2094_basic_block_10:n [style="solid,bold",color=blue,weight=100,constraint=true, label="[0%]"];
	fn_2094_basic_block_10:s -> fn_2094_basic_block_11:n [style="solid,bold",color=blue,weight=100,constraint=true, label="[0%]"];
	fn_2094_basic_block_11:s -> fn_2094_basic_block_12:n [style="solid,bold",color=blue,weight=100,constraint=true, label="[0%]"];
	fn_2094_basic_block_12:s -> fn_2094_basic_block_1:n [style="solid,bold",color=black,weight=10,constraint=true, label="[0%]"];
	fn_2094_basic_block_0:s -> fn_2094_basic_block_1:n [style="invis",constraint=true];
}
subgraph "cluster_camera::camera(vec3, vec3, vec3, float, float)" {
	style="dashed";
	color="black";
	label="camera::camera(vec3, vec3, vec3, float, float) ()";
	fn_2096_basic_block_0 [shape=Mdiamond,style=filled,fillcolor=white,label="ENTRY"];

	fn_2096_basic_block_1 [shape=Mdiamond,style=filled,fillcolor=white,label="EXIT"];

	fn_2096_basic_block_2 [shape=record,style=filled,fillcolor=lightgrey,label="{ FREQ:0 |\<bb\ 2\>:\l\
|MEM[(struct\ \ &)this_15(D)]\ =\{v\}\ \{CLOBBER\};\l\
|_1\ =\ &this_15(D)-\>lower_left_corner;\l\
|vec3::vec3\ (_1);\l\
|_2\ =\ &this_15(D)-\>horizontal;\l\
|vec3::vec3\ (_2);\l\
|_3\ =\ &this_15(D)-\>vertical;\l\
|vec3::vec3\ (_3);\l\
|_4\ =\ &this_15(D)-\>origin;\l\
|vec3::vec3\ (_4);\l\
|vec3::vec3\ (&u);\l\
|vec3::vec3\ (&v);\l\
|vec3::vec3\ (&w);\l\
|_5\ =\ (double)\ vfov_24(D);\l\
|_6\ =\ _5\ *\ 3.141592653589793115997963468544185161590576171875e+0;\l\
|_7\ =\ _6\ /\ 1.8e+2;\l\
|theta_25\ =\ (float)\ _7;\l\
|_8\ =\ theta_25\ /\ 2.0e+0;\l\
|half_height_27\ =\ std::tan\ (_8);\l\
|half_width_29\ =\ aspect_28(D)\ *\ half_height_27;\l\
|this_15(D)-\>origin\ =\ lookfrom;\l\
|D.52757\ =\ operator-\ (&lookfrom,\ &lookat);\l\
|w\ =\ unit_vector\ (D.52757);\l\
|D.52758\ =\ cross\ (&vup,\ &w);\l\
|u\ =\ unit_vector\ (D.52758);\l\
|D.52759\ =\ cross\ (&w,\ &u);\l\
|v\ =\ unit_vector\ (D.52759);\l\
|_9\ =\ -half_height_27;\l\
|_10\ =\ -half_width_29;\l\
|vec3::vec3\ (&D.47685,\ _10,\ _9,\ -1.0e+0);\l\
|this_15(D)-\>lower_left_corner\ =\ D.47685;\l\
|D.47685\ =\{v\}\ \{CLOBBER\};\l\
|D.47690\ =\ operator*\ (half_height_27,\ &v);\l\
|D.47689\ =\ operator*\ (half_width_29,\ &u);\l\
|_11\ =\ &this_15(D)-\>origin;\l\
|D.47688\ =\ operator-\ (_11,\ &D.47689);\l\
|D.47687\ =\ operator-\ (&D.47688,\ &D.47690);\l\
|this_15(D)-\>lower_left_corner\ =\ operator-\ (&D.47687,\ &w);\l\
|D.47687\ =\{v\}\ \{CLOBBER\};\l\
|D.47688\ =\{v\}\ \{CLOBBER\};\l\
|D.47689\ =\{v\}\ \{CLOBBER\};\l\
|D.47690\ =\{v\}\ \{CLOBBER\};\l\
|_12\ =\ half_width_29\ *\ 2.0e+0;\l\
|this_15(D)-\>horizontal\ =\ operator*\ (_12,\ &u);\l\
|_13\ =\ half_height_27\ *\ 2.0e+0;\l\
|this_15(D)-\>vertical\ =\ operator*\ (_13,\ &v);\l\
|u\ =\{v\}\ \{CLOBBER\};\l\
|v\ =\{v\}\ \{CLOBBER\};\l\
|w\ =\{v\}\ \{CLOBBER\};\l\
|return;\l\
}"];

	fn_2096_basic_block_0:s -> fn_2096_basic_block_2:n [style="solid,bold",color=blue,weight=100,constraint=true, label="[0%]"];
	fn_2096_basic_block_2:s -> fn_2096_basic_block_1:n [style="solid,bold",color=black,weight=10,constraint=true, label="[0%]"];
	fn_2096_basic_block_0:s -> fn_2096_basic_block_1:n [style="invis",constraint=true];
}
subgraph "cluster_ray camera::get_ray(float, float)" {
	style="dashed";
	color="black";
	label="ray camera::get_ray(float, float) ()";
	fn_2098_basic_block_0 [shape=Mdiamond,style=filled,fillcolor=white,label="ENTRY"];

	fn_2098_basic_block_1 [shape=Mdiamond,style=filled,fillcolor=white,label="EXIT"];

	fn_2098_basic_block_2 [shape=record,style=filled,fillcolor=lightgrey,label="{ FREQ:0 |\<bb\ 2\>:\l\
|_1\ =\ &this_6(D)-\>origin;\l\
|_2\ =\ &this_6(D)-\>vertical;\l\
|D.47697\ =\ operator*\ (t_8(D),\ _2);\l\
|_3\ =\ &this_6(D)-\>horizontal;\l\
|D.47695\ =\ operator*\ (s_10(D),\ _3);\l\
|_4\ =\ &this_6(D)-\>lower_left_corner;\l\
|D.47696\ =\ operator+\ (_4,\ &D.47695);\l\
|D.47698\ =\ operator+\ (&D.47696,\ &D.47697);\l\
|D.47699\ =\ operator-\ (&D.47698,\ _1);\l\
|_5\ =\ &this_6(D)-\>origin;\l\
|ray::ray\ (&\<retval\>,\ _5,\ &D.47699);\l\
|D.47699\ =\{v\}\ \{CLOBBER\};\l\
|D.47698\ =\{v\}\ \{CLOBBER\};\l\
|D.47696\ =\{v\}\ \{CLOBBER\};\l\
|D.47695\ =\{v\}\ \{CLOBBER\};\l\
|D.47697\ =\{v\}\ \{CLOBBER\};\l\
}"];

	fn_2098_basic_block_3 [shape=record,style=filled,fillcolor=lightgrey,label="{ FREQ:0 |\<bb\ 3\>:\l\
|\<L5\>\ [0.00%]:\l\
|return\ \<retval\>;\l\
}"];

	fn_2098_basic_block_0:s -> fn_2098_basic_block_2:n [style="solid,bold",color=blue,weight=100,constraint=true, label="[0%]"];
	fn_2098_basic_block_2:s -> fn_2098_basic_block_3:n [style="solid,bold",color=blue,weight=100,constraint=true, label="[0%]"];
	fn_2098_basic_block_3:s -> fn_2098_basic_block_1:n [style="solid,bold",color=black,weight=10,constraint=true, label="[0%]"];
	fn_2098_basic_block_0:s -> fn_2098_basic_block_1:n [style="invis",constraint=true];
}
subgraph "cluster_vec3 random_in_unit_sphere()" {
	style="dashed";
	color="black";
	label="vec3 random_in_unit_sphere() ()";
	subgraph cluster_2116_1 {
	style="filled";
	color="darkgreen";
	fillcolor="grey88";
	label="loop 1";
	labeljust=l;
	penwidth=2;
	fn_2116_basic_block_3 [shape=record,style=filled,fillcolor=lightgrey,label="{ FREQ:0 |\<bb\ 3\>:\l\
|vec3::vec3\ (&D.47859,\ 1.0e+0,\ 1.0e+0,\ 1.0e+0);\l\
|_1\ =\ drand48\ ();\l\
|_2\ =\ (float)\ _1;\l\
|_3\ =\ drand48\ ();\l\
|_4\ =\ (float)\ _3;\l\
|_5\ =\ drand48\ ();\l\
|_6\ =\ (float)\ _5;\l\
|vec3::vec3\ (&D.47857,\ _6,\ _4,\ _2);\l\
|D.47858\ =\ operator*\ (2.0e+0,\ &D.47857);\l\
|p\ =\ operator-\ (&D.47858,\ &D.47859);\l\
|D.47858\ =\{v\}\ \{CLOBBER\};\l\
|D.47857\ =\{v\}\ \{CLOBBER\};\l\
|D.47859\ =\{v\}\ \{CLOBBER\};\l\
|_7\ =\ dot\ (&p,\ &p);\l\
|retval.1_22\ =\ _7\ \>=\ 1.0e+0;\l\
|if\ (retval.1_22\ !=\ 0)\l\
\ \ goto\ \<bb\ 4\>;\ [0.00%]\l\
else\l\
\ \ goto\ \<bb\ 5\>;\ [0.00%]\l\
}"];

	fn_2116_basic_block_4 [shape=record,style=filled,fillcolor=lightgrey,label="{ FREQ:0 |\<bb\ 4\>:\l\
goto\ \<bb\ 3\>;\ [0.00%]\l\
}"];

	}
	fn_2116_basic_block_0 [shape=Mdiamond,style=filled,fillcolor=white,label="ENTRY"];

	fn_2116_basic_block_1 [shape=Mdiamond,style=filled,fillcolor=white,label="EXIT"];

	fn_2116_basic_block_2 [shape=record,style=filled,fillcolor=lightgrey,label="{ FREQ:0 |\<bb\ 2\>:\l\
|vec3::vec3\ (&p);\l\
}"];

	fn_2116_basic_block_5 [shape=record,style=filled,fillcolor=lightgrey,label="{ FREQ:0 |\<bb\ 5\>:\l\
|D.52650\ =\ p;\l\
|p\ =\{v\}\ \{CLOBBER\};\l\
}"];

	fn_2116_basic_block_6 [shape=record,style=filled,fillcolor=lightgrey,label="{ FREQ:0 |\<bb\ 6\>:\l\
|\<L4\>\ [0.00%]:\l\
|return\ D.52650;\l\
}"];

	fn_2116_basic_block_0:s -> fn_2116_basic_block_2:n [style="solid,bold",color=blue,weight=100,constraint=true, label="[0%]"];
	fn_2116_basic_block_2:s -> fn_2116_basic_block_3:n [style="solid,bold",color=blue,weight=100,constraint=true, label="[0%]"];
	fn_2116_basic_block_3:s -> fn_2116_basic_block_4:n [style="solid,bold",color=black,weight=10,constraint=true, label="[0%]"];
	fn_2116_basic_block_3:s -> fn_2116_basic_block_5:n [style="solid,bold",color=black,weight=10,constraint=true, label="[0%]"];
	fn_2116_basic_block_4:s -> fn_2116_basic_block_3:n [style="dotted,bold",color=blue,weight=10,constraint=false, label="[0%]"];
	fn_2116_basic_block_5:s -> fn_2116_basic_block_6:n [style="solid,bold",color=blue,weight=100,constraint=true, label="[0%]"];
	fn_2116_basic_block_6:s -> fn_2116_basic_block_1:n [style="solid,bold",color=black,weight=10,constraint=true, label="[0%]"];
	fn_2116_basic_block_0:s -> fn_2116_basic_block_1:n [style="invis",constraint=true];
}
subgraph "cluster_vec3 reflect(const vec3&, const vec3&)" {
	style="dashed";
	color="black";
	label="vec3 reflect(const vec3&, const vec3&) ()";
	fn_2117_basic_block_0 [shape=Mdiamond,style=filled,fillcolor=white,label="ENTRY"];

	fn_2117_basic_block_1 [shape=Mdiamond,style=filled,fillcolor=white,label="EXIT"];

	fn_2117_basic_block_2 [shape=record,style=filled,fillcolor=lightgrey,label="{ FREQ:0 |\<bb\ 2\>:\l\
|_1\ =\ dot\ (v_4(D),\ n_5(D));\l\
|_2\ =\ _1\ *\ 2.0e+0;\l\
|D.47868\ =\ operator*\ (_2,\ n_5(D));\l\
|D.52653\ =\ operator-\ (v_4(D),\ &D.47868);\l\
|D.47868\ =\{v\}\ \{CLOBBER\};\l\
}"];

	fn_2117_basic_block_3 [shape=record,style=filled,fillcolor=lightgrey,label="{ FREQ:0 |\<bb\ 3\>:\l\
|\<L1\>\ [0.00%]:\l\
|return\ D.52653;\l\
}"];

	fn_2117_basic_block_0:s -> fn_2117_basic_block_2:n [style="solid,bold",color=blue,weight=100,constraint=true, label="[0%]"];
	fn_2117_basic_block_2:s -> fn_2117_basic_block_3:n [style="solid,bold",color=blue,weight=100,constraint=true, label="[0%]"];
	fn_2117_basic_block_3:s -> fn_2117_basic_block_1:n [style="solid,bold",color=black,weight=10,constraint=true, label="[0%]"];
	fn_2117_basic_block_0:s -> fn_2117_basic_block_1:n [style="invis",constraint=true];
}
subgraph "cluster_bool refract(const vec3&, const vec3&, float, vec3&)" {
	style="dashed";
	color="black";
	label="bool refract(const vec3&, const vec3&, float, vec3&) ()";
	fn_2119_basic_block_0 [shape=Mdiamond,style=filled,fillcolor=white,label="ENTRY"];

	fn_2119_basic_block_1 [shape=Mdiamond,style=filled,fillcolor=white,label="EXIT"];

	fn_2119_basic_block_2 [shape=record,style=filled,fillcolor=lightgrey,label="{ FREQ:0 |\<bb\ 2\>:\l\
|uv\ =\ unit_vector\ (*v_9(D));\l\
|dt_13\ =\ dot\ (&uv,\ n_11(D));\l\
|_1\ =\ ni_over_nt_14(D)\ *\ ni_over_nt_14(D);\l\
|_2\ =\ dt_13\ *\ dt_13;\l\
|_3\ =\ 1.0e+0\ -\ _2;\l\
|_4\ =\ _1\ *\ _3;\l\
|discriminant_15\ =\ 1.0e+0\ -\ _4;\l\
|if\ (discriminant_15\ \>\ 0.0)\l\
\ \ goto\ \<bb\ 3\>;\ [0.00%]\l\
else\l\
\ \ goto\ \<bb\ 4\>;\ [0.00%]\l\
}"];

	fn_2119_basic_block_3 [shape=record,style=filled,fillcolor=lightgrey,label="{ FREQ:0 |\<bb\ 3\>:\l\
|_5\ =\ std::sqrt\ (discriminant_15);\l\
|D.47900\ =\ operator*\ (n_11(D),\ _5);\l\
|D.47897\ =\ operator*\ (n_11(D),\ dt_13);\l\
|D.47898\ =\ operator-\ (&uv,\ &D.47897);\l\
|D.47899\ =\ operator*\ (ni_over_nt_14(D),\ &D.47898);\l\
|*refracted_22(D)\ =\ operator-\ (&D.47899,\ &D.47900);\l\
|D.47899\ =\{v\}\ \{CLOBBER\};\l\
|D.47898\ =\{v\}\ \{CLOBBER\};\l\
|D.47897\ =\{v\}\ \{CLOBBER\};\l\
|D.47900\ =\{v\}\ \{CLOBBER\};\l\
|_28\ =\ 1;\l\
goto\ \<bb\ 5\>;\ [0.00%]\l\
}"];

	fn_2119_basic_block_4 [shape=record,style=filled,fillcolor=lightgrey,label="{ FREQ:0 |\<bb\ 4\>:\l\
|_16\ =\ 0;\l\
}"];

	fn_2119_basic_block_5 [shape=record,style=filled,fillcolor=lightgrey,label="{ FREQ:0 |\<bb\ 5\>:\l\
|#\ _6\ =\ PHI\ \<_28(3),\ _16(4)\>\l\
|uv\ =\{v\}\ \{CLOBBER\};\l\
}"];

	fn_2119_basic_block_6 [shape=record,style=filled,fillcolor=lightgrey,label="{ FREQ:0 |\<bb\ 6\>:\l\
|\<L3\>\ [0.00%]:\l\
|return\ _6;\l\
}"];

	fn_2119_basic_block_0:s -> fn_2119_basic_block_2:n [style="solid,bold",color=blue,weight=100,constraint=true, label="[0%]"];
	fn_2119_basic_block_2:s -> fn_2119_basic_block_3:n [style="solid,bold",color=black,weight=10,constraint=true, label="[0%]"];
	fn_2119_basic_block_2:s -> fn_2119_basic_block_4:n [style="solid,bold",color=black,weight=10,constraint=true, label="[0%]"];
	fn_2119_basic_block_3:s -> fn_2119_basic_block_5:n [style="solid,bold",color=blue,weight=100,constraint=true, label="[0%]"];
	fn_2119_basic_block_4:s -> fn_2119_basic_block_5:n [style="solid,bold",color=blue,weight=100,constraint=true, label="[0%]"];
	fn_2119_basic_block_5:s -> fn_2119_basic_block_6:n [style="solid,bold",color=blue,weight=100,constraint=true, label="[0%]"];
	fn_2119_basic_block_6:s -> fn_2119_basic_block_1:n [style="solid,bold",color=black,weight=10,constraint=true, label="[0%]"];
	fn_2119_basic_block_0:s -> fn_2119_basic_block_1:n [style="invis",constraint=true];
}
subgraph "cluster_virtual bool lambertian::scatter(const ray&, const hit_record&, vec3&, ray&) const" {
	style="dashed";
	color="black";
	label="virtual bool lambertian::scatter(const ray&, const hit_record&, vec3&, ray&) const ()";
	fn_2126_basic_block_0 [shape=Mdiamond,style=filled,fillcolor=white,label="ENTRY"];

	fn_2126_basic_block_1 [shape=Mdiamond,style=filled,fillcolor=white,label="EXIT"];

	fn_2126_basic_block_2 [shape=record,style=filled,fillcolor=lightgrey,label="{ FREQ:0 |\<bb\ 2\>:\l\
|D.47978\ =\ random_in_unit_sphere\ ();\l\
|_1\ =\ &rec_13(D)-\>normal;\l\
|_2\ =\ &rec_13(D)-\>p;\l\
|D.47977\ =\ operator+\ (_2,\ _1);\l\
|target\ =\ operator+\ (&D.47977,\ &D.47978);\l\
|D.47977\ =\{v\}\ \{CLOBBER\};\l\
|D.47978\ =\{v\}\ \{CLOBBER\};\l\
|_3\ =\ &rec_13(D)-\>p;\l\
|D.47980\ =\ operator-\ (&target,\ _3);\l\
|_4\ =\ &rec_13(D)-\>p;\l\
|ray::ray\ (&D.47981,\ _4,\ &D.47980);\l\
|*scattered_20(D)\ =\ D.47981;\l\
|D.47981\ =\{v\}\ \{CLOBBER\};\l\
|D.47980\ =\{v\}\ \{CLOBBER\};\l\
|_5\ =\ this_24(D)-\>albedo;\l\
|_6\ =\ this_24(D)-\>albedo;\l\
|_7\ =\ this_24(D)-\>albedo;\l\
|_8\ =\ _7-\>_vptr.texture;\l\
|_9\ =\ *_8;\l\
|_10\ =\ &rec_13(D)-\>p;\l\
|*attenuation_25(D)\ =\ OBJ_TYPE_REF(_9;(const\ struct\ texture)_6-\>0)\ (_5,\ 0.0,\ 0.0,\ _10);\l\
|_27\ =\ 1;\l\
|target\ =\{v\}\ \{CLOBBER\};\l\
}"];

	fn_2126_basic_block_3 [shape=record,style=filled,fillcolor=lightgrey,label="{ FREQ:0 |\<bb\ 3\>:\l\
|\<L1\>\ [0.00%]:\l\
|return\ _27;\l\
}"];

	fn_2126_basic_block_0:s -> fn_2126_basic_block_2:n [style="solid,bold",color=blue,weight=100,constraint=true, label="[0%]"];
	fn_2126_basic_block_2:s -> fn_2126_basic_block_3:n [style="solid,bold",color=blue,weight=100,constraint=true, label="[0%]"];
	fn_2126_basic_block_3:s -> fn_2126_basic_block_1:n [style="solid,bold",color=black,weight=10,constraint=true, label="[0%]"];
	fn_2126_basic_block_0:s -> fn_2126_basic_block_1:n [style="invis",constraint=true];
}
subgraph "cluster_vec3 color(const ray&, hitable*, int)" {
	style="dashed";
	color="black";
	label="vec3 color(const ray&, hitable*, int) ()";
	fn_2135_basic_block_0 [shape=Mdiamond,style=filled,fillcolor=white,label="ENTRY"];

	fn_2135_basic_block_1 [shape=Mdiamond,style=filled,fillcolor=white,label="EXIT"];

	fn_2135_basic_block_2 [shape=record,style=filled,fillcolor=lightgrey,label="{ FREQ:0 |\<bb\ 2\>:\l\
|hit_record::hit_record\ (&rec);\l\
|_1\ =\ world_24(D)-\>_vptr.hitable;\l\
|_2\ =\ *_1;\l\
|_27\ =\ OBJ_TYPE_REF(_2;(const\ struct\ hitable)world_24(D)-\>0)\ (world_24(D),\ r_25(D),\ 1.000000047497451305389404296875e-3,\ 3.4028234663852885981170418348451692544e+38,\ &rec);\l\
|retval.2_28\ =\ _27;\l\
|if\ (retval.2_28\ !=\ 0)\l\
\ \ goto\ \<bb\ 3\>;\ [0.00%]\l\
else\l\
\ \ goto\ \<bb\ 11\>;\ [0.00%]\l\
}"];

	fn_2135_basic_block_3 [shape=record,style=filled,fillcolor=lightgrey,label="{ FREQ:0 |\<bb\ 3\>:\l\
|ray::ray\ (&scattered);\l\
|vec3::vec3\ (&attenuation);\l\
|if\ (depth_45(D)\ \<=\ 49)\l\
\ \ goto\ \<bb\ 4\>;\ [0.00%]\l\
else\l\
\ \ goto\ \<bb\ 6\>;\ [0.00%]\l\
}"];

	fn_2135_basic_block_4 [shape=record,style=filled,fillcolor=lightgrey,label="{ FREQ:0 |\<bb\ 4\>:\l\
|_3\ =\ rec.mat_ptr;\l\
|_4\ =\ rec.mat_ptr;\l\
|_5\ =\ rec.mat_ptr;\l\
|_6\ =\ _5-\>_vptr.material;\l\
|_7\ =\ *_6;\l\
|_47\ =\ OBJ_TYPE_REF(_7;(const\ struct\ material)_4-\>0)\ (_3,\ r_25(D),\ &rec,\ &attenuation,\ &scattered);\l\
|_8\ =\ _47;\l\
|if\ (_8\ !=\ 0)\l\
\ \ goto\ \<bb\ 5\>;\ [0.00%]\l\
else\l\
\ \ goto\ \<bb\ 6\>;\ [0.00%]\l\
}"];

	fn_2135_basic_block_5 [shape=record,style=filled,fillcolor=lightgrey,label="{ FREQ:0 |\<bb\ 5\>:\l\
|iftmp.4_48\ =\ 1;\l\
goto\ \<bb\ 7\>;\ [0.00%]\l\
}"];

	fn_2135_basic_block_6 [shape=record,style=filled,fillcolor=lightgrey,label="{ FREQ:0 |\<bb\ 6\>:\l\
|iftmp.4_49\ =\ 0;\l\
}"];

	fn_2135_basic_block_7 [shape=record,style=filled,fillcolor=lightgrey,label="{ FREQ:0 |\<bb\ 7\>:\l\
|#\ iftmp.4_15\ =\ PHI\ \<iftmp.4_48(5),\ iftmp.4_49(6)\>\l\
|retval.3_50\ =\ iftmp.4_15;\l\
|if\ (retval.3_50\ !=\ 0)\l\
\ \ goto\ \<bb\ 8\>;\ [0.00%]\l\
else\l\
\ \ goto\ \<bb\ 9\>;\ [0.00%]\l\
}"];

	fn_2135_basic_block_8 [shape=record,style=filled,fillcolor=lightgrey,label="{ FREQ:0 |\<bb\ 8\>:\l\
|_9\ =\ depth_45(D)\ +\ 1;\l\
|D.48084\ =\ color\ (&scattered,\ world_24(D),\ _9);\l\
|D.52683\ =\ operator*\ (&attenuation,\ &D.48084);\l\
|D.48084\ =\{v\}\ \{CLOBBER\};\l\
goto\ \<bb\ 10\>;\ [0.00%]\l\
}"];

	fn_2135_basic_block_9 [shape=record,style=filled,fillcolor=lightgrey,label="{ FREQ:0 |\<bb\ 9\>:\l\
|vec3::vec3\ (&D.48086,\ 0.0,\ 0.0,\ 0.0);\l\
|D.52683\ =\ D.48086;\l\
|D.48086\ =\{v\}\ \{CLOBBER\};\l\
}"];

	fn_2135_basic_block_10 [shape=record,style=filled,fillcolor=lightgrey,label="{ FREQ:0 |\<bb\ 10\>:\l\
|scattered\ =\{v\}\ \{CLOBBER\};\l\
|attenuation\ =\{v\}\ \{CLOBBER\};\l\
goto\ \<bb\ 12\>;\ [0.00%]\l\
}"];

	fn_2135_basic_block_11 [shape=record,style=filled,fillcolor=lightgrey,label="{ FREQ:0 |\<bb\ 11\>:\l\
|D.52684\ =\ ray::direction\ (r_25(D));\l\
|unit_direction\ =\ unit_vector\ (D.52684);\l\
|_10\ =\ vec3::y\ (&unit_direction);\l\
|_11\ =\ (double)\ _10;\l\
|_12\ =\ _11\ +\ 1.0e+0;\l\
|_13\ =\ _12\ *\ 5.0e-1;\l\
|t_32\ =\ (float)\ _13;\l\
|vec3::vec3\ (&D.48093,\ 5.0e-1,\ 6.99999988079071044921875e-1,\ 1.0e+0);\l\
|D.48094\ =\ operator*\ (t_32,\ &D.48093);\l\
|vec3::vec3\ (&D.48091,\ 1.0e+0,\ 1.0e+0,\ 1.0e+0);\l\
|_14\ =\ 1.0e+0\ -\ t_32;\l\
|D.48092\ =\ operator*\ (_14,\ &D.48091);\l\
|D.52683\ =\ operator+\ (&D.48092,\ &D.48094);\l\
|D.48092\ =\{v\}\ \{CLOBBER\};\l\
|D.48091\ =\{v\}\ \{CLOBBER\};\l\
|D.48094\ =\{v\}\ \{CLOBBER\};\l\
|D.48093\ =\{v\}\ \{CLOBBER\};\l\
|unit_direction\ =\{v\}\ \{CLOBBER\};\l\
}"];

	fn_2135_basic_block_12 [shape=record,style=filled,fillcolor=lightgrey,label="{ FREQ:0 |\<bb\ 12\>:\l\
|rec\ =\{v\}\ \{CLOBBER\};\l\
}"];

	fn_2135_basic_block_13 [shape=record,style=filled,fillcolor=lightgrey,label="{ FREQ:0 |\<bb\ 13\>:\l\
|\<L17\>\ [0.00%]:\l\
|return\ D.52683;\l\
}"];

	fn_2135_basic_block_0:s -> fn_2135_basic_block_2:n [style="solid,bold",color=blue,weight=100,constraint=true, label="[0%]"];
	fn_2135_basic_block_2:s -> fn_2135_basic_block_3:n [style="solid,bold",color=black,weight=10,constraint=true, label="[0%]"];
	fn_2135_basic_block_2:s -> fn_2135_basic_block_11:n [style="solid,bold",color=black,weight=10,constraint=true, label="[0%]"];
	fn_2135_basic_block_3:s -> fn_2135_basic_block_4:n [style="solid,bold",color=black,weight=10,constraint=true, label="[0%]"];
	fn_2135_basic_block_3:s -> fn_2135_basic_block_6:n [style="solid,bold",color=black,weight=10,constraint=true, label="[0%]"];
	fn_2135_basic_block_4:s -> fn_2135_basic_block_5:n [style="solid,bold",color=black,weight=10,constraint=true, label="[0%]"];
	fn_2135_basic_block_4:s -> fn_2135_basic_block_6:n [style="solid,bold",color=black,weight=10,constraint=true, label="[0%]"];
	fn_2135_basic_block_5:s -> fn_2135_basic_block_7:n [style="solid,bold",color=blue,weight=100,constraint=true, label="[0%]"];
	fn_2135_basic_block_6:s -> fn_2135_basic_block_7:n [style="solid,bold",color=blue,weight=100,constraint=true, label="[0%]"];
	fn_2135_basic_block_7:s -> fn_2135_basic_block_8:n [style="solid,bold",color=black,weight=10,constraint=true, label="[0%]"];
	fn_2135_basic_block_7:s -> fn_2135_basic_block_9:n [style="solid,bold",color=black,weight=10,constraint=true, label="[0%]"];
	fn_2135_basic_block_8:s -> fn_2135_basic_block_10:n [style="solid,bold",color=blue,weight=100,constraint=true, label="[0%]"];
	fn_2135_basic_block_9:s -> fn_2135_basic_block_10:n [style="solid,bold",color=blue,weight=100,constraint=true, label="[0%]"];
	fn_2135_basic_block_10:s -> fn_2135_basic_block_12:n [style="solid,bold",color=blue,weight=100,constraint=true, label="[0%]"];
	fn_2135_basic_block_11:s -> fn_2135_basic_block_12:n [style="solid,bold",color=blue,weight=100,constraint=true, label="[0%]"];
	fn_2135_basic_block_12:s -> fn_2135_basic_block_13:n [style="solid,bold",color=blue,weight=100,constraint=true, label="[0%]"];
	fn_2135_basic_block_13:s -> fn_2135_basic_block_1:n [style="solid,bold",color=black,weight=10,constraint=true, label="[0%]"];
	fn_2135_basic_block_0:s -> fn_2135_basic_block_1:n [style="invis",constraint=true];
}
subgraph "cluster_hitable* two_spheres()" {
	style="dashed";
	color="black";
	label="hitable* two_spheres() ()";
	fn_2136_basic_block_0 [shape=Mdiamond,style=filled,fillcolor=white,label="ENTRY"];

	fn_2136_basic_block_1 [shape=Mdiamond,style=filled,fillcolor=white,label="EXIT"];

	fn_2136_basic_block_2 [shape=record,style=filled,fillcolor=lightgrey,label="{ FREQ:0 |\<bb\ 2\>:\l\
|vec3::vec3\ (&D.48099,\ 2.0000000298023223876953125e-1,\ 3.00000011920928955078125e-1,\ 1.00000001490116119384765625e-1);\l\
|_9\ =\ operator\ new\ (24);\l\
|_10\ =\ _9;\l\
|constant_texture::constant_texture\ (_10,\ D.48099);\l\
|_12\ =\ _10;\l\
|vec3::vec3\ (&D.48119,\ 8.9999997615814208984375e-1,\ 8.9999997615814208984375e-1,\ 8.9999997615814208984375e-1);\l\
|_15\ =\ operator\ new\ (24);\l\
|_16\ =\ _15;\l\
|constant_texture::constant_texture\ (_16,\ D.48119);\l\
|_18\ =\ _16;\l\
|_20\ =\ operator\ new\ (24);\l\
|_21\ =\ _20;\l\
|checker_texture::checker_texture\ (_21,\ _12,\ _18);\l\
|checker_23\ =\ _21;\l\
|D.48119\ =\{v\}\ \{CLOBBER\};\l\
|D.48099\ =\{v\}\ \{CLOBBER\};\l\
|_27\ =\ operator\ new\ []\ (16);\l\
|list_28\ =\ _27;\l\
|vec3::vec3\ (&D.48143,\ 0.0,\ -1.0e+1,\ 0.0);\l\
|_31\ =\ operator\ new\ (16);\l\
|_32\ =\ _31;\l\
|lambertian::lambertian\ (_32,\ checker_23);\l\
|_34\ =\ _32;\l\
|_36\ =\ operator\ new\ (32);\l\
|_37\ =\ _36;\l\
|sphere::sphere\ (_37,\ D.48143,\ 1.0e+1,\ _34);\l\
|*list_28\ =\ _37;\l\
|D.48143\ =\{v\}\ \{CLOBBER\};\l\
|vec3::vec3\ (&D.48183,\ 0.0,\ 1.0e+1,\ 0.0);\l\
|_43\ =\ operator\ new\ (16);\l\
|_44\ =\ _43;\l\
|lambertian::lambertian\ (_44,\ checker_23);\l\
|_46\ =\ _44;\l\
|_48\ =\ operator\ new\ (32);\l\
|_49\ =\ _48;\l\
|sphere::sphere\ (_49,\ D.48183,\ 1.0e+1,\ _46);\l\
|_1\ =\ list_28\ +\ 8;\l\
|*_1\ =\ _49;\l\
|D.48183\ =\{v\}\ \{CLOBBER\};\l\
|_54\ =\ operator\ new\ (24);\l\
|_55\ =\ _54;\l\
|hitable_list::hitable_list\ (_55,\ list_28,\ 2);\l\
|_57\ =\ _55;\l\
}"];

	fn_2136_basic_block_3 [shape=record,style=filled,fillcolor=lightgrey,label="{ FREQ:0 |\<bb\ 3\>:\l\
|\<L0\>\ [0.00%]:\l\
|return\ _57;\l\
}"];

	fn_2136_basic_block_0:s -> fn_2136_basic_block_2:n [style="solid,bold",color=blue,weight=100,constraint=true, label="[0%]"];
	fn_2136_basic_block_2:s -> fn_2136_basic_block_3:n [style="solid,bold",color=blue,weight=100,constraint=true, label="[0%]"];
	fn_2136_basic_block_3:s -> fn_2136_basic_block_1:n [style="solid,bold",color=black,weight=10,constraint=true, label="[0%]"];
	fn_2136_basic_block_0:s -> fn_2136_basic_block_1:n [style="invis",constraint=true];
}
subgraph "cluster_constexpr typename std::common_type<std::chrono::duration<_Rep1, _Period1>, std::chrono::duration<_Rep2, _Period2> >::type std::chrono::operator-(const std::chrono::duration<_Rep1, _Period1>&, const std::chrono::duration<_Rep2, _Period2>&) [with _Rep1 = long int; _Period1 = std::ratio<1, 1000000000>; _Rep2 = long int; _Period2 = std::ratio<1, 1000000000>]" {
	style="dashed";
	color="black";
	label="constexpr typename std::common_type<std::chrono::duration<_Rep1, _Period1>, std::chrono::duration<_Rep2, _Period2> >::type std::chrono::operator-(const std::chrono::duration<_Rep1, _Period1>&, const std::chrono::duration<_Rep2, _Period2>&) [with _Rep1 = long int; _Period1 = std::ratio<1, 1000000000>; _Rep2 = long int; _Period2 = std::ratio<1, 1000000000>] ()";
	fn_2139_basic_block_0 [shape=Mdiamond,style=filled,fillcolor=white,label="ENTRY"];

	fn_2139_basic_block_1 [shape=Mdiamond,style=filled,fillcolor=white,label="EXIT"];

	fn_2139_basic_block_2 [shape=record,style=filled,fillcolor=lightgrey,label="{ FREQ:0 |\<bb\ 2\>:\l\
|D.48569\ =\ *__lhs_5(D);\l\
|_1\ =\ std::chrono::duration\<long\ int,\ std::ratio\<1,\ 1000000000\>\ \>::count\ (&D.48569);\l\
|D.48570\ =\ *__rhs_8(D);\l\
|_2\ =\ std::chrono::duration\<long\ int,\ std::ratio\<1,\ 1000000000\>\ \>::count\ (&D.48570);\l\
|_3\ =\ _1\ -\ _2;\l\
|D.48571\ =\ _3;\l\
|std::chrono::duration\<long\ int,\ std::ratio\<1,\ 1000000000\>\ \>::duration\<long\ int\>\ (&D.48572,\ &D.48571);\l\
|D.52784\ =\ D.48572;\l\
|D.48572\ =\{v\}\ \{CLOBBER\};\l\
|D.48571\ =\{v\}\ \{CLOBBER\};\l\
|D.48570\ =\{v\}\ \{CLOBBER\};\l\
|D.48569\ =\{v\}\ \{CLOBBER\};\l\
}"];

	fn_2139_basic_block_3 [shape=record,style=filled,fillcolor=lightgrey,label="{ FREQ:0 |\<bb\ 3\>:\l\
|\<L4\>\ [0.00%]:\l\
|return\ D.52784;\l\
}"];

	fn_2139_basic_block_0:s -> fn_2139_basic_block_2:n [style="solid,bold",color=blue,weight=100,constraint=true, label="[0%]"];
	fn_2139_basic_block_2:s -> fn_2139_basic_block_3:n [style="solid,bold",color=blue,weight=100,constraint=true, label="[0%]"];
	fn_2139_basic_block_3:s -> fn_2139_basic_block_1:n [style="solid,bold",color=black,weight=10,constraint=true, label="[0%]"];
	fn_2139_basic_block_0:s -> fn_2139_basic_block_1:n [style="invis",constraint=true];
}
subgraph "cluster_constexpr typename std::common_type<_Duration1, _Duration2>::type std::chrono::operator-(const std::chrono::time_point<_Clock, _Duration1>&, const std::chrono::time_point<_Clock, _Duration2>&) [with _Clock = std::chrono::_V2::system_clock; _Dur1 = std::chrono::duration<long int, std::ratio<1, 1000000000> >; _Dur2 = std::chrono::duration<long int, std::ratio<1, 1000000000> >]" {
	style="dashed";
	color="black";
	label="constexpr typename std::common_type<_Duration1, _Duration2>::type std::chrono::operator-(const std::chrono::time_point<_Clock, _Duration1>&, const std::chrono::time_point<_Clock, _Duration2>&) [with _Clock = std::chrono::_V2::system_clock; _Dur1 = std::chrono::duration<long int, std::ratio<1, 1000000000> >; _Dur2 = std::chrono::duration<long int, std::ratio<1, 1000000000> >] ()";
	fn_2138_basic_block_0 [shape=Mdiamond,style=filled,fillcolor=white,label="ENTRY"];

	fn_2138_basic_block_1 [shape=Mdiamond,style=filled,fillcolor=white,label="EXIT"];

	fn_2138_basic_block_2 [shape=record,style=filled,fillcolor=lightgrey,label="{ FREQ:0 |\<bb\ 2\>:\l\
|D.48560\ =\ std::chrono::time_point\<std::chrono::_V2::system_clock,\ std::chrono::duration\<long\ int,\ std::ratio\<1,\ 1000000000\>\ \>\ \>::time_since_epoch\ (__rhs_2(D));\l\
|D.48559\ =\ std::chrono::time_point\<std::chrono::_V2::system_clock,\ std::chrono::duration\<long\ int,\ std::ratio\<1,\ 1000000000\>\ \>\ \>::time_since_epoch\ (__lhs_4(D));\l\
|D.52778\ =\ std::chrono::operator-\<long\ int,\ std::ratio\<1,\ 1000000000\>,\ long\ int,\ std::ratio\<1,\ 1000000000\>\ \>\ (&D.48559,\ &D.48560);\l\
|D.48559\ =\{v\}\ \{CLOBBER\};\l\
|D.48560\ =\{v\}\ \{CLOBBER\};\l\
}"];

	fn_2138_basic_block_3 [shape=record,style=filled,fillcolor=lightgrey,label="{ FREQ:0 |\<bb\ 3\>:\l\
|\<L2\>\ [0.00%]:\l\
|return\ D.52778;\l\
}"];

	fn_2138_basic_block_0:s -> fn_2138_basic_block_2:n [style="solid,bold",color=blue,weight=100,constraint=true, label="[0%]"];
	fn_2138_basic_block_2:s -> fn_2138_basic_block_3:n [style="solid,bold",color=blue,weight=100,constraint=true, label="[0%]"];
	fn_2138_basic_block_3:s -> fn_2138_basic_block_1:n [style="solid,bold",color=black,weight=10,constraint=true, label="[0%]"];
	fn_2138_basic_block_0:s -> fn_2138_basic_block_1:n [style="invis",constraint=true];
}
subgraph "cluster_static constexpr _ToDur std::chrono::__duration_cast_impl<_ToDur, _CF, _CR, true, false>::__cast(const std::chrono::duration<_Rep, _Period>&) [with _Rep = long int; _Period = std::ratio<1, 1000000000>; _ToDur = std::chrono::duration<double, std::ratio<1, 1000> >; _CF = std::ratio<1, 1000000>; _CR = double]" {
	style="dashed";
	color="black";
	label="static constexpr _ToDur std::chrono::__duration_cast_impl<_ToDur, _CF, _CR, true, false>::__cast(const std::chrono::duration<_Rep, _Period>&) [with _Rep = long int; _Period = std::ratio<1, 1000000000>; _ToDur = std::chrono::duration<double, std::ratio<1, 1000> >; _CF = std::ratio<1, 1000000>; _CR = double] ()";
	fn_2142_basic_block_0 [shape=Mdiamond,style=filled,fillcolor=white,label="ENTRY"];

	fn_2142_basic_block_1 [shape=Mdiamond,style=filled,fillcolor=white,label="EXIT"];

	fn_2142_basic_block_2 [shape=record,style=filled,fillcolor=lightgrey,label="{ FREQ:0 |\<bb\ 2\>:\l\
|_1\ =\ std::chrono::duration\<long\ int,\ std::ratio\<1,\ 1000000000\>\ \>::count\ (__d_5(D));\l\
|_2\ =\ (double)\ _1;\l\
|_3\ =\ _2\ /\ 1.0e+6;\l\
|D.48821\ =\ _3;\l\
|std::chrono::duration\<double,\ std::ratio\<1,\ 1000\>\ \>::duration\<double\>\ (&D.48822,\ &D.48821);\l\
|D.52794\ =\ D.48822;\l\
|D.48822\ =\{v\}\ \{CLOBBER\};\l\
|D.48821\ =\{v\}\ \{CLOBBER\};\l\
}"];

	fn_2142_basic_block_3 [shape=record,style=filled,fillcolor=lightgrey,label="{ FREQ:0 |\<bb\ 3\>:\l\
|\<L2\>\ [0.00%]:\l\
|return\ D.52794;\l\
}"];

	fn_2142_basic_block_0:s -> fn_2142_basic_block_2:n [style="solid,bold",color=blue,weight=100,constraint=true, label="[0%]"];
	fn_2142_basic_block_2:s -> fn_2142_basic_block_3:n [style="solid,bold",color=blue,weight=100,constraint=true, label="[0%]"];
	fn_2142_basic_block_3:s -> fn_2142_basic_block_1:n [style="solid,bold",color=black,weight=10,constraint=true, label="[0%]"];
	fn_2142_basic_block_0:s -> fn_2142_basic_block_1:n [style="invis",constraint=true];
}
subgraph "cluster_constexpr std::chrono::duration<_Rep, _Period>::duration(const std::chrono::duration<_Rep, _Period>&) [with _Rep2 = long int; _Period2 = std::ratio<1, 1000000000>; <template-parameter-2-3> = void; _Rep = double; _Period = std::ratio<1, 1000>]" {
	style="dashed";
	color="black";
	label="constexpr std::chrono::duration<_Rep, _Period>::duration(const std::chrono::duration<_Rep, _Period>&) [with _Rep2 = long int; _Period2 = std::ratio<1, 1000000000>; <template-parameter-2-3> = void; _Rep = double; _Period = std::ratio<1, 1000>] ()";
	fn_2147_basic_block_0 [shape=Mdiamond,style=filled,fillcolor=white,label="ENTRY"];

	fn_2147_basic_block_1 [shape=Mdiamond,style=filled,fillcolor=white,label="EXIT"];

	fn_2147_basic_block_2 [shape=record,style=filled,fillcolor=lightgrey,label="{ FREQ:0 |\<bb\ 2\>:\l\
|MEM[(struct\ \ &)this_3(D)]\ =\{v\}\ \{CLOBBER\};\l\
|D.48830\ =\ std::chrono::duration_cast\<std::chrono::duration\<double,\ std::ratio\<1,\ 1000\>\ \>,\ long\ int,\ std::ratio\<1,\ 1000000000\>\ \>\ (__d_5(D));\l\
|_1\ =\ std::chrono::duration\<double,\ std::ratio\<1,\ 1000\>\ \>::count\ (&D.48830);\l\
|this_3(D)-\>__r\ =\ _1;\l\
|D.48830\ =\{v\}\ \{CLOBBER\};\l\
|return;\l\
}"];

	fn_2147_basic_block_0:s -> fn_2147_basic_block_2:n [style="solid,bold",color=blue,weight=100,constraint=true, label="[0%]"];
	fn_2147_basic_block_2:s -> fn_2147_basic_block_1:n [style="solid,bold",color=black,weight=10,constraint=true, label="[0%]"];
	fn_2147_basic_block_0:s -> fn_2147_basic_block_1:n [style="invis",constraint=true];
}
subgraph "cluster_int main()" {
	style="dashed";
	color="black";
	label="int main() ()";
	subgraph cluster_2137_1 {
	style="filled";
	color="darkgreen";
	fillcolor="grey88";
	label="loop 1";
	labeljust=l;
	penwidth=2;
	subgraph cluster_2137_2 {
	style="filled";
	color="darkgreen";
	fillcolor="grey77";
	label="loop 2";
	labeljust=l;
	penwidth=2;
	subgraph cluster_2137_3 {
	style="filled";
	color="darkgreen";
	fillcolor="grey66";
	label="loop 3";
	labeljust=l;
	penwidth=2;
	fn_2137_basic_block_7 [shape=record,style=filled,fillcolor=lightgrey,label="{ FREQ:0 |\<bb\ 7\>:\l\
|#\ s_49\ =\ PHI\ \<s_82(6),\ s_92(8)\>\l\
|if\ (s_49\ \>=\ ns_59)\l\
\ \ goto\ \<bb\ 9\>;\ [0.00%]\l\
else\l\
\ \ goto\ \<bb\ 8\>;\ [0.00%]\l\
}"];

	fn_2137_basic_block_8 [shape=record,style=filled,fillcolor=lightgrey,label="{ FREQ:0 |\<bb\ 8\>:\l\
|_8\ =\ (double)\ i_48;\l\
|_9\ =\ drand48\ ();\l\
|_10\ =\ _8\ +\ _9;\l\
|_11\ =\ (float)\ _10;\l\
|_12\ =\ (float)\ nx_57;\l\
|u_84\ =\ _11\ /\ _12;\l\
|_13\ =\ (double)\ j_47;\l\
|_14\ =\ drand48\ ();\l\
|_15\ =\ _13\ +\ _14;\l\
|_16\ =\ (float)\ _15;\l\
|_17\ =\ (float)\ ny_58;\l\
|v_86\ =\ _16\ /\ _17;\l\
|r\ =\ camera::get_ray\ (&cam,\ u_84,\ v_86);\ [return\ slot\ optimization]\l\
|D.48278\ =\ color\ (&r,\ world_71,\ 0);\l\
|vec3::operator+=\ (&col,\ &D.48278);\l\
|D.48278\ =\{v\}\ \{CLOBBER\};\l\
|r\ =\{v\}\ \{CLOBBER\};\l\
|s_92\ =\ s_49\ +\ 1;\l\
goto\ \<bb\ 7\>;\ [0.00%]\l\
}"];

	}
	fn_2137_basic_block_5 [shape=record,style=filled,fillcolor=lightgrey,label="{ FREQ:0 |\<bb\ 5\>:\l\
|#\ i_48\ =\ PHI\ \<i_80(4),\ i_122(9)\>\l\
|if\ (i_48\ \>=\ nx_57)\l\
\ \ goto\ \<bb\ 10\>;\ [0.00%]\l\
else\l\
\ \ goto\ \<bb\ 6\>;\ [0.00%]\l\
}"];

	fn_2137_basic_block_6 [shape=record,style=filled,fillcolor=lightgrey,label="{ FREQ:0 |\<bb\ 6\>:\l\
|vec3::vec3\ (&col,\ 0.0,\ 0.0,\ 0.0);\l\
|s_82\ =\ 0;\l\
}"];

	fn_2137_basic_block_9 [shape=record,style=filled,fillcolor=lightgrey,label="{ FREQ:0 |\<bb\ 9\>:\l\
|_18\ =\ (float)\ ns_59;\l\
|vec3::operator/=\ (&col,\ _18);\l\
|_19\ =\ vec3::operator[]\ (&col,\ 2);\l\
|_20\ =\ *_19;\l\
|_21\ =\ std::sqrt\ (_20);\l\
|_22\ =\ vec3::operator[]\ (&col,\ 1);\l\
|_23\ =\ *_22;\l\
|_24\ =\ std::sqrt\ (_23);\l\
|_25\ =\ vec3::operator[]\ (&col,\ 0);\l\
|_26\ =\ *_25;\l\
|_27\ =\ std::sqrt\ (_26);\l\
|vec3::vec3\ (&D.48279,\ _27,\ _24,\ _21);\l\
|col\ =\ D.48279;\l\
|D.48279\ =\{v\}\ \{CLOBBER\};\l\
|_28\ =\ vec3::operator[]\ (&col,\ 0);\l\
|_29\ =\ *_28;\l\
|_30\ =\ (double)\ _29;\l\
|_31\ =\ _30\ *\ 2.55990000000000009094947017729282379150390625e+2;\l\
|ir_105\ =\ (int)\ _31;\l\
|_32\ =\ vec3::operator[]\ (&col,\ 1);\l\
|_33\ =\ *_32;\l\
|_34\ =\ (double)\ _33;\l\
|_35\ =\ _34\ *\ 2.55990000000000009094947017729282379150390625e+2;\l\
|ig_107\ =\ (int)\ _35;\l\
|_36\ =\ vec3::operator[]\ (&col,\ 2);\l\
|_37\ =\ *_36;\l\
|_38\ =\ (double)\ _37;\l\
|_39\ =\ _38\ *\ 2.55990000000000009094947017729282379150390625e+2;\l\
|ib_109\ =\ (int)\ _39;\l\
|_111\ =\ std::basic_ostream\<char\>::operator\<\<\ (&cout,\ ir_105);\l\
|_40\ =\ _111;\l\
|_113\ =\ std::operator\<\<\ \<std::char_traits\<char\>\ \>\ (_40,\ \"\ \");\l\
|_41\ =\ _113;\l\
|_115\ =\ std::basic_ostream\<char\>::operator\<\<\ (_41,\ ig_107);\l\
|_42\ =\ _115;\l\
|_117\ =\ std::operator\<\<\ \<std::char_traits\<char\>\ \>\ (_42,\ \"\ \");\l\
|_43\ =\ _117;\l\
|_119\ =\ std::basic_ostream\<char\>::operator\<\<\ (_43,\ ib_109);\l\
|_44\ =\ _119;\l\
|std::operator\<\<\ \<std::char_traits\<char\>\ \>\ (_44,\ \"\\n\");\l\
|col\ =\{v\}\ \{CLOBBER\};\l\
|i_122\ =\ i_48\ +\ 1;\l\
goto\ \<bb\ 5\>;\ [0.00%]\l\
}"];

	}
	fn_2137_basic_block_3 [shape=record,style=filled,fillcolor=lightgrey,label="{ FREQ:0 |\<bb\ 3\>:\l\
|#\ j_47\ =\ PHI\ \<j_79(2),\ j_124(10)\>\l\
|if\ (j_47\ \<\ 0)\l\
\ \ goto\ \<bb\ 11\>;\ [0.00%]\l\
else\l\
\ \ goto\ \<bb\ 4\>;\ [0.00%]\l\
}"];

	fn_2137_basic_block_4 [shape=record,style=filled,fillcolor=lightgrey,label="{ FREQ:0 |\<bb\ 4\>:\l\
|i_80\ =\ 0;\l\
}"];

	fn_2137_basic_block_10 [shape=record,style=filled,fillcolor=lightgrey,label="{ FREQ:0 |\<bb\ 10\>:\l\
|j_124\ =\ j_47\ +\ -1;\l\
goto\ \<bb\ 3\>;\ [0.00%]\l\
}"];

	}
	fn_2137_basic_block_0 [shape=Mdiamond,style=filled,fillcolor=white,label="ENTRY"];

	fn_2137_basic_block_1 [shape=Mdiamond,style=filled,fillcolor=white,label="EXIT"];

	fn_2137_basic_block_2 [shape=record,style=filled,fillcolor=lightgrey,label="{ FREQ:0 |\<bb\ 2\>:\l\
|timeStart\ =\ std::chrono::_V2::system_clock::now\ ();\l\
|nx_57\ =\ 800;\l\
|ny_58\ =\ 400;\l\
|ns_59\ =\ 100;\l\
|_61\ =\ std::operator\<\<\ \<std::char_traits\<char\>\ \>\ (&cout,\ \"P3\\n\");\l\
|_1\ =\ _61;\l\
|_63\ =\ std::basic_ostream\<char\>::operator\<\<\ (_1,\ nx_57);\l\
|_2\ =\ _63;\l\
|_65\ =\ std::operator\<\<\ \<std::char_traits\<char\>\ \>\ (_2,\ \"\ \");\l\
|_3\ =\ _65;\l\
|_67\ =\ std::basic_ostream\<char\>::operator\<\<\ (_3,\ ny_58);\l\
|_4\ =\ _67;\l\
|std::operator\<\<\ \<std::char_traits\<char\>\ \>\ (_4,\ \"\\n255\\n\");\l\
|_70\ =\ two_spheres\ ();\l\
|world_71\ =\ _70;\l\
|_5\ =\ (float)\ nx_57;\l\
|_6\ =\ (float)\ ny_58;\l\
|_7\ =\ _5\ /\ _6;\l\
|vec3::vec3\ (&D.48242,\ 0.0,\ 1.0e+0,\ 0.0);\l\
|vec3::vec3\ (&D.48241,\ 0.0,\ 0.0,\ 0.0);\l\
|vec3::vec3\ (&D.48240,\ 1.3e+1,\ 2.0e+0,\ 3.0e+0);\l\
|camera::camera\ (&cam,\ D.48240,\ D.48241,\ D.48242,\ 2.0e+1,\ _7);\l\
|D.48240\ =\{v\}\ \{CLOBBER\};\l\
|D.48241\ =\{v\}\ \{CLOBBER\};\l\
|D.48242\ =\{v\}\ \{CLOBBER\};\l\
|j_79\ =\ ny_58\ +\ -1;\l\
}"];

	fn_2137_basic_block_11 [shape=record,style=filled,fillcolor=lightgrey,label="{ FREQ:0 |\<bb\ 11\>:\l\
|timeEnd\ =\ std::chrono::_V2::system_clock::now\ ();\l\
|D.48292\ =\ std::chrono::operator-\<std::chrono::_V2::system_clock,\ std::chrono::duration\<long\ int,\ std::ratio\<1,\ 1000000000\>\ \>,\ std::chrono::duration\<long\ int,\ std::ratio\<1,\ 1000000000\>\ \>\ \>\ (&timeEnd,\ &timeStart);\l\
|std::chrono::duration\<double,\ std::ratio\<1,\ 1000\>\ \>::duration\<long\ int,\ std::ratio\<1,\ 1000000000\>\ \>\ (&D.48573,\ &D.48292);\l\
|passedTime_129\ =\ std::chrono::duration\<double,\ std::ratio\<1,\ 1000\>\ \>::count\ (&D.48573);\l\
|D.48573\ =\{v\}\ \{CLOBBER\};\l\
|D.48292\ =\{v\}\ \{CLOBBER\};\l\
|_45\ =\ passedTime_129\ /\ 1.0e+3;\l\
|stderr.5_46\ =\ stderr;\l\
|fprintf\ (stderr.5_46,\ \"\\rDone:\ %.2f\ (sec)\\n\",\ _45);\l\
|timeStart\ =\{v\}\ \{CLOBBER\};\l\
|cam\ =\{v\}\ \{CLOBBER\};\l\
|timeEnd\ =\{v\}\ \{CLOBBER\};\l\
|_136\ =\ 0;\l\
}"];

	fn_2137_basic_block_12 [shape=record,style=filled,fillcolor=lightgrey,label="{ FREQ:0 |\<bb\ 12\>:\l\
|\<L9\>\ [0.00%]:\l\
|return\ _136;\l\
}"];

	fn_2137_basic_block_0:s -> fn_2137_basic_block_2:n [style="solid,bold",color=blue,weight=100,constraint=true, label="[0%]"];
	fn_2137_basic_block_2:s -> fn_2137_basic_block_3:n [style="solid,bold",color=blue,weight=100,constraint=true, label="[0%]"];
	fn_2137_basic_block_3:s -> fn_2137_basic_block_11:n [style="solid,bold",color=black,weight=10,constraint=true, label="[0%]"];
	fn_2137_basic_block_3:s -> fn_2137_basic_block_4:n [style="solid,bold",color=black,weight=10,constraint=true, label="[0%]"];
	fn_2137_basic_block_4:s -> fn_2137_basic_block_5:n [style="solid,bold",color=blue,weight=100,constraint=true, label="[0%]"];
	fn_2137_basic_block_5:s -> fn_2137_basic_block_10:n [style="solid,bold",color=black,weight=10,constraint=true, label="[0%]"];
	fn_2137_basic_block_5:s -> fn_2137_basic_block_6:n [style="solid,bold",color=black,weight=10,constraint=true, label="[0%]"];
	fn_2137_basic_block_6:s -> fn_2137_basic_block_7:n [style="solid,bold",color=blue,weight=100,constraint=true, label="[0%]"];
	fn_2137_basic_block_7:s -> fn_2137_basic_block_9:n [style="solid,bold",color=black,weight=10,constraint=true, label="[0%]"];
	fn_2137_basic_block_7:s -> fn_2137_basic_block_8:n [style="solid,bold",color=black,weight=10,constraint=true, label="[0%]"];
	fn_2137_basic_block_8:s -> fn_2137_basic_block_7:n [style="dotted,bold",color=blue,weight=10,constraint=false, label="[0%]"];
	fn_2137_basic_block_9:s -> fn_2137_basic_block_5:n [style="dotted,bold",color=blue,weight=10,constraint=false, label="[0%]"];
	fn_2137_basic_block_10:s -> fn_2137_basic_block_3:n [style="dotted,bold",color=blue,weight=10,constraint=false, label="[0%]"];
	fn_2137_basic_block_11:s -> fn_2137_basic_block_12:n [style="solid,bold",color=blue,weight=100,constraint=true, label="[0%]"];
	fn_2137_basic_block_12:s -> fn_2137_basic_block_1:n [style="solid,bold",color=black,weight=10,constraint=true, label="[0%]"];
	fn_2137_basic_block_0:s -> fn_2137_basic_block_1:n [style="invis",constraint=true];
}
}
