digraph {
	graph [fontname=Arial, nodesep=0.125, ranksep=0.25];
	node [fontcolor=white, fontname=Arial, height=0, shape=box, style=filled, width=0];
	edge [fontname=Arial];
	1 [color="#ff0000", fontcolor="#ffffff", fontsize="10.00", label="main\n100.00%\n(0.03%)"];
	1 -> 2 [arrowsize="0.98", color="#fa1f01", fontcolor="#fa1f01", fontsize="10.00", label="96.93%\n32000000×", labeldistance="3.88", penwidth="3.88"];
	1 -> 13 [arrowsize="0.35", color="#0d1977", fontcolor="#0d1977", fontsize="10.00", label="2.98%\n32000000×", labeldistance="0.50", penwidth="0.50"];
	2 [color="#fa1f01", fontcolor="#ffffff", fontsize="10.00", label="color(ray const&, hitable*, int)\n96.93%\n(0.19%)\n75817515×"];
	2 -> 2 [arrowsize="0.98", color="#fa1f01", fontcolor="#fa1f01", fontsize="10.00", label="43817515×", labeldistance="3.88", penwidth="3.88"];
	2 -> 3 [arrowsize="0.96", color="#f44902", fontcolor="#f44902", fontsize="10.00", label="92.61%\n75817515×", labeldistance="3.70", penwidth="3.70"];
	2 -> 8 [arrowsize="0.35", color="#0d0e73", fontcolor="#0d0e73", fontsize="10.00", label="0.19%\n31977342×", labeldistance="0.50", penwidth="0.50"];
	2 -> 10 [arrowsize="0.35", color="#0d0e73", fontcolor="#0d0e73", fontsize="10.00", label="0.35%\n63954684×", labeldistance="0.50", penwidth="0.50"];
	2 -> 15 [arrowsize="0.35", color="#0d1375", fontcolor="#0d1375", fontsize="10.00", label="1.61%\n30733574×", labeldistance="0.50", penwidth="0.50"];
	2 -> 22 [arrowsize="0.35", color="#0d0f74", fontcolor="#0d0f74", fontsize="10.00", label="0.59%\n8846954×", labeldistance="0.50", penwidth="0.50"];
	3 [color="#f44902", fontcolor="#ffffff", fontsize="10.00", label="hitable_list::hit(ray const&, float, float, hit_record&) const\n92.61%\n(2.84%)\n75817515×"];
	3 -> 4 [arrowsize="0.83", color="#9ad007", fontcolor="#9ad007", fontsize="10.00", label="68.29%\n1846251419×", labeldistance="2.73", penwidth="2.73"];
	3 -> 7 [arrowsize="0.46", color="#0c7b8f", fontcolor="#0c7b8f", fontsize="10.00", label="21.33%\n1592167815×", labeldistance="0.85", penwidth="0.85"];
	4 [color="#9ad007", fontcolor="#ffffff", fontsize="10.00", label="moving_sphere::hit(ray const&, float, float, hit_record&) const\n68.29%\n(10.57%)\n1846251419×"];
	4 -> 5 [arrowsize="0.61", color="#0ba45b", fontcolor="#0ba45b", fontsize="10.00", label="36.88%\n1856175490×", labeldistance="1.48", penwidth="1.48"];
	4 -> 6 [arrowsize="0.35", color="#0d307d", fontcolor="#0d307d", fontsize="10.00", label="7.93%\n1856175490×", labeldistance="0.50", penwidth="0.50"];
	4 -> 9 [arrowsize="0.35", color="#0d2a7b", fontcolor="#0d2a7b", fontsize="10.00", label="6.63%\n5538754257×", labeldistance="0.50", penwidth="0.50"];
	4 -> 11 [arrowsize="0.35", color="#0d1e78", fontcolor="#0d1e78", fontsize="10.00", label="4.11%\n5538754257×", labeldistance="0.50", penwidth="0.50"];
	4 -> 14 [arrowsize="0.35", color="#0d1274", fontcolor="#0d1274", fontsize="10.00", label="1.30%\n1846251419×", labeldistance="0.50", penwidth="0.50"];
	4 -> 17 [arrowsize="0.35", color="#0d0d73", fontcolor="#0d0d73", fontsize="10.00", label="0.12%\n9924071×", labeldistance="0.50", penwidth="0.50"];
	4 -> 18 [arrowsize="0.35", color="#0d1074", fontcolor="#0d1074", fontsize="10.00", label="0.71%\n1856175490×", labeldistance="0.50", penwidth="0.50"];
	5 [color="#0ba45b", fontcolor="#ffffff", fontsize="10.00", label="moving_sphere::center(float) const\n36.88%\n(7.95%)\n1856175490×"];
	5 -> 6 [arrowsize="0.35", color="#0d307d", fontcolor="#0d307d", fontsize="10.00", label="7.93%\n1856175490×", labeldistance="0.50", penwidth="0.50"];
	5 -> 8 [arrowsize="0.35", color="#0d3f81", fontcolor="#0d3f81", fontsize="10.00", label="10.94%\n1856175490×", labeldistance="0.50", penwidth="0.50"];
	5 -> 10 [arrowsize="0.35", color="#0d3b80", fontcolor="#0d3b80", fontsize="10.00", label="10.06%\n1856175490×", labeldistance="0.50", penwidth="0.50"];
	6 [color="#0c8c92", fontcolor="#ffffff", fontsize="10.00", label="operator-(vec3 const&, vec3 const&)\n23.86%\n(22.40%)\n5586960608×"];
	6 -> 12 [arrowsize="0.35", color="#0d1375", fontcolor="#0d1375", fontsize="10.00", label="1.46%\n1291993312×", labeldistance="0.50", penwidth="0.50"];
	7 [color="#0c7b8f", fontcolor="#ffffff", fontsize="10.00", label="sphere::hit(ray const&, float, float, hit_record&) const\n21.33%\n(3.15%)\n1592167815×"];
	7 -> 6 [arrowsize="0.35", color="#0d2c7c", fontcolor="#0d2c7c", fontsize="10.00", label="7.02%\n1642978060×", labeldistance="0.50", penwidth="0.50"];
	7 -> 9 [arrowsize="0.35", color="#0d267a", fontcolor="#0d267a", fontsize="10.00", label="5.72%\n4776503445×", labeldistance="0.50", penwidth="0.50"];
	7 -> 11 [arrowsize="0.35", color="#0d1c77", fontcolor="#0d1c77", fontsize="10.00", label="3.55%\n4776503445×", labeldistance="0.50", penwidth="0.50"];
	7 -> 14 [arrowsize="0.35", color="#0d1174", fontcolor="#0d1174", fontsize="10.00", label="1.12%\n1592167815×", labeldistance="0.50", penwidth="0.50"];
	7 -> 17 [arrowsize="0.35", color="#0d0f74", fontcolor="#0d0f74", fontsize="10.00", label="0.62%\n50810245×", labeldistance="0.50", penwidth="0.50"];
	8 [color="#0d4983", fontcolor="#ffffff", fontsize="10.00", label="operator+(vec3 const&, vec3 const&)\n12.66%\n(10.23%)\n2147201331×"];
	8 -> 12 [arrowsize="0.35", color="#0d1776", fontcolor="#0d1776", fontsize="10.00", label="2.43%\n2147201331×", labeldistance="0.50", penwidth="0.50"];
	9 [color="#0d4883", fontcolor="#ffffff", fontsize="10.00", label="dot(vec3 const&, vec3 const&)\n12.53%\n(12.53%)\n10466295566×"];
	10 [color="#0d4582", fontcolor="#ffffff", fontsize="10.00", label="operator*(float, vec3 const&)\n12.03%\n(9.52%)\n2218878224×"];
	10 -> 12 [arrowsize="0.35", color="#0d1776", fontcolor="#0d1776", fontsize="10.00", label="2.51%\n2218878224×", labeldistance="0.50", penwidth="0.50"];
	11 [color="#0d2f7d", fontcolor="#ffffff", fontsize="10.00", label="ray::direction() const\n7.71%\n(7.71%)\n10386187702×"];
	12 [color="#0d2c7c", fontcolor="#ffffff", fontsize="10.00", label="vec3::vec3(float, float, float)\n6.99%\n(6.99%)\n6183088598×"];
	13 [color="#0d1977", fontcolor="#ffffff", fontsize="10.00", label="camera::get_ray(float, float)\n2.98%\n(0.06%)\n32000000×"];
	13 -> 6 [arrowsize="0.35", color="#0d0e73", fontcolor="#0d0e73", fontsize="10.00", label="0.27%\n64000000×", labeldistance="0.50", penwidth="0.50"];
	13 -> 8 [arrowsize="0.35", color="#0d1074", fontcolor="#0d1074", fontsize="10.00", label="0.75%\n128000000×", labeldistance="0.50", penwidth="0.50"];
	13 -> 10 [arrowsize="0.35", color="#0d0f73", fontcolor="#0d0f73", fontsize="10.00", label="0.52%\n96000000×", labeldistance="0.50", penwidth="0.50"];
	13 -> 20 [arrowsize="0.35", color="#0d0f74", fontcolor="#0d0f74", fontsize="10.00", label="0.62%\n32000000×", labeldistance="0.50", penwidth="0.50"];
	13 -> 21 [arrowsize="0.35", color="#0d0f73", fontcolor="#0d0f73", fontsize="10.00", label="0.54%\n64000000×", labeldistance="0.50", penwidth="0.50"];
	14 [color="#0d1776", fontcolor="#ffffff", fontsize="10.00", label="ray::origin() const\n2.42%\n(2.42%)\n3438419234×"];
	15 [color="#0d1375", fontcolor="#ffffff", fontsize="10.00", label="lambertian::scatter(ray const&, hit_record const&, vec3&, ray&) const\n1.61%\n(0.05%)\n30733574×"];
	15 -> 6 [arrowsize="0.35", color="#0d0d73", fontcolor="#0d0d73", fontsize="10.00", label="0.13%\n30733574×", labeldistance="0.50", penwidth="0.50"];
	15 -> 8 [arrowsize="0.35", color="#0d0e73", fontcolor="#0d0e73", fontsize="10.00", label="0.36%\n61467148×", labeldistance="0.50", penwidth="0.50"];
	15 -> 16 [arrowsize="0.35", color="#0d1074", fontcolor="#0d1074", fontsize="10.00", label="0.86%\n30733574×", labeldistance="0.50", penwidth="0.50"];
	16 [color="#0d1174", fontcolor="#ffffff", fontsize="10.00", label="random_in_unit_sphere()\n1.11%\n(0.08%)\n39580528×"];
	16 -> 6 [arrowsize="0.35", color="#0d0e73", fontcolor="#0d0e73", fontsize="10.00", label="0.32%\n75588595×", labeldistance="0.50", penwidth="0.50"];
	16 -> 10 [arrowsize="0.35", color="#0d0e73", fontcolor="#0d0e73", fontsize="10.00", label="0.41%\n75588595×", labeldistance="0.50", penwidth="0.50"];
	16 -> 12 [arrowsize="0.35", color="#0d0d73", fontcolor="#0d0d73", fontsize="10.00", label="0.17%\n151177190×", labeldistance="0.50", penwidth="0.50"];
	17 [color="#0d1074", fontcolor="#ffffff", fontsize="10.00", label="ray::point_at_parameter(float) const\n0.74%\n(0.06%)\n60734316×"];
	17 -> 8 [arrowsize="0.35", color="#0d0e73", fontcolor="#0d0e73", fontsize="10.00", label="0.36%\n60734316×", labeldistance="0.50", penwidth="0.50"];
	17 -> 10 [arrowsize="0.35", color="#0d0e73", fontcolor="#0d0e73", fontsize="10.00", label="0.33%\n60734316×", labeldistance="0.50", penwidth="0.50"];
	18 [color="#0d1074", fontcolor="#ffffff", fontsize="10.00", label="ray::time() const\n0.73%\n(0.73%)\n1886909064×"];
	19 [color="#0d0f74", fontcolor="#ffffff", fontsize="10.00", label="vec3::vec3()\n0.67%\n(0.67%)\n667580440×"];
	20 [color="#0d0f74", fontcolor="#ffffff", fontsize="10.00", label="random_in_unit_disk()\n0.62%\n(0.05%)\n32000000×"];
	20 -> 6 [arrowsize="0.35", color="#0d0d73", fontcolor="#0d0d73", fontsize="10.00", label="0.17%\n40748361×", labeldistance="0.50", penwidth="0.50"];
	20 -> 10 [arrowsize="0.35", color="#0d0e73", fontcolor="#0d0e73", fontsize="10.00", label="0.22%\n40748361×", labeldistance="0.50", penwidth="0.50"];
	21 [color="#0d0f74", fontcolor="#ffffff", fontsize="10.00", label="operator*(vec3 const&, float)\n0.60%\n(0.52%)\n71462230×"];
	22 [color="#0d0f74", fontcolor="#ffffff", fontsize="10.00", label="metal::scatter(ray const&, hit_record const&, vec3&, ray&) const\n0.59%\n(0.02%)\n8846954×"];
	22 -> 16 [arrowsize="0.35", color="#0d0e73", fontcolor="#0d0e73", fontsize="10.00", label="0.25%\n8846954×", labeldistance="0.50", penwidth="0.50"];
}
