digraph {
	graph [fontname=Arial, nodesep=0.125, ranksep=0.25];
	node [fontcolor=white, fontname=Arial, height=0, shape=box, style=filled, width=0];
	edge [fontname=Arial];
	1 [color="#fe0500", fontcolor="#ffffff", fontsize="10.00", label="main\n99.57%\n(0.63%)"];
	1 -> 2 [arrowsize="0.96", color="#f35002", fontcolor="#f35002", fontsize="10.00", label="91.94%\n32000000×", labeldistance="3.68", penwidth="3.68"];
	1 -> 12 [arrowsize="0.35", color="#0d287b", fontcolor="#0d287b", fontsize="10.00", label="6.14%\n32000000×", labeldistance="0.50", penwidth="0.50"];
	2 [color="#f35002", fontcolor="#ffffff", fontsize="10.00", label="color(ray const&, hitable*, int)\n91.94%\n(3.51%)\n113857970×"];
	2 -> 2 [arrowsize="0.96", color="#f35002", fontcolor="#f35002", fontsize="10.00", label="81857970×", labeldistance="3.68", penwidth="3.68"];
	2 -> 3 [arrowsize="0.67", color="#0aaf2b", fontcolor="#0aaf2b", fontsize="10.00", label="45.08%\n113857970×", labeldistance="1.80", penwidth="1.80"];
	2 -> 5 [arrowsize="0.57", color="#0b9e71", fontcolor="#0b9e71", fontsize="10.00", label="32.56%\n81857970×", labeldistance="1.30", penwidth="1.30"];
	2 -> 8 [arrowsize="0.35", color="#0d1575", fontcolor="#0d1575", fontsize="10.00", label="2.00%\n63896190×", labeldistance="0.50", penwidth="0.50"];
	2 -> 9 [arrowsize="0.35", color="#0d1174", fontcolor="#0d1174", fontsize="10.00", label="1.06%\n31948095×", labeldistance="0.50", penwidth="0.50"];
	2 -> 10 [arrowsize="0.35", color="#0d0e73", fontcolor="#0d0e73", fontsize="10.00", label="0.26%\n63948095×", labeldistance="0.50", penwidth="0.50"];
	2 -> 15 [arrowsize="0.35", color="#0d0d73", fontcolor="#0d0d73", fontsize="10.00", label="0.18%\n31948095×", labeldistance="0.50", penwidth="0.50"];
	2 -> 16 [arrowsize="0.35", color="#0d0e73", fontcolor="#0d0e73", fontsize="10.00", label="0.30%\n81909875×", labeldistance="0.50", penwidth="0.50"];
	2 -> 18 [arrowsize="0.35", color="#0d1977", fontcolor="#0d1977", fontsize="10.00", label="2.96%\n81857970×", labeldistance="0.50", penwidth="0.50"];
	2 -> 19 [arrowsize="0.35", color="#0d1274", fontcolor="#0d1274", fontsize="10.00", label="1.17%\n113857970×", labeldistance="0.50", penwidth="0.50"];
	2 -> 20 [arrowsize="0.35", color="#0d1475", fontcolor="#0d1475", fontsize="10.00", label="1.79%\n31948095×", labeldistance="0.50", penwidth="0.50"];
	2 -> 23 [arrowsize="0.35", color="#0d1174", fontcolor="#0d1174", fontsize="10.00", label="0.98%\n81909875×", labeldistance="0.50", penwidth="0.50"];
	3 [color="#0aaf2b", fontcolor="#ffffff", fontsize="10.00", label="hitable_list::hit(ray const&, float, float, hit_record&) const\n45.08%\n(2.94%)\n113857970×"];
	3 -> 4 [arrowsize="0.64", color="#0ba944", fontcolor="#0ba944", fontsize="10.00", label="40.97%\n227715940×", labeldistance="1.64", penwidth="1.64"];
	3 -> 19 [arrowsize="0.35", color="#0d1274", fontcolor="#0d1274", fontsize="10.00", label="1.17%\n113857970×", labeldistance="0.50", penwidth="0.50"];
	4 [color="#0ba944", fontcolor="#ffffff", fontsize="10.00", label="sphere::hit(ray const&, float, float, hit_record&) const\n40.97%\n(12.46%)\n227715940×"];
	4 -> 6 [arrowsize="0.35", color="#0d3b80", fontcolor="#0d3b80", fontsize="10.00", label="9.99%\n309943552×", labeldistance="0.50", penwidth="0.50"];
	4 -> 11 [arrowsize="0.35", color="#0d2a7b", fontcolor="#0d2a7b", fontsize="10.00", label="6.54%\n82227612×", labeldistance="0.50", penwidth="0.50"];
	4 -> 14 [arrowsize="0.35", color="#0d1d78", fontcolor="#0d1d78", fontsize="10.00", label="3.92%\n683147820×", labeldistance="0.50", penwidth="0.50"];
	4 -> 15 [arrowsize="0.35", color="#0d1d78", fontcolor="#0d1d78", fontsize="10.00", label="3.84%\n683147820×", labeldistance="0.50", penwidth="0.50"];
	4 -> 17 [arrowsize="0.35", color="#0d1776", fontcolor="#0d1776", fontsize="10.00", label="2.48%\n82227612×", labeldistance="0.50", penwidth="0.50"];
	4 -> 22 [arrowsize="0.35", color="#0d1174", fontcolor="#0d1174", fontsize="10.00", label="1.12%\n227715940×", labeldistance="0.50", penwidth="0.50"];
	4 -> 26 [arrowsize="0.35", color="#0d0f74", fontcolor="#0d0f74", fontsize="10.00", label="0.61%\n246053756×", labeldistance="0.50", penwidth="0.50"];
	5 [color="#0b9e71", fontcolor="#ffffff", fontsize="10.00", label="lambertian::scatter(ray const&, hit_record const&, vec3&, ray&) const\n32.56%\n(2.46%)\n81857970×"];
	5 -> 6 [arrowsize="0.35", color="#0d1876", fontcolor="#0d1876", fontsize="10.00", label="2.64%\n81857970×", labeldistance="0.50", penwidth="0.50"];
	5 -> 7 [arrowsize="0.40", color="#0c5987", fontcolor="#0c5987", fontsize="10.00", label="15.69%\n81857970×", labeldistance="0.63", penwidth="0.63"];
	5 -> 9 [arrowsize="0.35", color="#0d247a", fontcolor="#0d247a", fontsize="10.00", label="5.42%\n163715940×", labeldistance="0.50", penwidth="0.50"];
	5 -> 13 [arrowsize="0.35", color="#0d2379", fontcolor="#0d2379", fontsize="10.00", label="5.08%\n81857970×", labeldistance="0.50", penwidth="0.50"];
	5 -> 21 [arrowsize="0.35", color="#0d1274", fontcolor="#0d1274", fontsize="10.00", label="1.26%\n81857970×", labeldistance="0.50", penwidth="0.50"];
	6 [color="#0c6b8b", fontcolor="#ffffff", fontsize="10.00", label="operator-(vec3 const&, vec3 const&)\n18.71%\n(16.33%)\n580155291×"];
	6 -> 10 [arrowsize="0.35", color="#0d1776", fontcolor="#0d1776", fontsize="10.00", label="2.38%\n580155291×", labeldistance="0.50", penwidth="0.50"];
	7 [color="#0c5987", fontcolor="#ffffff", fontsize="10.00", label="random_in_unit_sphere()\n15.69%\n(3.27%)\n81857970×"];
	7 -> 6 [arrowsize="0.35", color="#0d2379", fontcolor="#0d2379", fontsize="10.00", label="5.04%\n156353765×", labeldistance="0.50", penwidth="0.50"];
	7 -> 8 [arrowsize="0.35", color="#0d2279", fontcolor="#0d2279", fontsize="10.00", label="4.90%\n156353765×", labeldistance="0.50", penwidth="0.50"];
	7 -> 10 [arrowsize="0.35", color="#0d1274", fontcolor="#0d1274", fontsize="10.00", label="1.28%\n312707530×", labeldistance="0.50", penwidth="0.50"];
	7 -> 14 [arrowsize="0.35", color="#0d1074", fontcolor="#0d1074", fontsize="10.00", label="0.90%\n156353765×", labeldistance="0.50", penwidth="0.50"];
	7 -> 16 [arrowsize="0.35", color="#0d0e73", fontcolor="#0d0e73", fontsize="10.00", label="0.30%\n81857970×", labeldistance="0.50", penwidth="0.50"];
	8 [color="#0d4282", fontcolor="#ffffff", fontsize="10.00", label="operator*(float, vec3 const&)\n11.48%\n(9.98%)\n366477571×"];
	8 -> 10 [arrowsize="0.35", color="#0d1375", fontcolor="#0d1375", fontsize="10.00", label="1.50%\n366477571×", labeldistance="0.50", penwidth="0.50"];
	9 [color="#0d4181", fontcolor="#ffffff", fontsize="10.00", label="operator+(vec3 const&, vec3 const&)\n11.32%\n(9.92%)\n341891647×"];
	9 -> 10 [arrowsize="0.35", color="#0d1375", fontcolor="#0d1375", fontsize="10.00", label="1.40%\n341891647×", labeldistance="0.50", penwidth="0.50"];
	10 [color="#0d2f7d", fontcolor="#ffffff", fontsize="10.00", label="vec3::vec3(float, float, float)\n7.63%\n(7.63%)\n1861853824×"];
	11 [color="#0d2a7b", fontcolor="#ffffff", fontsize="10.00", label="ray::point_at_parameter(float) const\n6.54%\n(1.24%)\n82227612×"];
	11 -> 8 [arrowsize="0.35", color="#0d1876", fontcolor="#0d1876", fontsize="10.00", label="2.58%\n82227612×", labeldistance="0.50", penwidth="0.50"];
	11 -> 9 [arrowsize="0.35", color="#0d1876", fontcolor="#0d1876", fontsize="10.00", label="2.72%\n82227612×", labeldistance="0.50", penwidth="0.50"];
	12 [color="#0d287b", fontcolor="#ffffff", fontsize="10.00", label="camera::get_ray(float, float)\n6.14%\n(0.49%)\n32000000×"];
	12 -> 6 [arrowsize="0.35", color="#0d1174", fontcolor="#0d1174", fontsize="10.00", label="1.03%\n32000000×", labeldistance="0.50", penwidth="0.50"];
	12 -> 8 [arrowsize="0.35", color="#0d1575", fontcolor="#0d1575", fontsize="10.00", label="2.00%\n64000000×", labeldistance="0.50", penwidth="0.50"];
	12 -> 9 [arrowsize="0.35", color="#0d1675", fontcolor="#0d1675", fontsize="10.00", label="2.12%\n64000000×", labeldistance="0.50", penwidth="0.50"];
	12 -> 21 [arrowsize="0.35", color="#0d0f73", fontcolor="#0d0f73", fontsize="10.00", label="0.49%\n32000000×", labeldistance="0.50", penwidth="0.50"];
	13 [color="#0d2379", fontcolor="#ffffff", fontsize="10.00", label="checker_texture::value(float, float, vec3 const&) const\n5.08%\n(2.76%)\n81857970×"];
	13 -> 24 [arrowsize="0.35", color="#0d1074", fontcolor="#0d1074", fontsize="10.00", label="0.85%\n245573910×", labeldistance="0.50", penwidth="0.50"];
	13 -> 25 [arrowsize="0.35", color="#0d1074", fontcolor="#0d1074", fontsize="10.00", label="0.73%\n81857970×", labeldistance="0.50", penwidth="0.50"];
	14 [color="#0d2279", fontcolor="#ffffff", fontsize="10.00", label="dot(vec3 const&, vec3 const&)\n4.81%\n(4.81%)\n839501585×"];
	15 [color="#0d1e78", fontcolor="#ffffff", fontsize="10.00", label="ray::direction() const\n4.02%\n(4.02%)\n715095915×"];
	16 [color="#0d1d78", fontcolor="#ffffff", fontsize="10.00", label="vec3::vec3()\n3.73%\n(3.73%)\n1010735422×"];
	17 [color="#0d1b77", fontcolor="#ffffff", fontsize="10.00", label="operator/(vec3, float)\n3.45%\n(2.98%)\n114175710×"];
	17 -> 10 [arrowsize="0.35", color="#0d0f73", fontcolor="#0d0f73", fontsize="10.00", label="0.47%\n114175710×", labeldistance="0.50", penwidth="0.50"];
	18 [color="#0d1977", fontcolor="#ffffff", fontsize="10.00", label="operator*(vec3 const&, vec3 const&)\n2.96%\n(2.62%)\n81857970×"];
	18 -> 10 [arrowsize="0.35", color="#0d0e73", fontcolor="#0d0e73", fontsize="10.00", label="0.34%\n81857970×", labeldistance="0.50", penwidth="0.50"];
	19 [color="#0d1776", fontcolor="#ffffff", fontsize="10.00", label="hit_record::hit_record()\n2.35%\n(0.67%)\n227715940×"];
	19 -> 16 [arrowsize="0.35", color="#0d1475", fontcolor="#0d1475", fontsize="10.00", label="1.68%\n455431880×", labeldistance="0.50", penwidth="0.50"];
	20 [color="#0d1475", fontcolor="#ffffff", fontsize="10.00", label="unit_vector(vec3)\n1.79%\n(0.45%)\n31948098×"];
	20 -> 17 [arrowsize="0.35", color="#0d1174", fontcolor="#0d1174", fontsize="10.00", label="0.96%\n31948098×", labeldistance="0.50", penwidth="0.50"];
	21 [color="#0d1475", fontcolor="#ffffff", fontsize="10.00", label="ray::ray(vec3 const&, vec3 const&)\n1.75%\n(0.91%)\n113857970×"];
	21 -> 16 [arrowsize="0.35", color="#0d1074", fontcolor="#0d1074", fontsize="10.00", label="0.84%\n227715940×", labeldistance="0.50", penwidth="0.50"];
	22 [color="#0d1174", fontcolor="#ffffff", fontsize="10.00", label="ray::origin() const\n1.12%\n(1.12%)\n227715940×"];
	23 [color="#0d1174", fontcolor="#ffffff", fontsize="10.00", label="ray::ray()\n0.98%\n(0.37%)\n81909875×"];
	23 -> 16 [arrowsize="0.35", color="#0d0f74", fontcolor="#0d0f74", fontsize="10.00", label="0.60%\n163819750×", labeldistance="0.50", penwidth="0.50"];
	24 [color="#0d1074", fontcolor="#ffffff", fontsize="10.00", label="std::sin(float)\n0.85%\n(0.85%)\n245573910×"];
	25 [color="#0d1074", fontcolor="#ffffff", fontsize="10.00", label="constant_texture::value(float, float, vec3 const&) const\n0.73%\n(0.73%)\n81857970×"];
	26 [color="#0d1074", fontcolor="#ffffff", fontsize="10.00", label="std::sqrt(float)\n0.69%\n(0.69%)\n278961854×"];
}
