digraph {
	graph [fontname=Arial, nodesep=0.125, ranksep=0.25];
	node [fontcolor=white, fontname=Arial, height=0, shape=box, style=filled, width=0];
	edge [fontname=Arial];
	1 [color="#fe0400", fontcolor="#ffffff", fontsize="10.00", label="main\n99.64%\n(0.12%)"];
	1 -> 2 [arrowsize="0.97", color="#f73501", fontcolor="#f73501", fontsize="10.00", label="94.79%\n160000000×", labeldistance="3.79", penwidth="3.79"];
	1 -> 20 [arrowsize="0.35", color="#0d1b77", fontcolor="#0d1b77", fontsize="10.00", label="3.43%\n160000000×", labeldistance="0.50", penwidth="0.50"];
	1 -> 33 [arrowsize="0.35", color="#0d0f74", fontcolor="#0d0f74", fontsize="10.00", label="0.65%\n1×", labeldistance="0.50", penwidth="0.50"];
	1 -> 35 [arrowsize="0.35", color="#0d0f74", fontcolor="#0d0f74", fontsize="10.00", label="0.61%\n1×", labeldistance="0.50", penwidth="0.50"];
	2 [color="#f73501", fontcolor="#ffffff", fontsize="10.00", label="color(ray const&, hitable*, int)\n94.79%\n(1.22%)\n1006124548×"];
	2 -> 2 [arrowsize="0.97", color="#f73501", fontcolor="#f73501", fontsize="10.00", label="846124548×", labeldistance="3.79", penwidth="3.79"];
	2 -> 4 [arrowsize="0.88", color="#dec605", fontcolor="#dec605", fontsize="10.00", label="77.78%\n1006124548×", labeldistance="3.11", penwidth="3.11"];
	2 -> 10 [arrowsize="0.35", color="#0d4281", fontcolor="#0d4281", fontsize="10.00", label="11.40%\n846124548×", labeldistance="0.50", penwidth="0.50"];
	2 -> 16 [arrowsize="0.35", color="#0d1174", fontcolor="#0d1174", fontsize="10.00", label="1.02%\n846124548×", labeldistance="0.50", penwidth="0.50"];
	2 -> 23 [arrowsize="0.35", color="#0d0d73", fontcolor="#0d0d73", fontsize="10.00", label="0.10%\n853529433×", labeldistance="0.50", penwidth="0.50"];
	2 -> 25 [arrowsize="0.35", color="#0d0e73", fontcolor="#0d0e73", fontsize="10.00", label="0.36%\n1006124548×", labeldistance="0.50", penwidth="0.50"];
	2 -> 29 [arrowsize="0.35", color="#0d1274", fontcolor="#0d1274", fontsize="10.00", label="1.28%\n846124548×", labeldistance="0.50", penwidth="0.50"];
	2 -> 30 [arrowsize="0.35", color="#0d1274", fontcolor="#0d1274", fontsize="10.00", label="1.16%\n846271183×", labeldistance="0.50", penwidth="0.50"];
	4 [color="#dec605", fontcolor="#ffffff", fontsize="10.00", label="hitable_list::hit(ray const&, float, float, hit_record&) const\n77.78%\n(9.95%)\n3018373644×"];
	4 -> 5 [arrowsize="0.50", color="#0c9393", fontcolor="#0c9393", fontsize="10.00", label="25.00%\n465186340×", labeldistance="1.00", penwidth="1.00"];
	4 -> 6 [arrowsize="0.35", color="#0d2f7d", fontcolor="#0d2f7d", fontsize="10.00", label="7.75%\n3018373644×", labeldistance="0.50", penwidth="0.50"];
	4 -> 8 [arrowsize="0.35", color="#0d337e", fontcolor="#0d337e", fontsize="10.00", label="8.41%\n4024498192×", labeldistance="0.50", penwidth="0.50"];
	4 -> 11 [arrowsize="0.35", color="#0d1d78", fontcolor="#0d1d78", fontsize="10.00", label="3.86%\n2012249096×", labeldistance="0.50", penwidth="0.50"];
	4 -> 14 [arrowsize="0.47", color="#0c7e8f", fontcolor="#0c7e8f", fontsize="10.00", label="21.71%\n2012249096×", labeldistance="0.87", penwidth="0.87"];
	4 -> 25 [arrowsize="0.35", color="#0d1174", fontcolor="#0d1174", fontsize="10.00", label="1.09%\n3018373644×", labeldistance="0.50", penwidth="0.50"];
	5 [color="#0c9393", fontcolor="#ffffff", fontsize="10.00", label="flip_normal::hit(ray const&, float, float, hit_record&) const\n25.00%\n(3.85%)\n465186340×"];
	5 -> 6 [arrowsize="0.35", color="#0d2f7d", fontcolor="#0d2f7d", fontsize="10.00", label="7.75%\n3018373644×", labeldistance="0.50", penwidth="0.50"];
	5 -> 8 [arrowsize="0.35", color="#0d287b", fontcolor="#0d287b", fontsize="10.00", label="6.31%\n3018373644×", labeldistance="0.50", penwidth="0.50"];
	5 -> 11 [arrowsize="0.35", color="#0d267a", fontcolor="#0d267a", fontsize="10.00", label="5.79%\n3018373644×", labeldistance="0.50", penwidth="0.50"];
	5 -> 28 [arrowsize="0.35", color="#0d1274", fontcolor="#0d1274", fontsize="10.00", label="1.31%\n611136263×", labeldistance="0.50", penwidth="0.50"];
	6 [color="#0c5887", fontcolor="#ffffff", fontsize="10.00", label="yz_rect::hit(ray const&, float, float, hit_record&) const\n15.50%\n(7.44%)\n6036747288×"];
	6 -> 9 [arrowsize="0.35", color="#0d1976", fontcolor="#0d1976", fontsize="10.00", label="2.80%\n7219877132×", labeldistance="0.50", penwidth="0.50"];
	6 -> 12 [arrowsize="0.35", color="#0d1575", fontcolor="#0d1575", fontsize="10.00", label="2.02%\n7219877132×", labeldistance="0.50", penwidth="0.50"];
	6 -> 18 [arrowsize="0.35", color="#0d1375", fontcolor="#0d1375", fontsize="10.00", label="1.48%\n450113722×", labeldistance="0.50", penwidth="0.50"];
	6 -> 19 [arrowsize="0.35", color="#0d0d73", fontcolor="#0d0d73", fontsize="10.00", label="0.14%\n450113722×", labeldistance="0.50", penwidth="0.50"];
	6 -> 24 [arrowsize="0.35", color="#0d0f73", fontcolor="#0d0f73", fontsize="10.00", label="0.58%\n5478097140×", labeldistance="0.50", penwidth="0.50"];
	6 -> 26 [arrowsize="0.35", color="#0d0e73", fontcolor="#0d0e73", fontsize="10.00", label="0.42%\n3483559984×", labeldistance="0.50", penwidth="0.50"];
	6 -> 27 [arrowsize="0.35", color="#0d0f74", fontcolor="#0d0f74", fontsize="10.00", label="0.63%\n5478097140×", labeldistance="0.50", penwidth="0.50"];
	7 [color="#0c5a87", fontcolor="#ffffff", fontsize="10.00", label="rotate_y::hit(ray const&, float, float, hit_record&) const\n15.88%\n(5.00%)\n2012249096×"];
	7 -> 9 [arrowsize="0.35", color="#0d1d78", fontcolor="#0d1d78", fontsize="10.00", label="3.91%\n10061245480×", labeldistance="0.50", penwidth="0.50"];
	7 -> 12 [arrowsize="0.35", color="#0d1976", fontcolor="#0d1976", fontsize="10.00", label="2.82%\n10061245480×", labeldistance="0.50", penwidth="0.50"];
	7 -> 21 [arrowsize="0.35", color="#0d1776", fontcolor="#0d1776", fontsize="10.00", label="2.54%\n26646936720×", labeldistance="0.50", penwidth="0.50"];
	7 -> 22 [arrowsize="0.35", color="#0d1074", fontcolor="#0d1074", fontsize="10.00", label="0.69%\n2012249096×", labeldistance="0.50", penwidth="0.50"];
	7 -> 31 [arrowsize="0.35", color="#0d1174", fontcolor="#0d1174", fontsize="10.00", label="0.92%\n2012249096×", labeldistance="0.50", penwidth="0.50"];
	8 [color="#0c5486", fontcolor="#ffffff", fontsize="10.00", label="xz_rect::hit(ray const&, float, float, hit_record&) const\n14.72%\n(6.89%)\n7042871836×"];
	8 -> 9 [arrowsize="0.35", color="#0d1976", fontcolor="#0d1976", fontsize="10.00", label="2.84%\n7325448382×", labeldistance="0.50", penwidth="0.50"];
	8 -> 12 [arrowsize="0.35", color="#0d1575", fontcolor="#0d1575", fontsize="10.00", label="2.05%\n7325448382×", labeldistance="0.50", penwidth="0.50"];
	8 -> 18 [arrowsize="0.35", color="#0d1274", fontcolor="#0d1274", fontsize="10.00", label="1.17%\n357054650×", labeldistance="0.50", penwidth="0.50"];
	8 -> 19 [arrowsize="0.35", color="#0d0d73", fontcolor="#0d0d73", fontsize="10.00", label="0.11%\n357054650×", labeldistance="0.50", penwidth="0.50"];
	8 -> 24 [arrowsize="0.35", color="#0d0f73", fontcolor="#0d0f73", fontsize="10.00", label="0.58%\n5495809080×", labeldistance="0.50", penwidth="0.50"];
	8 -> 26 [arrowsize="0.35", color="#0d0f73", fontcolor="#0d0f73", fontsize="10.00", label="0.55%\n4577543842×", labeldistance="0.50", penwidth="0.50"];
	8 -> 27 [arrowsize="0.35", color="#0d0f73", fontcolor="#0d0f73", fontsize="10.00", label="0.52%\n4577543842×", labeldistance="0.50", penwidth="0.50"];
	9 [color="#0d4482", fontcolor="#ffffff", fontsize="10.00", label="ray::origin() const\n11.85%\n(11.85%)\n30526852990×"];
	10 [color="#0d4281", fontcolor="#ffffff", fontsize="10.00", label="lambertian::scatter(ray const&, hit_record const&, vec3&, ray&) const\n11.40%\n(1.07%)\n846124548×"];
	10 -> 13 [arrowsize="0.35", color="#0d2b7c", fontcolor="#0d2b7c", fontsize="10.00", label="6.88%\n846124548×", labeldistance="0.50", penwidth="0.50"];
	10 -> 15 [arrowsize="0.35", color="#0d1174", fontcolor="#0d1174", fontsize="10.00", label="0.95%\n846124548×", labeldistance="0.50", penwidth="0.50"];
	10 -> 16 [arrowsize="0.35", color="#0d1575", fontcolor="#0d1575", fontsize="10.00", label="2.03%\n1692249096×", labeldistance="0.50", penwidth="0.50"];
	10 -> 22 [arrowsize="0.35", color="#0d0e73", fontcolor="#0d0e73", fontsize="10.00", label="0.29%\n846124548×", labeldistance="0.50", penwidth="0.50"];
	11 [color="#0d397f", fontcolor="#ffffff", fontsize="10.00", label="xy_rect::hit(ray const&, float, float, hit_record&) const\n9.65%\n(4.97%)\n5030622740×"];
	11 -> 9 [arrowsize="0.35", color="#0d1375", fontcolor="#0d1375", fontsize="10.00", label="1.52%\n3908032900×", labeldistance="0.50", penwidth="0.50"];
	11 -> 12 [arrowsize="0.35", color="#0d1174", fontcolor="#0d1174", fontsize="10.00", label="1.10%\n3908032900×", labeldistance="0.50", penwidth="0.50"];
	11 -> 18 [arrowsize="0.35", color="#0d1174", fontcolor="#0d1174", fontsize="10.00", label="1.08%\n328090963×", labeldistance="0.50", penwidth="0.50"];
	11 -> 19 [arrowsize="0.35", color="#0d0d73", fontcolor="#0d0d73", fontsize="10.00", label="0.10%\n328090963×", labeldistance="0.50", penwidth="0.50"];
	11 -> 24 [arrowsize="0.35", color="#0d0e73", fontcolor="#0d0e73", fontsize="10.00", label="0.33%\n3172377456×", labeldistance="0.50", penwidth="0.50"];
	11 -> 26 [arrowsize="0.35", color="#0d0e73", fontcolor="#0d0e73", fontsize="10.00", label="0.38%\n3172377456×", labeldistance="0.50", penwidth="0.50"];
	11 -> 27 [arrowsize="0.35", color="#0d0d73", fontcolor="#0d0d73", fontsize="10.00", label="0.17%\n1471310888×", labeldistance="0.50", penwidth="0.50"];
	12 [color="#0d337e", fontcolor="#ffffff", fontsize="10.00", label="ray::direction() const\n8.55%\n(8.55%)\n30526852990×"];
	13 [color="#0d2b7c", fontcolor="#ffffff", fontsize="10.00", label="random_in_unit_sphere()\n6.88%\n(1.23%)\n846124548×"];
	13 -> 15 [arrowsize="0.35", color="#0d1475", fontcolor="#0d1475", fontsize="10.00", label="1.82%\n1615975752×", labeldistance="0.50", penwidth="0.50"];
	13 -> 17 [arrowsize="0.35", color="#0d1776", fontcolor="#0d1776", fontsize="10.00", label="2.33%\n1615975752×", labeldistance="0.50", penwidth="0.50"];
	13 -> 19 [arrowsize="0.35", color="#0d1174", fontcolor="#0d1174", fontsize="10.00", label="1.01%\n3231951504×", labeldistance="0.50", penwidth="0.50"];
	13 -> 23 [arrowsize="0.35", color="#0d0d73", fontcolor="#0d0d73", fontsize="10.00", label="0.10%\n846124548×", labeldistance="0.50", penwidth="0.50"];
	14 [color="#0c7e8f", fontcolor="#ffffff", fontsize="10.00", label="translate::hit(ray const&, float, float, hit_record&) const\n21.71%\n(1.48%)\n2012249096×"];
	14 -> 7 [arrowsize="0.40", color="#0c5a87", fontcolor="#0c5a87", fontsize="10.00", label="15.88%\n2012249096×", labeldistance="0.64", penwidth="0.64"];
	14 -> 9 [arrowsize="0.35", color="#0d1074", fontcolor="#0d1074", fontsize="10.00", label="0.78%\n2012249096×", labeldistance="0.50", penwidth="0.50"];
	14 -> 12 [arrowsize="0.35", color="#0d0f73", fontcolor="#0d0f73", fontsize="10.00", label="0.56%\n2012249096×", labeldistance="0.50", penwidth="0.50"];
	14 -> 15 [arrowsize="0.35", color="#0d1676", fontcolor="#0d1676", fontsize="10.00", label="2.27%\n2012249096×", labeldistance="0.50", penwidth="0.50"];
	14 -> 22 [arrowsize="0.35", color="#0d1074", fontcolor="#0d1074", fontsize="10.00", label="0.69%\n2012249096×", labeldistance="0.50", penwidth="0.50"];
	15 [color="#0d257a", fontcolor="#ffffff", fontsize="10.00", label="operator-(vec3 const&, vec3 const&)\n5.63%\n(5.41%)\n4998076913×"];
	15 -> 19 [arrowsize="0.35", color="#0d0e73", fontcolor="#0d0e73", fontsize="10.00", label="0.22%\n703109617×", labeldistance="0.50", penwidth="0.50"];
	16 [color="#0d2379", fontcolor="#ffffff", fontsize="10.00", label="operator+(vec3 const&, vec3 const&)\n5.17%\n(5.17%)\n4313632979×"];
	17 [color="#0d2279", fontcolor="#ffffff", fontsize="10.00", label="operator*(float, vec3 const&)\n4.95%\n(3.88%)\n3434962605×"];
	17 -> 19 [arrowsize="0.35", color="#0d1174", fontcolor="#0d1174", fontsize="10.00", label="1.07%\n3434962605×", labeldistance="0.50", penwidth="0.50"];
	18 [color="#0d1d78", fontcolor="#ffffff", fontsize="10.00", label="ray::point_at_parameter(float) const\n3.73%\n(0.73%)\n1135259335×"];
	18 -> 16 [arrowsize="0.35", color="#0d1274", fontcolor="#0d1274", fontsize="10.00", label="1.36%\n1135259335×", labeldistance="0.50", penwidth="0.50"];
	18 -> 17 [arrowsize="0.35", color="#0d1475", fontcolor="#0d1475", fontsize="10.00", label="1.64%\n1135259335×", labeldistance="0.50", penwidth="0.50"];
	19 [color="#0d1c77", fontcolor="#ffffff", fontsize="10.00", label="vec3::vec3(float, float, float)\n3.65%\n(3.65%)\n11707851409×"];
	20 [color="#0d1b77", fontcolor="#ffffff", fontsize="10.00", label="camera::get_ray(float, float)\n3.43%\n(0.23%)\n160000000×"];
	20 -> 15 [arrowsize="0.35", color="#0d0e73", fontcolor="#0d0e73", fontsize="10.00", label="0.36%\n320000000×", labeldistance="0.50", penwidth="0.50"];
	20 -> 16 [arrowsize="0.35", color="#0d1074", fontcolor="#0d1074", fontsize="10.00", label="0.77%\n640000000×", labeldistance="0.50", penwidth="0.50"];
	20 -> 17 [arrowsize="0.35", color="#0d1074", fontcolor="#0d1074", fontsize="10.00", label="0.69%\n480000000×", labeldistance="0.50", penwidth="0.50"];
	20 -> 32 [arrowsize="0.35", color="#0d1074", fontcolor="#0d1074", fontsize="10.00", label="0.86%\n160000000×", labeldistance="0.50", penwidth="0.50"];
	21 [color="#0d1776", fontcolor="#ffffff", fontsize="10.00", label="vec3::operator[](int)\n2.54%\n(2.54%)\n26647896720×"];
	22 [color="#0d1475", fontcolor="#ffffff", fontsize="10.00", label="ray::ray(vec3 const&, vec3 const&)\n1.72%\n(1.54%)\n5030622740×"];
	22 -> 23 [arrowsize="0.35", color="#0d0d73", fontcolor="#0d0d73", fontsize="10.00", label="0.18%\n1471310888×", labeldistance="0.50", penwidth="0.50"];
	23 [color="#0d1375", fontcolor="#ffffff", fontsize="10.00", label="vec3::vec3()\n1.56%\n(1.56%)\n13087020386×"];
	24 [color="#0d1375", fontcolor="#ffffff", fontsize="10.00", label="vec3::y() const\n1.51%\n(1.51%)\n14306283696×"];
	25 [color="#0d1375", fontcolor="#ffffff", fontsize="10.00", label="hit_record::hit_record()\n1.46%\n(0.50%)\n4024498192×"];
	25 -> 23 [arrowsize="0.35", color="#0d1174", fontcolor="#0d1174", fontsize="10.00", label="0.96%\n8048996384×", labeldistance="0.50", penwidth="0.50"];
	26 [color="#0d1274", fontcolor="#ffffff", fontsize="10.00", label="vec3::x() const\n1.36%\n(1.36%)\n11393481302×"];
	27 [color="#0d1274", fontcolor="#ffffff", fontsize="10.00", label="vec3::z() const\n1.32%\n(1.32%)\n11526951890×"];
	28 [color="#0d1274", fontcolor="#ffffff", fontsize="10.00", label="vec3::operator-() const\n1.31%\n(1.11%)\n611136263×"];
	28 -> 19 [arrowsize="0.35", color="#0d0e73", fontcolor="#0d0e73", fontsize="10.00", label="0.19%\n611136263×", labeldistance="0.50", penwidth="0.50"];
	29 [color="#0d1274", fontcolor="#ffffff", fontsize="10.00", label="operator*(vec3 const&, vec3 const&)\n1.28%\n(1.01%)\n846124548×"];
	29 -> 19 [arrowsize="0.35", color="#0d0e73", fontcolor="#0d0e73", fontsize="10.00", label="0.26%\n846124548×", labeldistance="0.50", penwidth="0.50"];
	30 [color="#0d1274", fontcolor="#ffffff", fontsize="10.00", label="material::emitted(float, float, vec3 const&) const\n1.16%\n(0.90%)\n846271183×"];
	30 -> 19 [arrowsize="0.35", color="#0d0e73", fontcolor="#0d0e73", fontsize="10.00", label="0.26%\n846271183×", labeldistance="0.50", penwidth="0.50"];
	31 [color="#0d1174", fontcolor="#ffffff", fontsize="10.00", label="box::hit(ray const&, float, float, hit_record&) const\n0.92%\n(0.92%)\n2012249096×"];
	31 -> 4 [arrowsize="0.35", color="#0d1174", fontcolor="#0d1174", fontsize="10.00", label="2012249096×", labeldistance="0.50", penwidth="0.50"];
	32 [color="#0d1074", fontcolor="#ffffff", fontsize="10.00", label="random_in_unit_disk()\n0.86%\n(0.14%)\n160000000×"];
	32 -> 15 [arrowsize="0.35", color="#0d0e73", fontcolor="#0d0e73", fontsize="10.00", label="0.23%\n203727513×", labeldistance="0.50", penwidth="0.50"];
	32 -> 17 [arrowsize="0.35", color="#0d0e73", fontcolor="#0d0e73", fontsize="10.00", label="0.29%\n203727513×", labeldistance="0.50", penwidth="0.50"];
	32 -> 19 [arrowsize="0.35", color="#0d0d73", fontcolor="#0d0d73", fontsize="10.00", label="0.13%\n407455026×", labeldistance="0.50", penwidth="0.50"];
	33 [color="#0d0f74", fontcolor="#ffffff", fontsize="10.00", label="camera::camera(vec3, vec3, vec3, float, float, float, float)\n0.65%\n(0.00%)\n1×"];
	33 -> 34 [arrowsize="0.35", color="#0d0f74", fontcolor="#0d0f74", fontsize="10.00", label="0.64%\n1×", labeldistance="0.50", penwidth="0.50"];
	34 [color="#0d0f74", fontcolor="#ffffff", fontsize="10.00", label="std::tan(float)\n0.64%\n(0.64%)\n1×"];
	35 [color="#0d0f74", fontcolor="#ffffff", fontsize="10.00", label="cornell_box()\n0.61%\n(0.00%)\n1×"];
}
