Flat profile:

Each sample counts as 0.01 seconds.
  %   cumulative   self              self     total           
 time   seconds   seconds    calls   s/call   s/call  name    
 11.85    131.73   131.73 30526852990     0.00     0.00  ray::origin() const
  9.95    242.33   110.60 3018373644     0.00     0.00  hitable_list::hit(ray const&, float, float, hit_record&) const
  8.56    337.43    95.10 30526852990     0.00     0.00  ray::direction() const
  7.44    420.10    82.68 6036747288     0.00     0.00  yz_rect::hit(ray const&, float, float, hit_record&) const
  6.89    496.68    76.57 7042871836     0.00     0.00  xz_rect::hit(ray const&, float, float, hit_record&) const
  5.42    556.86    60.19 4998076913     0.00     0.00  operator-(vec3 const&, vec3 const&)
  5.17    614.32    57.46 4313632979     0.00     0.00  operator+(vec3 const&, vec3 const&)
  5.00    669.92    55.60 2012249096     0.00     0.00  rotate_y::hit(ray const&, float, float, hit_record&) const
  4.97    725.21    55.28 5030622740     0.00     0.00  xy_rect::hit(ray const&, float, float, hit_record&) const
  3.88    768.29    43.08 3434962605     0.00     0.00  operator*(float, vec3 const&)
  3.85    811.04    42.76 465186340     0.00     0.00  flip_normal::hit(ray const&, float, float, hit_record&) const
  3.65    851.66    40.62 11707851409     0.00     0.00  vec3::vec3(float, float, float)
  2.54    879.94    28.28 26647896720     0.00     0.00  vec3::operator[](int)
  1.56    897.32    17.38 13087020386     0.00     0.00  vec3::vec3()
  1.54    914.47    17.15 5030622740     0.00     0.00  ray::ray(vec3 const&, vec3 const&)
  1.51    931.25    16.78 14306283696     0.00     0.00  vec3::y() const
  1.48    947.69    16.44 2012249096     0.00     0.00  translate::hit(ray const&, float, float, hit_record&) const
  1.37    962.86    15.17 11393481302     0.00     0.00  vec3::x() const
  1.32    977.50    14.64 11526951890     0.00     0.00  vec3::z() const
  1.23    991.14    13.64 846124548     0.00     0.00  random_in_unit_sphere()
  1.22   1004.74    13.60 160000000     0.00     0.00  color(ray const&, hitable*, int)
  1.11   1017.13    12.39 611136263     0.00     0.00  vec3::operator-() const
  1.07   1029.01    11.88 846124548     0.00     0.00  lambertian::scatter(ray const&, hit_record const&, vec3&, ray&) const
  1.01   1040.26    11.24 846124548     0.00     0.00  operator*(vec3 const&, vec3 const&)
  0.92   1050.49    10.23 2012249096     0.00     0.00  box::hit(ray const&, float, float, hit_record&) const
  0.90   1060.48     9.99 846271183     0.00     0.00  material::emitted(float, float, vec3 const&) const
  0.73   1068.64     8.16 1135259335     0.00     0.00  ray::point_at_parameter(float) const
  0.64   1075.77     7.13        1     7.13     7.13  std::tan(float)
  0.50   1081.28     5.51 4024498192     0.00     0.00  hit_record::hit_record()
  0.45   1086.26     4.98 1819703265     0.00     0.00  dot(vec3 const&, vec3 const&)
  0.33   1089.89     3.63 320000000     0.00     0.00  operator*(vec3 const&, float)
  0.31   1093.37     3.48        9     0.39     0.39  flip_normal::flip_normal(hitable*)
  0.26   1096.26     2.89                             refract(vec3 const&, vec3 const&, float, vec3&)
  0.23   1098.79     2.53 160000000     0.00     0.00  camera::get_ray(float, float)
  0.20   1101.05     2.26 853529433     0.00     0.00  ray::ray()
  0.18   1103.06     2.01 853382798     0.00     0.00  constant_texture::value(float, float, vec3 const&) const
  0.16   1104.81     1.75        3     0.58     0.58  hitable_list::hitable_list(hitable**, int)
  0.14   1106.42     1.61 160000000     0.00     0.00  random_in_unit_disk()
  0.12   1107.77     1.35                             main
  0.09   1108.75     0.99 368328964     0.00     0.00  vec3::operator+=(vec3 const&)
  0.06   1109.45     0.70        2     0.35     2.09  box::box(vec3 const&, vec3 const&, material*)
  0.04   1109.89     0.44        2     0.22     0.22  rotate_y::rotate_y(hitable*, float)
  0.04   1110.28     0.39        3     0.13     0.13  lambertian::lambertian(texture*)
  0.02   1110.55     0.27                             frame_dummy
  0.02   1110.81     0.26        3     0.09     0.09  perlin_generate_perm()
  0.02   1111.03     0.22      259     0.00     0.00  vec3::length() const
  0.02   1111.23     0.20      259     0.00     0.00  unit_vector(vec3)
  0.01   1111.37     0.15                             reflect(vec3 const&, vec3 const&)
  0.01   1111.46     0.09  7258250     0.00     0.00  diffuse_light::emitted(float, float, vec3 const&) const
  0.01   1111.53     0.07      259     0.00     0.00  operator/(vec3, float)
  0.00   1111.57     0.05        2     0.02     0.02  cross(vec3 const&, vec3 const&)
  0.00   1111.61     0.04        1     0.04     7.22  camera::camera(vec3, vec3, vec3, float, float, float, float)
  0.00   1111.61     0.00  7257108     0.00     0.00  diffuse_light::scatter(ray const&, hit_record const&, vec3&, ray&) const
  0.00   1111.61     0.00   480259     0.00     0.00  std::sqrt(float)
  0.00   1111.61     0.00   160000     0.00     0.00  vec3::operator/=(float)
  0.00   1111.61     0.00       36     0.00     0.00  hitable::hitable()
  0.00   1111.61     0.00        7     0.00     0.00  xz_rect::xz_rect(float, float, float, float, float, material*)
  0.00   1111.61     0.00        6     0.00     0.00  yz_rect::yz_rect(float, float, float, float, float, material*)
  0.00   1111.61     0.00        5     0.00     0.00  xy_rect::xy_rect(float, float, float, float, float, material*)
  0.00   1111.61     0.00        4     0.00     0.00  constant_texture::constant_texture(vec3)
  0.00   1111.61     0.00        4     0.00     0.00  texture::texture()
  0.00   1111.61     0.00        4     0.00     0.00  material::material()
  0.00   1111.61     0.00        3     0.00     0.00  permute(int*, int)
  0.00   1111.61     0.00        3     0.00     0.00  std::chrono::duration<long, std::ratio<1l, 1000000000l> >::count() const
  0.00   1111.61     0.00        2     0.00     0.00  translate::translate(hitable*, vec3 const&)
  0.00   1111.61     0.00        2     0.00     0.00  std::chrono::time_point<std::chrono::_V2::system_clock, std::chrono::duration<long, std::ratio<1l, 1000000000l> > >::time_since_epoch() const
  0.00   1111.61     0.00        2     0.00     0.00  std::chrono::duration<double, std::ratio<1l, 1000l> >::count() const
  0.00   1111.61     0.00        2     0.00     0.00  std::cos(float)
  0.00   1111.61     0.00        2     0.00     0.00  std::sin(float)
  0.00   1111.61     0.00        1     0.00     0.73  _GLOBAL__sub_I__ZNK12hitable_list3hitERK3rayffR10hit_record
  0.00   1111.61     0.00        1     0.00     6.76  cornell_box()
  0.00   1111.61     0.00        1     0.00     0.73  __static_initialization_and_destruction_0(int, int)
  0.00   1111.61     0.00        1     0.00     0.47  perlin_generate()
  0.00   1111.61     0.00        1     0.00     0.00  diffuse_light::diffuse_light(texture*)
  0.00   1111.61     0.00        1     0.00     0.00  std::enable_if<std::chrono::__is_duration<std::chrono::duration<double, std::ratio<1l, 1000l> > >::value, std::chrono::duration<double, std::ratio<1l, 1000l> > >::type std::chrono::duration_cast<std::chrono::duration<double, std::ratio<1l, 1000l> >, long, std::ratio<1l, 1000000000l> >(std::chrono::duration<long, std::ratio<1l, 1000000000l> > const&)
  0.00   1111.61     0.00        1     0.00     0.00  std::chrono::duration<double, std::ratio<1l, 1000l> > std::chrono::__duration_cast_impl<std::chrono::duration<double, std::ratio<1l, 1000l> >, std::ratio<1l, 1000000l>, double, true, false>::__cast<long, std::ratio<1l, 1000000000l> >(std::chrono::duration<long, std::ratio<1l, 1000000000l> > const&)
  0.00   1111.61     0.00        1     0.00     0.00  std::chrono::duration<double, std::ratio<1l, 1000l> >::duration<double, void>(double const&)
  0.00   1111.61     0.00        1     0.00     0.00  std::chrono::duration<double, std::ratio<1l, 1000l> >::duration<long, std::ratio<1l, 1000000000l>, void>(std::chrono::duration<long, std::ratio<1l, 1000000000l> > const&)
  0.00   1111.61     0.00        1     0.00     0.00  std::chrono::duration<long, std::ratio<1l, 1000000000l> >::duration<long, void>(long const&)
  0.00   1111.61     0.00        1     0.00     0.00  std::common_type<std::chrono::duration<long, std::ratio<1l, 1000000000l> >, std::chrono::duration<long, std::ratio<1l, 1000000000l> > >::type std::chrono::operator-<std::chrono::_V2::system_clock, std::chrono::duration<long, std::ratio<1l, 1000000000l> >, std::chrono::duration<long, std::ratio<1l, 1000000000l> > >(std::chrono::time_point<std::chrono::_V2::system_clock, std::chrono::duration<long, std::ratio<1l, 1000000000l> > > const&, std::chrono::time_point<std::chrono::_V2::system_clock, std::chrono::duration<long, std::ratio<1l, 1000000000l> > > const&)
  0.00   1111.61     0.00        1     0.00     0.00  std::common_type<std::chrono::duration<long, std::ratio<1l, 1000000000l> >, std::chrono::duration<long, std::ratio<1l, 1000000000l> > >::type std::chrono::operator-<long, std::ratio<1l, 1000000000l>, long, std::ratio<1l, 1000000000l> >(std::chrono::duration<long, std::ratio<1l, 1000000000l> > const&, std::chrono::duration<long, std::ratio<1l, 1000000000l> > const&)

 %         the percentage of the total running time of the
time       program used by this function.

cumulative a running sum of the number of seconds accounted
 seconds   for by this function and those listed above it.

 self      the number of seconds accounted for by this
seconds    function alone.  This is the major sort for this
           listing.

calls      the number of times this function was invoked, if
           this function is profiled, else blank.

 self      the average number of milliseconds spent in this
ms/call    function per call, if this function is profiled,
	   else blank.

 total     the average number of milliseconds spent in this
ms/call    function and its descendents per call, if this
	   function is profiled, else blank.

name       the name of the function.  This is the minor sort
           for this listing. The index shows the location of
	   the function in the gprof listing. If the index is
	   in parenthesis it shows where it would appear in
	   the gprof listing if it were to be printed.

Copyright (C) 2012-2018 Free Software Foundation, Inc.

Copying and distribution of this file, with or without modification,
are permitted in any medium without royalty provided the copyright
notice and this notice are preserved.

		     Call graph (explanation follows)


granularity: each sample hit covers 2 byte(s) for 0.00% of 1111.61 seconds

index % time    self  children    called     name
                                                 <spontaneous>
[1]     99.6    1.35 1106.22                 main [1]
               13.60 1040.10 160000000/160000000     color(ray const&, hitable*, int) [2]
                2.53   35.58 160000000/160000000     camera::get_ray(float, float) [20]
                0.04    7.18       1/1           camera::camera(vec3, vec3, vec3, float, float, float, float) [33]
                0.00    6.76       1/1           cornell_box() [35]
                0.43    0.00 160000000/368328964     vec3::operator+=(vec3 const&) [44]
                0.00    0.00  320003/11707851409     vec3::vec3(float, float, float) [19]
                0.00    0.00  960000/26647896720     vec3::operator[](int) [21]
                0.00    0.00  480000/480259      std::sqrt(float) [65]
                0.00    0.00  160000/160000      vec3::operator/=(float) [66]
                0.00    0.00       1/1           std::common_type<std::chrono::duration<long, std::ratio<1l, 1000000000l> >, std::chrono::duration<long, std::ratio<1l, 1000000000l> > >::type std::chrono::operator-<std::chrono::_V2::system_clock, std::chrono::duration<long, std::ratio<1l, 1000000000l> >, std::chrono::duration<long, std::ratio<1l, 1000000000l> > >(std::chrono::time_point<std::chrono::_V2::system_clock, std::chrono::duration<long, std::ratio<1l, 1000000000l> > > const&, std::chrono::time_point<std::chrono::_V2::system_clock, std::chrono::duration<long, std::ratio<1l, 1000000000l> > > const&) [87]
                0.00    0.00       1/1           std::chrono::duration<double, std::ratio<1l, 1000l> >::duration<long, std::ratio<1l, 1000000000l>, void>(std::chrono::duration<long, std::ratio<1l, 1000000000l> > const&) [85]
                0.00    0.00       1/2           std::chrono::duration<double, std::ratio<1l, 1000l> >::count() const [78]
-----------------------------------------------
                             846124548             color(ray const&, hitable*, int) [2]
               13.60 1040.10 160000000/160000000     main [1]
[2]     94.8   13.60 1040.10 160000000+846124548 color(ray const&, hitable*, int) [2]
              192.87  671.71 1006124548/1006124548     hitable_list::hit(ray const&, float, float, hit_record&) const <cycle 1> [4]
               11.88  114.89 846124548/846124548     lambertian::scatter(ray const&, hit_record const&, vec3&, ray&) const [10]
               11.24    2.94 846124548/846124548     operator*(vec3 const&, vec3 const&) [29]
                9.99    2.94 846271183/846271183     material::emitted(float, float, vec3 const&) const [30]
               11.27    0.01 846124548/4313632979     operator+(vec3 const&, vec3 const&) [16]
                2.26    2.27 853529433/853529433     ray::ray() [38]
                1.38    2.67 1006124548/4024498192     hit_record::hit_record() [25]
                1.13    0.00 853529433/13087020386     vec3::vec3() [23]
                0.53    0.00 152595115/11707851409     vec3::vec3(float, float, float) [19]
                0.09    0.02 7258250/7258250     diffuse_light::emitted(float, float, vec3 const&) const [56]
                0.00    0.00 7257108/7257108     diffuse_light::scatter(ray const&, hit_record const&, vec3&, ray&) const [64]
                             846124548             color(ray const&, hitable*, int) [2]
-----------------------------------------------
[3]     77.8  192.87  671.71 1006124548+8048996384 <cycle 1 as a whole> [3]
              110.60  512.68 3018373644             hitable_list::hit(ray const&, float, float, hit_record&) const <cycle 1> [4]
               55.60  110.67 2012249096             rotate_y::hit(ray const&, float, float, hit_record&) const <cycle 1> [7]
               16.44   48.36 2012249096             translate::hit(ray const&, float, float, hit_record&) const <cycle 1> [14]
               10.23    0.00 2012249096             box::hit(ray const&, float, float, hit_record&) const <cycle 1> [31]
-----------------------------------------------
                             2012249096             box::hit(ray const&, float, float, hit_record&) const <cycle 1> [31]
              192.87  671.71 1006124548/1006124548     color(ray const&, hitable*, int) [2]
[4]     56.1  110.60  512.68 3018373644         hitable_list::hit(ray const&, float, float, hit_record&) const <cycle 1> [4]
               42.76  235.18 465186340/465186340     flip_normal::hit(ray const&, float, float, hit_record&) const [5]
               43.76   49.75 4024498192/7042871836     xz_rect::hit(ray const&, float, float, hit_record&) const [8]
               41.34   44.84 3018373644/6036747288     yz_rect::hit(ray const&, float, float, hit_record&) const [6]
               22.11   20.79 2012249096/5030622740     xy_rect::hit(ray const&, float, float, hit_record&) const [11]
                4.13    8.02 3018373644/4024498192     hit_record::hit_record() [25]
                             2012249096             translate::hit(ray const&, float, float, hit_record&) const <cycle 1> [14]
-----------------------------------------------
               42.76  235.18 465186340/465186340     hitable_list::hit(ray const&, float, float, hit_record&) const <cycle 1> [4]
[5]     25.0   42.76  235.18 465186340         flip_normal::hit(ray const&, float, float, hit_record&) const [5]
               41.34   44.84 3018373644/6036747288     yz_rect::hit(ray const&, float, float, hit_record&) const [6]
               32.82   37.32 3018373644/7042871836     xz_rect::hit(ray const&, float, float, hit_record&) const [8]
               33.17   31.19 3018373644/5030622740     xy_rect::hit(ray const&, float, float, hit_record&) const [11]
               12.39    2.12 611136263/611136263     vec3::operator-() const [28]
-----------------------------------------------
               41.34   44.84 3018373644/6036747288     hitable_list::hit(ray const&, float, float, hit_record&) const <cycle 1> [4]
               41.34   44.84 3018373644/6036747288     flip_normal::hit(ray const&, float, float, hit_record&) const [5]
[6]     15.5   82.68   89.67 6036747288         yz_rect::hit(ray const&, float, float, hit_record&) const [6]
               31.15    0.00 7219877132/30526852990     ray::origin() const [9]
               22.49    0.00 7219877132/30526852990     ray::direction() const [12]
                3.24   13.21 450113722/1135259335     ray::point_at_parameter(float) const [18]
                6.96    0.00 5478097140/11526951890     vec3::z() const [27]
                6.42    0.00 5478097140/14306283696     vec3::y() const [24]
                4.64    0.00 3483559984/11393481302     vec3::x() const [26]
                1.56    0.00 450113722/11707851409     vec3::vec3(float, float, float) [19]
-----------------------------------------------
                             2012249096             translate::hit(ray const&, float, float, hit_record&) const <cycle 1> [14]
[7]     15.0   55.60  110.67 2012249096         rotate_y::hit(ray const&, float, float, hit_record&) const <cycle 1> [7]
               43.42    0.00 10061245480/30526852990     ray::origin() const [9]
               31.34    0.00 10061245480/30526852990     ray::direction() const [12]
               28.27    0.00 26646936720/26647896720     vec3::operator[](int) [21]
                6.86    0.78 2012249096/5030622740     ray::ray(vec3 const&, vec3 const&) [22]
                             2012249096             box::hit(ray const&, float, float, hit_record&) const <cycle 1> [31]
-----------------------------------------------
               32.82   37.32 3018373644/7042871836     flip_normal::hit(ray const&, float, float, hit_record&) const [5]
               43.76   49.75 4024498192/7042871836     hitable_list::hit(ray const&, float, float, hit_record&) const <cycle 1> [4]
[8]     14.7   76.57   87.07 7042871836         xz_rect::hit(ray const&, float, float, hit_record&) const [8]
               31.61    0.00 7325448382/30526852990     ray::origin() const [9]
               22.82    0.00 7325448382/30526852990     ray::direction() const [12]
                2.57   10.48 357054650/1135259335     ray::point_at_parameter(float) const [18]
                6.45    0.00 5495809080/14306283696     vec3::y() const [24]
                6.10    0.00 4577543842/11393481302     vec3::x() const [26]
                5.81    0.00 4577543842/11526951890     vec3::z() const [27]
                1.24    0.00 357054650/11707851409     vec3::vec3(float, float, float) [19]
-----------------------------------------------
                8.68    0.00 2012249096/30526852990     translate::hit(ray const&, float, float, hit_record&) const <cycle 1> [14]
               16.86    0.00 3908032900/30526852990     xy_rect::hit(ray const&, float, float, hit_record&) const [11]
               31.15    0.00 7219877132/30526852990     yz_rect::hit(ray const&, float, float, hit_record&) const [6]
               31.61    0.00 7325448382/30526852990     xz_rect::hit(ray const&, float, float, hit_record&) const [8]
               43.42    0.00 10061245480/30526852990     rotate_y::hit(ray const&, float, float, hit_record&) const <cycle 1> [7]
[9]     11.9  131.73    0.00 30526852990         ray::origin() const [9]
-----------------------------------------------
               11.88  114.89 846124548/846124548     color(ray const&, hitable*, int) [2]
[10]    11.4   11.88  114.89 846124548         lambertian::scatter(ray const&, hit_record const&, vec3&, ray&) const [10]
               13.64   62.88 846124548/846124548     random_in_unit_sphere() [13]
               22.54    0.03 1692249096/4313632979     operator+(vec3 const&, vec3 const&) [16]
               10.19    0.41 846124548/4998076913     operator-(vec3 const&, vec3 const&) [15]
                2.88    0.33 846124548/5030622740     ray::ray(vec3 const&, vec3 const&) [22]
                1.99    0.00 846124548/853382798     constant_texture::value(float, float, vec3 const&) const [42]
-----------------------------------------------
               22.11   20.79 2012249096/5030622740     hitable_list::hit(ray const&, float, float, hit_record&) const <cycle 1> [4]
               33.17   31.19 3018373644/5030622740     flip_normal::hit(ray const&, float, float, hit_record&) const [5]
[11]     9.6   55.28   51.98 5030622740         xy_rect::hit(ray const&, float, float, hit_record&) const [11]
               16.86    0.00 3908032900/30526852990     ray::origin() const [9]
               12.17    0.00 3908032900/30526852990     ray::direction() const [12]
                2.36    9.63 328090963/1135259335     ray::point_at_parameter(float) const [18]
                4.22    0.00 3172377456/11393481302     vec3::x() const [26]
                3.72    0.00 3172377456/14306283696     vec3::y() const [24]
                1.87    0.00 1471310888/11526951890     vec3::z() const [27]
                1.14    0.00 328090963/11707851409     vec3::vec3(float, float, float) [19]
-----------------------------------------------
                6.27    0.00 2012249096/30526852990     translate::hit(ray const&, float, float, hit_record&) const <cycle 1> [14]
               12.17    0.00 3908032900/30526852990     xy_rect::hit(ray const&, float, float, hit_record&) const [11]
               22.49    0.00 7219877132/30526852990     yz_rect::hit(ray const&, float, float, hit_record&) const [6]
               22.82    0.00 7325448382/30526852990     xz_rect::hit(ray const&, float, float, hit_record&) const [8]
               31.34    0.00 10061245480/30526852990     rotate_y::hit(ray const&, float, float, hit_record&) const <cycle 1> [7]
[12]     8.6   95.10    0.00 30526852990         ray::direction() const [12]
-----------------------------------------------
               13.64   62.88 846124548/846124548     lambertian::scatter(ray const&, hit_record const&, vec3&, ray&) const [10]
[13]     6.9   13.64   62.88 846124548         random_in_unit_sphere() [13]
               20.27    5.61 1615975752/3434962605     operator*(float, vec3 const&) [17]
               19.46    0.79 1615975752/4998076913     operator-(vec3 const&, vec3 const&) [15]
               11.21    0.00 3231951504/11707851409     vec3::vec3(float, float, float) [19]
                4.42    0.00 1615975752/1819703265     dot(vec3 const&, vec3 const&) [36]
                1.12    0.00 846124548/13087020386     vec3::vec3() [23]
-----------------------------------------------
                             2012249096             hitable_list::hit(ray const&, float, float, hit_record&) const <cycle 1> [4]
[14]     5.8   16.44   48.36 2012249096         translate::hit(ray const&, float, float, hit_record&) const <cycle 1> [14]
               24.23    0.98 2012249096/4998076913     operator-(vec3 const&, vec3 const&) [15]
                8.68    0.00 2012249096/30526852990     ray::origin() const [9]
                6.86    0.78 2012249096/5030622740     ray::ray(vec3 const&, vec3 const&) [22]
                6.27    0.00 2012249096/30526852990     ray::direction() const [12]
                0.56    0.00 208328964/368328964     vec3::operator+=(vec3 const&) [44]
                             2012249096             rotate_y::hit(ray const&, float, float, hit_record&) const <cycle 1> [7]
-----------------------------------------------
                0.00    0.00       4/4998076913     camera::camera(vec3, vec3, vec3, float, float, float, float) [33]
                2.45    0.10 203727513/4998076913     random_in_unit_disk() [32]
                3.85    0.16 320000000/4998076913     camera::get_ray(float, float) [20]
               10.19    0.41 846124548/4998076913     lambertian::scatter(ray const&, hit_record const&, vec3&, ray&) const [10]
               19.46    0.79 1615975752/4998076913     random_in_unit_sphere() [13]
               24.23    0.98 2012249096/4998076913     translate::hit(ray const&, float, float, hit_record&) const <cycle 1> [14]
[15]     5.6   60.19    2.44 4998076913         operator-(vec3 const&, vec3 const&) [15]
                2.44    0.00 703109617/11707851409     vec3::vec3(float, float, float) [19]
-----------------------------------------------
                8.53    0.01 640000000/4313632979     camera::get_ray(float, float) [20]
               11.27    0.01 846124548/4313632979     color(ray const&, hitable*, int) [2]
               15.12    0.02 1135259335/4313632979     ray::point_at_parameter(float) const [18]
               22.54    0.03 1692249096/4313632979     lambertian::scatter(ray const&, hit_record const&, vec3&, ray&) const [10]
[16]     5.2   57.46    0.06 4313632979         operator+(vec3 const&, vec3 const&) [16]
                0.06    0.00 18665683/11707851409     vec3::vec3(float, float, float) [19]
-----------------------------------------------
                0.00    0.00       5/3434962605     camera::camera(vec3, vec3, vec3, float, float, float, float) [33]
                2.55    0.71 203727513/3434962605     random_in_unit_disk() [32]
                6.02    1.67 480000000/3434962605     camera::get_ray(float, float) [20]
               14.24    3.94 1135259335/3434962605     ray::point_at_parameter(float) const [18]
               20.27    5.61 1615975752/3434962605     random_in_unit_sphere() [13]
[17]     4.9   43.08   11.92 3434962605         operator*(float, vec3 const&) [17]
               11.92    0.00 3434962605/11707851409     vec3::vec3(float, float, float) [19]
-----------------------------------------------
                2.36    9.63 328090963/1135259335     xy_rect::hit(ray const&, float, float, hit_record&) const [11]
                2.57   10.48 357054650/1135259335     xz_rect::hit(ray const&, float, float, hit_record&) const [8]
                3.24   13.21 450113722/1135259335     yz_rect::hit(ray const&, float, float, hit_record&) const [6]
[18]     3.7    8.16   33.32 1135259335         ray::point_at_parameter(float) const [18]
               14.24    3.94 1135259335/3434962605     operator*(float, vec3 const&) [17]
               15.12    0.02 1135259335/4313632979     operator+(vec3 const&, vec3 const&) [16]
-----------------------------------------------
                0.00    0.00       2/11707851409     cross(vec3 const&, vec3 const&) [58]
                0.00    0.00      10/11707851409     cornell_box() [35]
                0.00    0.00     256/11707851409     perlin_generate() [49]
                0.00    0.00     259/11707851409     operator/(vec3, float) [57]
                0.00    0.00  320003/11707851409     main [1]
                0.06    0.00 18665683/11707851409     operator+(vec3 const&, vec3 const&) [16]
                0.53    0.00 152595115/11707851409     color(ray const&, hitable*, int) [2]
                1.11    0.00 320000000/11707851409     operator*(vec3 const&, float) [37]
                1.14    0.00 328090963/11707851409     xy_rect::hit(ray const&, float, float, hit_record&) const [11]
                1.24    0.00 357054650/11707851409     xz_rect::hit(ray const&, float, float, hit_record&) const [8]
                1.41    0.00 407455026/11707851409     random_in_unit_disk() [32]
                1.56    0.00 450113722/11707851409     yz_rect::hit(ray const&, float, float, hit_record&) const [6]
                2.12    0.00 611136263/11707851409     vec3::operator-() const [28]
                2.44    0.00 703109617/11707851409     operator-(vec3 const&, vec3 const&) [15]
                2.94    0.00 846124548/11707851409     operator*(vec3 const&, vec3 const&) [29]
                2.94    0.00 846271183/11707851409     material::emitted(float, float, vec3 const&) const [30]
               11.21    0.00 3231951504/11707851409     random_in_unit_sphere() [13]
               11.92    0.00 3434962605/11707851409     operator*(float, vec3 const&) [17]
[19]     3.7   40.62    0.00 11707851409         vec3::vec3(float, float, float) [19]
-----------------------------------------------
                2.53   35.58 160000000/160000000     main [1]
[20]     3.4    2.53   35.58 160000000         camera::get_ray(float, float) [20]
                1.61    8.00 160000000/160000000     random_in_unit_disk() [32]
                8.53    0.01 640000000/4313632979     operator+(vec3 const&, vec3 const&) [16]
                6.02    1.67 480000000/3434962605     operator*(float, vec3 const&) [17]
                3.63    1.11 320000000/320000000     operator*(vec3 const&, float) [37]
                3.85    0.16 320000000/4998076913     operator-(vec3 const&, vec3 const&) [15]
                0.55    0.06 160000000/5030622740     ray::ray(vec3 const&, vec3 const&) [22]
                0.21    0.00 160000000/11393481302     vec3::x() const [26]
                0.19    0.00 160000000/14306283696     vec3::y() const [24]
-----------------------------------------------
                0.00    0.00  960000/26647896720     main [1]
               28.27    0.00 26646936720/26647896720     rotate_y::hit(ray const&, float, float, hit_record&) const <cycle 1> [7]
[21]     2.5   28.28    0.00 26647896720         vec3::operator[](int) [21]
-----------------------------------------------
                0.55    0.06 160000000/5030622740     camera::get_ray(float, float) [20]
                2.88    0.33 846124548/5030622740     lambertian::scatter(ray const&, hit_record const&, vec3&, ray&) const [10]
                6.86    0.78 2012249096/5030622740     translate::hit(ray const&, float, float, hit_record&) const <cycle 1> [14]
                6.86    0.78 2012249096/5030622740     rotate_y::hit(ray const&, float, float, hit_record&) const <cycle 1> [7]
[22]     1.7   17.15    1.95 5030622740         ray::ray(vec3 const&, vec3 const&) [22]
                1.95    0.00 1471310888/13087020386     vec3::vec3() [23]
-----------------------------------------------
                0.00    0.00       4/13087020386     box::box(vec3 const&, vec3 const&, material*) [39]
                0.00    0.00       7/13087020386     camera::camera(vec3, vec3, vec3, float, float, float, float) [33]
                0.00    0.00     256/13087020386     perlin_generate() [49]
                0.21    0.00 160000000/13087020386     random_in_unit_disk() [32]
                1.12    0.00 846124548/13087020386     random_in_unit_sphere() [13]
                1.13    0.00 853529433/13087020386     color(ray const&, hitable*, int) [2]
                1.95    0.00 1471310888/13087020386     ray::ray(vec3 const&, vec3 const&) [22]
                2.27    0.00 1707058866/13087020386     ray::ray() [38]
               10.69    0.00 8048996384/13087020386     hit_record::hit_record() [25]
[23]     1.6   17.38    0.00 13087020386         vec3::vec3() [23]
-----------------------------------------------
                0.00    0.00      20/14306283696     box::box(vec3 const&, vec3 const&, material*) [39]
                0.19    0.00 160000000/14306283696     camera::get_ray(float, float) [20]
                3.72    0.00 3172377456/14306283696     xy_rect::hit(ray const&, float, float, hit_record&) const [11]
                6.42    0.00 5478097140/14306283696     yz_rect::hit(ray const&, float, float, hit_record&) const [6]
                6.45    0.00 5495809080/14306283696     xz_rect::hit(ray const&, float, float, hit_record&) const [8]
[24]     1.5   16.78    0.00 14306283696         vec3::y() const [24]
-----------------------------------------------
                1.38    2.67 1006124548/4024498192     color(ray const&, hitable*, int) [2]
                4.13    8.02 3018373644/4024498192     hitable_list::hit(ray const&, float, float, hit_record&) const <cycle 1> [4]
[25]     1.5    5.51   10.69 4024498192         hit_record::hit_record() [25]
               10.69    0.00 8048996384/13087020386     vec3::vec3() [23]
-----------------------------------------------
                0.00    0.00      20/11393481302     box::box(vec3 const&, vec3 const&, material*) [39]
                0.21    0.00 160000000/11393481302     camera::get_ray(float, float) [20]
                4.22    0.00 3172377456/11393481302     xy_rect::hit(ray const&, float, float, hit_record&) const [11]
                4.64    0.00 3483559984/11393481302     yz_rect::hit(ray const&, float, float, hit_record&) const [6]
                6.10    0.00 4577543842/11393481302     xz_rect::hit(ray const&, float, float, hit_record&) const [8]
[26]     1.4   15.17    0.00 11393481302         vec3::x() const [26]
-----------------------------------------------
                0.00    0.00      20/11526951890     box::box(vec3 const&, vec3 const&, material*) [39]
                1.87    0.00 1471310888/11526951890     xy_rect::hit(ray const&, float, float, hit_record&) const [11]
                5.81    0.00 4577543842/11526951890     xz_rect::hit(ray const&, float, float, hit_record&) const [8]
                6.96    0.00 5478097140/11526951890     yz_rect::hit(ray const&, float, float, hit_record&) const [6]
[27]     1.3   14.64    0.00 11526951890         vec3::z() const [27]
-----------------------------------------------
               12.39    2.12 611136263/611136263     flip_normal::hit(ray const&, float, float, hit_record&) const [5]
[28]     1.3   12.39    2.12 611136263         vec3::operator-() const [28]
                2.12    0.00 611136263/11707851409     vec3::vec3(float, float, float) [19]
-----------------------------------------------
               11.24    2.94 846124548/846124548     color(ray const&, hitable*, int) [2]
[29]     1.3   11.24    2.94 846124548         operator*(vec3 const&, vec3 const&) [29]
                2.94    0.00 846124548/11707851409     vec3::vec3(float, float, float) [19]
-----------------------------------------------
                9.99    2.94 846271183/846271183     color(ray const&, hitable*, int) [2]
[30]     1.2    9.99    2.94 846271183         material::emitted(float, float, vec3 const&) const [30]
                2.94    0.00 846271183/11707851409     vec3::vec3(float, float, float) [19]
-----------------------------------------------
                             2012249096             rotate_y::hit(ray const&, float, float, hit_record&) const <cycle 1> [7]
[31]     0.9   10.23    0.00 2012249096         box::hit(ray const&, float, float, hit_record&) const <cycle 1> [31]
                             2012249096             hitable_list::hit(ray const&, float, float, hit_record&) const <cycle 1> [4]
-----------------------------------------------
                1.61    8.00 160000000/160000000     camera::get_ray(float, float) [20]
[32]     0.9    1.61    8.00 160000000         random_in_unit_disk() [32]
                2.55    0.71 203727513/3434962605     operator*(float, vec3 const&) [17]
                2.45    0.10 203727513/4998076913     operator-(vec3 const&, vec3 const&) [15]
                1.41    0.00 407455026/11707851409     vec3::vec3(float, float, float) [19]
                0.56    0.00 203727513/1819703265     dot(vec3 const&, vec3 const&) [36]
                0.21    0.00 160000000/13087020386     vec3::vec3() [23]
-----------------------------------------------
                0.04    7.18       1/1           main [1]
[33]     0.6    0.04    7.18       1         camera::camera(vec3, vec3, vec3, float, float, float, float) [33]
                7.13    0.00       1/1           std::tan(float) [34]
                0.05    0.00       2/2           cross(vec3 const&, vec3 const&) [58]
                0.00    0.00       3/259         unit_vector(vec3) [48]
                0.00    0.00       5/3434962605     operator*(float, vec3 const&) [17]
                0.00    0.00       4/4998076913     operator-(vec3 const&, vec3 const&) [15]
                0.00    0.00       7/13087020386     vec3::vec3() [23]
-----------------------------------------------
                7.13    0.00       1/1           camera::camera(vec3, vec3, vec3, float, float, float, float) [33]
[34]     0.6    7.13    0.00       1         std::tan(float) [34]
-----------------------------------------------
                0.00    6.76       1/1           main [1]
[35]     0.6    0.00    6.76       1         cornell_box() [35]
                0.70    3.49       2/2           box::box(vec3 const&, vec3 const&, material*) [39]
                1.16    0.00       3/9           flip_normal::flip_normal(hitable*) [40]
                0.58    0.00       1/3           hitable_list::hitable_list(hitable**, int) [43]
                0.44    0.00       2/2           rotate_y::rotate_y(hitable*, float) [50]
                0.39    0.00       3/3           lambertian::lambertian(texture*) [51]
                0.00    0.00      10/11707851409     vec3::vec3(float, float, float) [19]
                0.00    0.00       4/4           constant_texture::constant_texture(vec3) [71]
                0.00    0.00       3/7           xz_rect::xz_rect(float, float, float, float, float, material*) [68]
                0.00    0.00       2/6           yz_rect::yz_rect(float, float, float, float, float, material*) [69]
                0.00    0.00       2/2           translate::translate(hitable*, vec3 const&) [76]
                0.00    0.00       1/1           diffuse_light::diffuse_light(texture*) [81]
                0.00    0.00       1/5           xy_rect::xy_rect(float, float, float, float, float, material*) [70]
-----------------------------------------------
                0.56    0.00 203727513/1819703265     random_in_unit_disk() [32]
                4.42    0.00 1615975752/1819703265     random_in_unit_sphere() [13]
[36]     0.4    4.98    0.00 1819703265         dot(vec3 const&, vec3 const&) [36]
-----------------------------------------------
                3.63    1.11 320000000/320000000     camera::get_ray(float, float) [20]
[37]     0.4    3.63    1.11 320000000         operator*(vec3 const&, float) [37]
                1.11    0.00 320000000/11707851409     vec3::vec3(float, float, float) [19]
-----------------------------------------------
                2.26    2.27 853529433/853529433     color(ray const&, hitable*, int) [2]
[38]     0.4    2.26    2.27 853529433         ray::ray() [38]
                2.27    0.00 1707058866/13087020386     vec3::vec3() [23]
-----------------------------------------------
                0.70    3.49       2/2           cornell_box() [35]
[39]     0.4    0.70    3.49       2         box::box(vec3 const&, vec3 const&, material*) [39]
                2.32    0.00       6/9           flip_normal::flip_normal(hitable*) [40]
                1.17    0.00       2/3           hitable_list::hitable_list(hitable**, int) [43]
                0.00    0.00      20/11393481302     vec3::x() const [26]
                0.00    0.00      20/11526951890     vec3::z() const [27]
                0.00    0.00      20/14306283696     vec3::y() const [24]
                0.00    0.00       4/13087020386     vec3::vec3() [23]
                0.00    0.00       4/5           xy_rect::xy_rect(float, float, float, float, float, material*) [70]
                0.00    0.00       4/7           xz_rect::xz_rect(float, float, float, float, float, material*) [68]
                0.00    0.00       4/6           yz_rect::yz_rect(float, float, float, float, float, material*) [69]
                0.00    0.00       2/36          hitable::hitable() [67]
-----------------------------------------------
                1.16    0.00       3/9           cornell_box() [35]
                2.32    0.00       6/9           box::box(vec3 const&, vec3 const&, material*) [39]
[40]     0.3    3.48    0.00       9         flip_normal::flip_normal(hitable*) [40]
                0.00    0.00       9/36          hitable::hitable() [67]
-----------------------------------------------
                                                 <spontaneous>
[41]     0.3    2.89    0.00                 refract(vec3 const&, vec3 const&, float, vec3&) [41]
-----------------------------------------------
                0.02    0.00 7258250/853382798     diffuse_light::emitted(float, float, vec3 const&) const [56]
                1.99    0.00 846124548/853382798     lambertian::scatter(ray const&, hit_record const&, vec3&, ray&) const [10]
[42]     0.2    2.01    0.00 853382798         constant_texture::value(float, float, vec3 const&) const [42]
-----------------------------------------------
                0.58    0.00       1/3           cornell_box() [35]
                1.17    0.00       2/3           box::box(vec3 const&, vec3 const&, material*) [39]
[43]     0.2    1.75    0.00       3         hitable_list::hitable_list(hitable**, int) [43]
                0.00    0.00       3/36          hitable::hitable() [67]
-----------------------------------------------
                0.43    0.00 160000000/368328964     main [1]
                0.56    0.00 208328964/368328964     translate::hit(ray const&, float, float, hit_record&) const <cycle 1> [14]
[44]     0.1    0.99    0.00 368328964         vec3::operator+=(vec3 const&) [44]
-----------------------------------------------
                0.00    0.73       1/1           __libc_csu_init [47]
[45]     0.1    0.00    0.73       1         _GLOBAL__sub_I__ZNK12hitable_list3hitERK3rayffR10hit_record [45]
                0.00    0.73       1/1           __static_initialization_and_destruction_0(int, int) [46]
-----------------------------------------------
                0.00    0.73       1/1           _GLOBAL__sub_I__ZNK12hitable_list3hitERK3rayffR10hit_record [45]
[46]     0.1    0.00    0.73       1         __static_initialization_and_destruction_0(int, int) [46]
                0.00    0.47       1/1           perlin_generate() [49]
                0.26    0.00       3/3           perlin_generate_perm() [53]
-----------------------------------------------
                                                 <spontaneous>
[47]     0.1    0.00    0.73                 __libc_csu_init [47]
                0.00    0.73       1/1           _GLOBAL__sub_I__ZNK12hitable_list3hitERK3rayffR10hit_record [45]
-----------------------------------------------
                0.00    0.00       3/259         camera::camera(vec3, vec3, vec3, float, float, float, float) [33]
                0.20    0.28     256/259         perlin_generate() [49]
[48]     0.0    0.20    0.28     259         unit_vector(vec3) [48]
                0.22    0.00     259/259         vec3::length() const [54]
                0.07    0.00     259/259         operator/(vec3, float) [57]
-----------------------------------------------
                0.00    0.47       1/1           __static_initialization_and_destruction_0(int, int) [46]
[49]     0.0    0.00    0.47       1         perlin_generate() [49]
                0.20    0.28     256/259         unit_vector(vec3) [48]
                0.00    0.00     256/11707851409     vec3::vec3(float, float, float) [19]
                0.00    0.00     256/13087020386     vec3::vec3() [23]
-----------------------------------------------
                0.44    0.00       2/2           cornell_box() [35]
[50]     0.0    0.44    0.00       2         rotate_y::rotate_y(hitable*, float) [50]
                0.00    0.00       2/36          hitable::hitable() [67]
                0.00    0.00       2/2           std::sin(float) [80]
                0.00    0.00       2/2           std::cos(float) [79]
-----------------------------------------------
                0.39    0.00       3/3           cornell_box() [35]
[51]     0.0    0.39    0.00       3         lambertian::lambertian(texture*) [51]
                0.00    0.00       3/4           material::material() [73]
-----------------------------------------------
                                                 <spontaneous>
[52]     0.0    0.27    0.00                 frame_dummy [52]
-----------------------------------------------
                0.26    0.00       3/3           __static_initialization_and_destruction_0(int, int) [46]
[53]     0.0    0.26    0.00       3         perlin_generate_perm() [53]
                0.00    0.00       3/3           permute(int*, int) [74]
-----------------------------------------------
                0.22    0.00     259/259         unit_vector(vec3) [48]
[54]     0.0    0.22    0.00     259         vec3::length() const [54]
                0.00    0.00     259/480259      std::sqrt(float) [65]
-----------------------------------------------
                                                 <spontaneous>
[55]     0.0    0.15    0.00                 reflect(vec3 const&, vec3 const&) [55]
-----------------------------------------------
                0.09    0.02 7258250/7258250     color(ray const&, hitable*, int) [2]
[56]     0.0    0.09    0.02 7258250         diffuse_light::emitted(float, float, vec3 const&) const [56]
                0.02    0.00 7258250/853382798     constant_texture::value(float, float, vec3 const&) const [42]
-----------------------------------------------
                0.07    0.00     259/259         unit_vector(vec3) [48]
[57]     0.0    0.07    0.00     259         operator/(vec3, float) [57]
                0.00    0.00     259/11707851409     vec3::vec3(float, float, float) [19]
-----------------------------------------------
                0.05    0.00       2/2           camera::camera(vec3, vec3, vec3, float, float, float, float) [33]
[58]     0.0    0.05    0.00       2         cross(vec3 const&, vec3 const&) [58]
                0.00    0.00       2/11707851409     vec3::vec3(float, float, float) [19]
-----------------------------------------------
                0.00    0.00 7257108/7257108     color(ray const&, hitable*, int) [2]
[64]     0.0    0.00    0.00 7257108         diffuse_light::scatter(ray const&, hit_record const&, vec3&, ray&) const [64]
-----------------------------------------------
                0.00    0.00     259/480259      vec3::length() const [54]
                0.00    0.00  480000/480259      main [1]
[65]     0.0    0.00    0.00  480259         std::sqrt(float) [65]
-----------------------------------------------
                0.00    0.00  160000/160000      main [1]
[66]     0.0    0.00    0.00  160000         vec3::operator/=(float) [66]
-----------------------------------------------
                0.00    0.00       2/36          box::box(vec3 const&, vec3 const&, material*) [39]
                0.00    0.00       2/36          rotate_y::rotate_y(hitable*, float) [50]
                0.00    0.00       2/36          translate::translate(hitable*, vec3 const&) [76]
                0.00    0.00       3/36          hitable_list::hitable_list(hitable**, int) [43]
                0.00    0.00       5/36          xy_rect::xy_rect(float, float, float, float, float, material*) [70]
                0.00    0.00       6/36          yz_rect::yz_rect(float, float, float, float, float, material*) [69]
                0.00    0.00       7/36          xz_rect::xz_rect(float, float, float, float, float, material*) [68]
                0.00    0.00       9/36          flip_normal::flip_normal(hitable*) [40]
[67]     0.0    0.00    0.00      36         hitable::hitable() [67]
-----------------------------------------------
                0.00    0.00       3/7           cornell_box() [35]
                0.00    0.00       4/7           box::box(vec3 const&, vec3 const&, material*) [39]
[68]     0.0    0.00    0.00       7         xz_rect::xz_rect(float, float, float, float, float, material*) [68]
                0.00    0.00       7/36          hitable::hitable() [67]
-----------------------------------------------
                0.00    0.00       2/6           cornell_box() [35]
                0.00    0.00       4/6           box::box(vec3 const&, vec3 const&, material*) [39]
[69]     0.0    0.00    0.00       6         yz_rect::yz_rect(float, float, float, float, float, material*) [69]
                0.00    0.00       6/36          hitable::hitable() [67]
-----------------------------------------------
                0.00    0.00       1/5           cornell_box() [35]
                0.00    0.00       4/5           box::box(vec3 const&, vec3 const&, material*) [39]
[70]     0.0    0.00    0.00       5         xy_rect::xy_rect(float, float, float, float, float, material*) [70]
                0.00    0.00       5/36          hitable::hitable() [67]
-----------------------------------------------
                0.00    0.00       4/4           cornell_box() [35]
[71]     0.0    0.00    0.00       4         constant_texture::constant_texture(vec3) [71]
                0.00    0.00       4/4           texture::texture() [72]
-----------------------------------------------
                0.00    0.00       4/4           constant_texture::constant_texture(vec3) [71]
[72]     0.0    0.00    0.00       4         texture::texture() [72]
-----------------------------------------------
                0.00    0.00       1/4           diffuse_light::diffuse_light(texture*) [81]
                0.00    0.00       3/4           lambertian::lambertian(texture*) [51]
[73]     0.0    0.00    0.00       4         material::material() [73]
-----------------------------------------------
                0.00    0.00       3/3           perlin_generate_perm() [53]
[74]     0.0    0.00    0.00       3         permute(int*, int) [74]
-----------------------------------------------
                0.00    0.00       1/3           std::chrono::duration<double, std::ratio<1l, 1000l> > std::chrono::__duration_cast_impl<std::chrono::duration<double, std::ratio<1l, 1000l> >, std::ratio<1l, 1000000l>, double, true, false>::__cast<long, std::ratio<1l, 1000000000l> >(std::chrono::duration<long, std::ratio<1l, 1000000000l> > const&) [83]
                0.00    0.00       2/3           std::common_type<std::chrono::duration<long, std::ratio<1l, 1000000000l> >, std::chrono::duration<long, std::ratio<1l, 1000000000l> > >::type std::chrono::operator-<long, std::ratio<1l, 1000000000l>, long, std::ratio<1l, 1000000000l> >(std::chrono::duration<long, std::ratio<1l, 1000000000l> > const&, std::chrono::duration<long, std::ratio<1l, 1000000000l> > const&) [88]
[75]     0.0    0.00    0.00       3         std::chrono::duration<long, std::ratio<1l, 1000000000l> >::count() const [75]
-----------------------------------------------
                0.00    0.00       2/2           cornell_box() [35]
[76]     0.0    0.00    0.00       2         translate::translate(hitable*, vec3 const&) [76]
                0.00    0.00       2/36          hitable::hitable() [67]
-----------------------------------------------
                0.00    0.00       2/2           std::common_type<std::chrono::duration<long, std::ratio<1l, 1000000000l> >, std::chrono::duration<long, std::ratio<1l, 1000000000l> > >::type std::chrono::operator-<std::chrono::_V2::system_clock, std::chrono::duration<long, std::ratio<1l, 1000000000l> >, std::chrono::duration<long, std::ratio<1l, 1000000000l> > >(std::chrono::time_point<std::chrono::_V2::system_clock, std::chrono::duration<long, std::ratio<1l, 1000000000l> > > const&, std::chrono::time_point<std::chrono::_V2::system_clock, std::chrono::duration<long, std::ratio<1l, 1000000000l> > > const&) [87]
[77]     0.0    0.00    0.00       2         std::chrono::time_point<std::chrono::_V2::system_clock, std::chrono::duration<long, std::ratio<1l, 1000000000l> > >::time_since_epoch() const [77]
-----------------------------------------------
                0.00    0.00       1/2           main [1]
                0.00    0.00       1/2           std::chrono::duration<double, std::ratio<1l, 1000l> >::duration<long, std::ratio<1l, 1000000000l>, void>(std::chrono::duration<long, std::ratio<1l, 1000000000l> > const&) [85]
[78]     0.0    0.00    0.00       2         std::chrono::duration<double, std::ratio<1l, 1000l> >::count() const [78]
-----------------------------------------------
                0.00    0.00       2/2           rotate_y::rotate_y(hitable*, float) [50]
[79]     0.0    0.00    0.00       2         std::cos(float) [79]
-----------------------------------------------
                0.00    0.00       2/2           rotate_y::rotate_y(hitable*, float) [50]
[80]     0.0    0.00    0.00       2         std::sin(float) [80]
-----------------------------------------------
                0.00    0.00       1/1           cornell_box() [35]
[81]     0.0    0.00    0.00       1         diffuse_light::diffuse_light(texture*) [81]
                0.00    0.00       1/4           material::material() [73]
-----------------------------------------------
                0.00    0.00       1/1           std::chrono::duration<double, std::ratio<1l, 1000l> >::duration<long, std::ratio<1l, 1000000000l>, void>(std::chrono::duration<long, std::ratio<1l, 1000000000l> > const&) [85]
[82]     0.0    0.00    0.00       1         std::enable_if<std::chrono::__is_duration<std::chrono::duration<double, std::ratio<1l, 1000l> > >::value, std::chrono::duration<double, std::ratio<1l, 1000l> > >::type std::chrono::duration_cast<std::chrono::duration<double, std::ratio<1l, 1000l> >, long, std::ratio<1l, 1000000000l> >(std::chrono::duration<long, std::ratio<1l, 1000000000l> > const&) [82]
                0.00    0.00       1/1           std::chrono::duration<double, std::ratio<1l, 1000l> > std::chrono::__duration_cast_impl<std::chrono::duration<double, std::ratio<1l, 1000l> >, std::ratio<1l, 1000000l>, double, true, false>::__cast<long, std::ratio<1l, 1000000000l> >(std::chrono::duration<long, std::ratio<1l, 1000000000l> > const&) [83]
-----------------------------------------------
                0.00    0.00       1/1           std::enable_if<std::chrono::__is_duration<std::chrono::duration<double, std::ratio<1l, 1000l> > >::value, std::chrono::duration<double, std::ratio<1l, 1000l> > >::type std::chrono::duration_cast<std::chrono::duration<double, std::ratio<1l, 1000l> >, long, std::ratio<1l, 1000000000l> >(std::chrono::duration<long, std::ratio<1l, 1000000000l> > const&) [82]
[83]     0.0    0.00    0.00       1         std::chrono::duration<double, std::ratio<1l, 1000l> > std::chrono::__duration_cast_impl<std::chrono::duration<double, std::ratio<1l, 1000l> >, std::ratio<1l, 1000000l>, double, true, false>::__cast<long, std::ratio<1l, 1000000000l> >(std::chrono::duration<long, std::ratio<1l, 1000000000l> > const&) [83]
                0.00    0.00       1/3           std::chrono::duration<long, std::ratio<1l, 1000000000l> >::count() const [75]
                0.00    0.00       1/1           std::chrono::duration<double, std::ratio<1l, 1000l> >::duration<double, void>(double const&) [84]
-----------------------------------------------
                0.00    0.00       1/1           std::chrono::duration<double, std::ratio<1l, 1000l> > std::chrono::__duration_cast_impl<std::chrono::duration<double, std::ratio<1l, 1000l> >, std::ratio<1l, 1000000l>, double, true, false>::__cast<long, std::ratio<1l, 1000000000l> >(std::chrono::duration<long, std::ratio<1l, 1000000000l> > const&) [83]
[84]     0.0    0.00    0.00       1         std::chrono::duration<double, std::ratio<1l, 1000l> >::duration<double, void>(double const&) [84]
-----------------------------------------------
                0.00    0.00       1/1           main [1]
[85]     0.0    0.00    0.00       1         std::chrono::duration<double, std::ratio<1l, 1000l> >::duration<long, std::ratio<1l, 1000000000l>, void>(std::chrono::duration<long, std::ratio<1l, 1000000000l> > const&) [85]
                0.00    0.00       1/1           std::enable_if<std::chrono::__is_duration<std::chrono::duration<double, std::ratio<1l, 1000l> > >::value, std::chrono::duration<double, std::ratio<1l, 1000l> > >::type std::chrono::duration_cast<std::chrono::duration<double, std::ratio<1l, 1000l> >, long, std::ratio<1l, 1000000000l> >(std::chrono::duration<long, std::ratio<1l, 1000000000l> > const&) [82]
                0.00    0.00       1/2           std::chrono::duration<double, std::ratio<1l, 1000l> >::count() const [78]
-----------------------------------------------
                0.00    0.00       1/1           std::common_type<std::chrono::duration<long, std::ratio<1l, 1000000000l> >, std::chrono::duration<long, std::ratio<1l, 1000000000l> > >::type std::chrono::operator-<long, std::ratio<1l, 1000000000l>, long, std::ratio<1l, 1000000000l> >(std::chrono::duration<long, std::ratio<1l, 1000000000l> > const&, std::chrono::duration<long, std::ratio<1l, 1000000000l> > const&) [88]
[86]     0.0    0.00    0.00       1         std::chrono::duration<long, std::ratio<1l, 1000000000l> >::duration<long, void>(long const&) [86]
-----------------------------------------------
                0.00    0.00       1/1           main [1]
[87]     0.0    0.00    0.00       1         std::common_type<std::chrono::duration<long, std::ratio<1l, 1000000000l> >, std::chrono::duration<long, std::ratio<1l, 1000000000l> > >::type std::chrono::operator-<std::chrono::_V2::system_clock, std::chrono::duration<long, std::ratio<1l, 1000000000l> >, std::chrono::duration<long, std::ratio<1l, 1000000000l> > >(std::chrono::time_point<std::chrono::_V2::system_clock, std::chrono::duration<long, std::ratio<1l, 1000000000l> > > const&, std::chrono::time_point<std::chrono::_V2::system_clock, std::chrono::duration<long, std::ratio<1l, 1000000000l> > > const&) [87]
                0.00    0.00       2/2           std::chrono::time_point<std::chrono::_V2::system_clock, std::chrono::duration<long, std::ratio<1l, 1000000000l> > >::time_since_epoch() const [77]
                0.00    0.00       1/1           std::common_type<std::chrono::duration<long, std::ratio<1l, 1000000000l> >, std::chrono::duration<long, std::ratio<1l, 1000000000l> > >::type std::chrono::operator-<long, std::ratio<1l, 1000000000l>, long, std::ratio<1l, 1000000000l> >(std::chrono::duration<long, std::ratio<1l, 1000000000l> > const&, std::chrono::duration<long, std::ratio<1l, 1000000000l> > const&) [88]
-----------------------------------------------
                0.00    0.00       1/1           std::common_type<std::chrono::duration<long, std::ratio<1l, 1000000000l> >, std::chrono::duration<long, std::ratio<1l, 1000000000l> > >::type std::chrono::operator-<std::chrono::_V2::system_clock, std::chrono::duration<long, std::ratio<1l, 1000000000l> >, std::chrono::duration<long, std::ratio<1l, 1000000000l> > >(std::chrono::time_point<std::chrono::_V2::system_clock, std::chrono::duration<long, std::ratio<1l, 1000000000l> > > const&, std::chrono::time_point<std::chrono::_V2::system_clock, std::chrono::duration<long, std::ratio<1l, 1000000000l> > > const&) [87]
[88]     0.0    0.00    0.00       1         std::common_type<std::chrono::duration<long, std::ratio<1l, 1000000000l> >, std::chrono::duration<long, std::ratio<1l, 1000000000l> > >::type std::chrono::operator-<long, std::ratio<1l, 1000000000l>, long, std::ratio<1l, 1000000000l> >(std::chrono::duration<long, std::ratio<1l, 1000000000l> > const&, std::chrono::duration<long, std::ratio<1l, 1000000000l> > const&) [88]
                0.00    0.00       2/3           std::chrono::duration<long, std::ratio<1l, 1000000000l> >::count() const [75]
                0.00    0.00       1/1           std::chrono::duration<long, std::ratio<1l, 1000000000l> >::duration<long, void>(long const&) [86]
-----------------------------------------------

 This table describes the call tree of the program, and was sorted by
 the total amount of time spent in each function and its children.

 Each entry in this table consists of several lines.  The line with the
 index number at the left hand margin lists the current function.
 The lines above it list the functions that called this function,
 and the lines below it list the functions this one called.
 This line lists:
     index	A unique number given to each element of the table.
		Index numbers are sorted numerically.
		The index number is printed next to every function name so
		it is easier to look up where the function is in the table.

     % time	This is the percentage of the `total' time that was spent
		in this function and its children.  Note that due to
		different viewpoints, functions excluded by options, etc,
		these numbers will NOT add up to 100%.

     self	This is the total amount of time spent in this function.

     children	This is the total amount of time propagated into this
		function by its children.

     called	This is the number of times the function was called.
		If the function called itself recursively, the number
		only includes non-recursive calls, and is followed by
		a `+' and the number of recursive calls.

     name	The name of the current function.  The index number is
		printed after it.  If the function is a member of a
		cycle, the cycle number is printed between the
		function's name and the index number.


 For the function's parents, the fields have the following meanings:

     self	This is the amount of time that was propagated directly
		from the function into this parent.

     children	This is the amount of time that was propagated from
		the function's children into this parent.

     called	This is the number of times this parent called the
		function `/' the total number of times the function
		was called.  Recursive calls to the function are not
		included in the number after the `/'.

     name	This is the name of the parent.  The parent's index
		number is printed after it.  If the parent is a
		member of a cycle, the cycle number is printed between
		the name and the index number.

 If the parents of the function cannot be determined, the word
 `<spontaneous>' is printed in the `name' field, and all the other
 fields are blank.

 For the function's children, the fields have the following meanings:

     self	This is the amount of time that was propagated directly
		from the child into the function.

     children	This is the amount of time that was propagated from the
		child's children to the function.

     called	This is the number of times the function called
		this child `/' the total number of times the child
		was called.  Recursive calls by the child are not
		listed in the number after the `/'.

     name	This is the name of the child.  The child's index
		number is printed after it.  If the child is a
		member of a cycle, the cycle number is printed
		between the name and the index number.

 If there are any cycles (circles) in the call graph, there is an
 entry for the cycle-as-a-whole.  This entry shows who called the
 cycle (as parents) and the members of the cycle (as children.)
 The `+' recursive calls entry shows the number of function calls that
 were internal to the cycle, and the calls entry for each member shows,
 for that member, how many times it was called from other members of
 the cycle.

Copyright (C) 2012-2018 Free Software Foundation, Inc.

Copying and distribution of this file, with or without modification,
are permitted in any medium without royalty provided the copyright
notice and this notice are preserved.

Index by function name

  [45] _GLOBAL__sub_I__ZNK12hitable_list3hitERK3rayffR10hit_record (main.cpp) [20] camera::get_ray(float, float) [30] material::emitted(float, float, vec3 const&) const
  [35] cornell_box()          [33] camera::camera(vec3, vec3, vec3, float, float, float, float) [7] rotate_y::hit(ray const&, float, float, hit_record&) const
  [48] unit_vector(vec3)      [67] hitable::hitable()     [14] translate::hit(ray const&, float, float, hit_record&) const
  [32] random_in_unit_disk()  [72] texture::texture()     [77] std::chrono::time_point<std::chrono::_V2::system_clock, std::chrono::duration<long, std::ratio<1l, 1000000000l> > >::time_since_epoch() const
  [13] random_in_unit_sphere() [70] xy_rect::xy_rect(float, float, float, float, float, material*) [78] std::chrono::duration<double, std::ratio<1l, 1000l> >::count() const
  [36] dot(vec3 const&, vec3 const&) [68] xz_rect::xz_rect(float, float, float, float, float, material*) [75] std::chrono::duration<long, std::ratio<1l, 1000000000l> >::count() const
  [46] __static_initialization_and_destruction_0(int, int) (main.cpp) [69] yz_rect::yz_rect(float, float, float, float, float, material*) [82] std::enable_if<std::chrono::__is_duration<std::chrono::duration<double, std::ratio<1l, 1000l> > >::value, std::chrono::duration<double, std::ratio<1l, 1000l> > >::type std::chrono::duration_cast<std::chrono::duration<double, std::ratio<1l, 1000l> >, long, std::ratio<1l, 1000000000l> >(std::chrono::duration<long, std::ratio<1l, 1000000000l> > const&)
   [2] color(ray const&, hitable*, int) [73] material::material() [83] std::chrono::duration<double, std::ratio<1l, 1000l> > std::chrono::__duration_cast_impl<std::chrono::duration<double, std::ratio<1l, 1000l> >, std::ratio<1l, 1000000l>, double, true, false>::__cast<long, std::ratio<1l, 1000000000l> >(std::chrono::duration<long, std::ratio<1l, 1000000000l> > const&)
  [58] cross(vec3 const&, vec3 const&) [50] rotate_y::rotate_y(hitable*, float) [84] std::chrono::duration<double, std::ratio<1l, 1000l> >::duration<double, void>(double const&)
  [74] permute(int*, int)     [76] translate::translate(hitable*, vec3 const&) [85] std::chrono::duration<double, std::ratio<1l, 1000l> >::duration<long, std::ratio<1l, 1000000000l>, void>(std::chrono::duration<long, std::ratio<1l, 1000000000l> > const&)
  [55] reflect(vec3 const&, vec3 const&) [10] lambertian::scatter(ray const&, hit_record const&, vec3&, ray&) const [86] std::chrono::duration<long, std::ratio<1l, 1000000000l> >::duration<long, void>(long const&)
  [41] refract(vec3 const&, vec3 const&, float, vec3&) [5] flip_normal::hit(ray const&, float, float, hit_record&) const [87] std::common_type<std::chrono::duration<long, std::ratio<1l, 1000000000l> >, std::chrono::duration<long, std::ratio<1l, 1000000000l> > >::type std::chrono::operator-<std::chrono::_V2::system_clock, std::chrono::duration<long, std::ratio<1l, 1000000000l> >, std::chrono::duration<long, std::ratio<1l, 1000000000l> > >(std::chrono::time_point<std::chrono::_V2::system_clock, std::chrono::duration<long, std::ratio<1l, 1000000000l> > > const&, std::chrono::time_point<std::chrono::_V2::system_clock, std::chrono::duration<long, std::ratio<1l, 1000000000l> > > const&)
  [49] perlin_generate() (perlin.h) [4] hitable_list::hit(ray const&, float, float, hit_record&) const [88] std::common_type<std::chrono::duration<long, std::ratio<1l, 1000000000l> >, std::chrono::duration<long, std::ratio<1l, 1000000000l> > >::type std::chrono::operator-<long, std::ratio<1l, 1000000000l>, long, std::ratio<1l, 1000000000l> >(std::chrono::duration<long, std::ratio<1l, 1000000000l> > const&, std::chrono::duration<long, std::ratio<1l, 1000000000l> > const&)
  [53] perlin_generate_perm() (perlin.h) [56] diffuse_light::emitted(float, float, vec3 const&) const [79] std::cos(float)
  [25] hit_record::hit_record() [64] diffuse_light::scatter(ray const&, hit_record const&, vec3&, ray&) const [80] std::sin(float)
  [51] lambertian::lambertian(texture*) [42] constant_texture::value(float, float, vec3 const&) const [34] std::tan(float)
  [40] flip_normal::flip_normal(hitable*) [31] box::hit(ray const&, float, float, hit_record&) const [65] std::sqrt(float)
  [43] hitable_list::hitable_list(hitable**, int) [18] ray::point_at_parameter(float) const [57] operator/(vec3, float)
  [81] diffuse_light::diffuse_light(texture*) [9] ray::origin() const [15] operator-(vec3 const&, vec3 const&)
  [71] constant_texture::constant_texture(vec3) [12] ray::direction() const [29] operator*(vec3 const&, vec3 const&)
  [39] box::box(vec3 const&, vec3 const&, material*) [26] vec3::x() const [37] operator*(vec3 const&, float)
  [22] ray::ray(vec3 const&, vec3 const&) [24] vec3::y() const [17] operator*(float, vec3 const&)
  [38] ray::ray()             [27] vec3::z() const        [16] operator+(vec3 const&, vec3 const&)
  [19] vec3::vec3(float, float, float) [54] vec3::length() const [52] frame_dummy
  [23] vec3::vec3()           [28] vec3::operator-() const [1] main
  [66] vec3::operator/=(float) [11] xy_rect::hit(ray const&, float, float, hit_record&) const [3] <cycle 1>
  [21] vec3::operator[](int)   [8] xz_rect::hit(ray const&, float, float, hit_record&) const
  [44] vec3::operator+=(vec3 const&) [6] yz_rect::hit(ray const&, float, float, hit_record&) const
